<?xml version="1.0"?>
<!DOCTYPE svg PUBLIC '-//W3C//DTD SVG 1.0//EN'
          'http://www.w3.org/TR/2001/REC-SVG-20010904/DTD/svg10.dtd'>
<svg xmlns:xlink="http://www.w3.org/1999/xlink" style="fill-opacity:1; color-rendering:auto; color-interpolation:auto; stroke:black; text-rendering:auto; stroke-linecap:square; stroke-miterlimit:10; stroke-opacity:1; shape-rendering:auto; fill:black; stroke-dasharray:none; font-weight:normal; stroke-width:1; font-family:'Dialog'; font-style:normal; stroke-linejoin:miter; font-size:12px; stroke-dashoffset:0; image-rendering:auto;" width="560" height="420" xmlns="http://www.w3.org/2000/svg"
><!--Generated by the Batik Graphics2D SVG Generator--><defs id="genericDefs"
  /><g
  ><defs id="defs1"
    ><clipPath clipPathUnits="userSpaceOnUse" id="clipPath1"
      ><path d="M0 0 L560 0 L560 420 L0 420 L0 0 Z"
      /></clipPath
      ><font horiz-adv-x="60.009766" id="font1"
      ><font-face ascent="92.822266" descent="23.583984" units-per-em="100" style="font-style:normal; font-family:SansSerif; font-weight:normal;"
        /><missing-glyph horiz-adv-x="60.009766" d="M4.9844 -17.6719 L4.9844 70.5156 L54.9844 70.5156 L54.9844 -17.6719 L4.9844 -17.6719 ZM10.5938 -12.1094 L49.4219 -12.1094 L49.4219 64.8906 L10.5938 64.8906 L10.5938 -12.1094 Z"
        /><glyph unicode="0" horiz-adv-x="63.623047" d="M31.7812 66.4062 Q24.1719 66.4062 20.3359 58.9141 Q16.5 51.4219 16.5 36.375 Q16.5 21.3906 20.3359 13.8906 Q24.1719 6.3906 31.7812 6.3906 Q39.4531 6.3906 43.2891 13.8906 Q47.125 21.3906 47.125 36.375 Q47.125 51.4219 43.2891 58.9141 Q39.4531 66.4062 31.7812 66.4062 ZM31.7812 74.2188 Q44.0469 74.2188 50.5156 64.5234 Q56.9844 54.8281 56.9844 36.375 Q56.9844 17.9688 50.5156 8.2734 Q44.0469 -1.4219 31.7812 -1.4219 Q19.5312 -1.4219 13.0625 8.2734 Q6.5938 17.9688 6.5938 36.375 Q6.5938 54.8281 13.0625 64.5234 Q19.5312 74.2188 31.7812 74.2188 Z"
        /><glyph unicode="5" horiz-adv-x="63.623047" d="M10.7969 72.9062 L49.5156 72.9062 L49.5156 64.5938 L19.8281 64.5938 L19.8281 46.7344 Q21.9688 47.4688 24.1172 47.8281 Q26.2656 48.1875 28.4219 48.1875 Q40.625 48.1875 47.7578 41.5 Q54.8906 34.8125 54.8906 23.3906 Q54.8906 11.625 47.5625 5.1016 Q40.2344 -1.4219 26.9062 -1.4219 Q22.3125 -1.4219 17.5547 -0.6406 Q12.7969 0.1406 7.7188 1.7031 L7.7188 11.625 Q12.1094 9.2344 16.7969 8.0625 Q21.4844 6.8906 26.7031 6.8906 Q35.1562 6.8906 40.0859 11.3281 Q45.0156 15.7656 45.0156 23.3906 Q45.0156 31 40.0859 35.4453 Q35.1562 39.8906 26.7031 39.8906 Q22.75 39.8906 18.8203 39.0156 Q14.8906 38.1406 10.7969 36.2812 L10.7969 72.9062 Z"
        /><glyph unicode="1" horiz-adv-x="63.623047" d="M12.4062 8.2969 L28.5156 8.2969 L28.5156 63.9219 L10.9844 60.4062 L10.9844 69.3906 L28.4219 72.9062 L38.2812 72.9062 L38.2812 8.2969 L54.3906 8.2969 L54.3906 0 L12.4062 0 L12.4062 8.2969 Z"
        /><glyph unicode="2" horiz-adv-x="63.623047" d="M19.1875 8.2969 L53.6094 8.2969 L53.6094 0 L7.3281 0 L7.3281 8.2969 Q12.9375 14.1094 22.6328 23.8984 Q32.3281 33.6875 34.8125 36.5312 Q39.5469 41.8438 41.4297 45.5312 Q43.3125 49.2188 43.3125 52.7812 Q43.3125 58.5938 39.2344 62.2578 Q35.1562 65.9219 28.6094 65.9219 Q23.9688 65.9219 18.8203 64.3125 Q13.6719 62.7031 7.8125 59.4219 L7.8125 69.3906 Q13.7656 71.7812 18.9453 73 Q24.125 74.2188 28.4219 74.2188 Q39.75 74.2188 46.4844 68.5547 Q53.2188 62.8906 53.2188 53.4219 Q53.2188 48.9219 51.5391 44.8984 Q49.8594 40.875 45.4062 35.4062 Q44.1875 33.9844 37.6484 27.2188 Q31.1094 20.4531 19.1875 8.2969 Z"
        /><glyph unicode="3" horiz-adv-x="63.623047" d="M40.5781 39.3125 Q47.6562 37.7969 51.6328 33.0078 Q55.6094 28.2188 55.6094 21.1875 Q55.6094 10.4062 48.1875 4.4922 Q40.7656 -1.4219 27.0938 -1.4219 Q22.5156 -1.4219 17.6562 -0.5156 Q12.7969 0.3906 7.625 2.2031 L7.625 11.7188 Q11.7188 9.3281 16.6016 8.1094 Q21.4844 6.8906 26.8125 6.8906 Q36.0781 6.8906 40.9375 10.5469 Q45.7969 14.2031 45.7969 21.1875 Q45.7969 27.6406 41.2812 31.2734 Q36.7656 34.9062 28.7188 34.9062 L20.2188 34.9062 L20.2188 43.0156 L29.1094 43.0156 Q36.375 43.0156 40.2344 45.9219 Q44.0938 48.8281 44.0938 54.2969 Q44.0938 59.9062 40.1172 62.9141 Q36.1406 65.9219 28.7188 65.9219 Q24.6562 65.9219 20.0156 65.0391 Q15.375 64.1562 9.8125 62.3125 L9.8125 71.0938 Q15.4375 72.6562 20.3438 73.4375 Q25.25 74.2188 29.5938 74.2188 Q40.8281 74.2188 47.3672 69.1172 Q53.9062 64.0156 53.9062 55.3281 Q53.9062 49.2656 50.4375 45.0938 Q46.9688 40.9219 40.5781 39.3125 Z"
        /><glyph unicode="n" horiz-adv-x="63.378906" d="M54.8906 33.0156 L54.8906 0 L45.9062 0 L45.9062 32.7188 Q45.9062 40.4844 42.875 44.3359 Q39.8438 48.1875 33.7969 48.1875 Q26.5156 48.1875 22.3125 43.5547 Q18.1094 38.9219 18.1094 30.9062 L18.1094 0 L9.0781 0 L9.0781 54.6875 L18.1094 54.6875 L18.1094 46.1875 Q21.3438 51.125 25.7109 53.5625 Q30.0781 56 35.7969 56 Q45.2188 56 50.0547 50.1719 Q54.8906 44.3438 54.8906 33.0156 Z"
        /><glyph unicode=" " horiz-adv-x="31.78711" d=""
        /><glyph unicode="p" horiz-adv-x="63.476562" d="M18.1094 8.2031 L18.1094 -20.7969 L9.0781 -20.7969 L9.0781 54.6875 L18.1094 54.6875 L18.1094 46.3906 Q20.9531 51.2656 25.2734 53.6328 Q29.5938 56 35.5938 56 Q45.5625 56 51.7891 48.0938 Q58.0156 40.1875 58.0156 27.2969 Q58.0156 14.4062 51.7891 6.4922 Q45.5625 -1.4219 35.5938 -1.4219 Q29.5938 -1.4219 25.2734 0.9531 Q20.9531 3.3281 18.1094 8.2031 ZM48.6875 27.2969 Q48.6875 37.2031 44.6094 42.8438 Q40.5312 48.4844 33.4062 48.4844 Q26.2656 48.4844 22.1875 42.8438 Q18.1094 37.2031 18.1094 27.2969 Q18.1094 17.3906 22.1875 11.75 Q26.2656 6.1094 33.4062 6.1094 Q40.5312 6.1094 44.6094 11.75 Q48.6875 17.3906 48.6875 27.2969 Z"
        /><glyph unicode="u" horiz-adv-x="63.378906" d="M8.5 21.5781 L8.5 54.6875 L17.4844 54.6875 L17.4844 21.9219 Q17.4844 14.1562 20.5078 10.2734 Q23.5312 6.3906 29.5938 6.3906 Q36.8594 6.3906 41.0859 11.0312 Q45.3125 15.6719 45.3125 23.6875 L45.3125 54.6875 L54.2969 54.6875 L54.2969 0 L45.3125 0 L45.3125 8.4062 Q42.0469 3.4219 37.7266 1 Q33.4062 -1.4219 27.6875 -1.4219 Q18.2656 -1.4219 13.3828 4.4375 Q8.5 10.2969 8.5 21.5781 Z"
        /><glyph unicode="o" horiz-adv-x="61.18164" d="M30.6094 48.3906 Q23.3906 48.3906 19.1875 42.75 Q14.9844 37.1094 14.9844 27.2969 Q14.9844 17.4844 19.1641 11.8438 Q23.3438 6.2031 30.6094 6.2031 Q37.7969 6.2031 41.9922 11.8672 Q46.1875 17.5312 46.1875 27.2969 Q46.1875 37.0156 41.9922 42.7031 Q37.7969 48.3906 30.6094 48.3906 ZM30.6094 56 Q42.3281 56 49.0234 48.3828 Q55.7188 40.7656 55.7188 27.2969 Q55.7188 13.875 49.0234 6.2266 Q42.3281 -1.4219 30.6094 -1.4219 Q18.8438 -1.4219 12.1797 6.2266 Q5.5156 13.875 5.5156 27.2969 Q5.5156 40.7656 12.1797 48.3828 Q18.8438 56 30.6094 56 Z"
        /><glyph unicode="r" horiz-adv-x="41.11328" d="M41.1094 46.2969 Q39.5938 47.1719 37.8125 47.5859 Q36.0312 48 33.8906 48 Q26.2656 48 22.1875 43.0469 Q18.1094 38.0938 18.1094 28.8125 L18.1094 0 L9.0781 0 L9.0781 54.6875 L18.1094 54.6875 L18.1094 46.1875 Q20.9531 51.1719 25.4922 53.5859 Q30.0312 56 36.5312 56 Q37.4531 56 38.5781 55.8828 Q39.7031 55.7656 41.0625 55.5156 L41.1094 46.2969 Z"
        /><glyph unicode="g" horiz-adv-x="63.476562" d="M45.4062 27.9844 Q45.4062 37.75 41.3828 43.1172 Q37.3594 48.4844 30.0781 48.4844 Q22.8594 48.4844 18.8281 43.1172 Q14.7969 37.75 14.7969 27.9844 Q14.7969 18.2656 18.8281 12.8906 Q22.8594 7.5156 30.0781 7.5156 Q37.3594 7.5156 41.3828 12.8906 Q45.4062 18.2656 45.4062 27.9844 ZM54.3906 6.7812 Q54.3906 -7.1719 48.1953 -13.9844 Q42 -20.7969 29.2031 -20.7969 Q24.4688 -20.7969 20.2656 -20.0938 Q16.0625 -19.3906 12.1094 -17.9219 L12.1094 -9.1875 Q16.0625 -11.3281 19.9219 -12.3516 Q23.7812 -13.375 27.7812 -13.375 Q36.625 -13.375 41.0156 -8.7656 Q45.4062 -4.1562 45.4062 5.1719 L45.4062 9.625 Q42.625 4.7812 38.2812 2.3906 Q33.9375 0 27.875 0 Q17.8281 0 11.6719 7.6641 Q5.5156 15.3281 5.5156 27.9844 Q5.5156 40.6719 11.6719 48.3359 Q17.8281 56 27.875 56 Q33.9375 56 38.2812 53.6094 Q42.625 51.2188 45.4062 46.3906 L45.4062 54.6875 L54.3906 54.6875 L54.3906 6.7812 Z"
        /><glyph unicode="4" horiz-adv-x="63.623047" d="M37.7969 64.3125 L12.8906 25.3906 L37.7969 25.3906 L37.7969 64.3125 ZM35.2031 72.9062 L47.6094 72.9062 L47.6094 25.3906 L58.0156 25.3906 L58.0156 17.1875 L47.6094 17.1875 L47.6094 0 L37.7969 0 L37.7969 17.1875 L4.8906 17.1875 L4.8906 26.7031 L35.2031 72.9062 Z"
        /><glyph unicode="e" horiz-adv-x="61.523438" d="M56.2031 29.5938 L56.2031 25.2031 L14.8906 25.2031 Q15.4844 15.9219 20.4844 11.0625 Q25.4844 6.2031 34.4219 6.2031 Q39.5938 6.2031 44.4531 7.4688 Q49.3125 8.7344 54.1094 11.2812 L54.1094 2.7812 Q49.2656 0.7344 44.1875 -0.3438 Q39.1094 -1.4219 33.8906 -1.4219 Q20.7969 -1.4219 13.1562 6.1953 Q5.5156 13.8125 5.5156 26.8125 Q5.5156 40.2344 12.7656 48.1172 Q20.0156 56 32.3281 56 Q43.3594 56 49.7812 48.8984 Q56.2031 41.7969 56.2031 29.5938 ZM47.2188 32.2344 Q47.125 39.5938 43.0938 43.9922 Q39.0625 48.3906 32.4219 48.3906 Q24.9062 48.3906 20.3906 44.1406 Q15.875 39.8906 15.1875 32.1719 L47.2188 32.2344 Z"
        /><glyph unicode="c" horiz-adv-x="54.98047" d="M48.7812 52.5938 L48.7812 44.1875 Q44.9688 46.2969 41.1406 47.3438 Q37.3125 48.3906 33.4062 48.3906 Q24.6562 48.3906 19.8203 42.8516 Q14.9844 37.3125 14.9844 27.2969 Q14.9844 17.2812 19.8203 11.7422 Q24.6562 6.2031 33.4062 6.2031 Q37.3125 6.2031 41.1406 7.25 Q44.9688 8.2969 48.7812 10.4062 L48.7812 2.0938 Q45.0156 0.3438 40.9922 -0.5391 Q36.9688 -1.4219 32.4219 -1.4219 Q20.0625 -1.4219 12.7891 6.3438 Q5.5156 14.1094 5.5156 27.2969 Q5.5156 40.6719 12.8672 48.3359 Q20.2188 56 33.0156 56 Q37.1562 56 41.1094 55.1484 Q45.0625 54.2969 48.7812 52.5938 Z"
        /><glyph unicode="a" horiz-adv-x="61.279297" d="M34.2812 27.4844 Q23.3906 27.4844 19.1875 25 Q14.9844 22.5156 14.9844 16.5 Q14.9844 11.7188 18.1406 8.9141 Q21.2969 6.1094 26.7031 6.1094 Q34.1875 6.1094 38.7031 11.4062 Q43.2188 16.7031 43.2188 25.4844 L43.2188 27.4844 L34.2812 27.4844 ZM52.2031 31.2031 L52.2031 0 L43.2188 0 L43.2188 8.2969 Q40.1406 3.3281 35.5469 0.9531 Q30.9531 -1.4219 24.3125 -1.4219 Q15.9219 -1.4219 10.9609 3.2969 Q6 8.0156 6 15.9219 Q6 25.1406 12.1797 29.8281 Q18.3594 34.5156 30.6094 34.5156 L43.2188 34.5156 L43.2188 35.4062 Q43.2188 41.6094 39.1406 45 Q35.0625 48.3906 27.6875 48.3906 Q23 48.3906 18.5547 47.2656 Q14.1094 46.1406 10.0156 43.8906 L10.0156 52.2031 Q14.9375 54.1094 19.5781 55.0547 Q24.2188 56 28.6094 56 Q40.4844 56 46.3438 49.8516 Q52.2031 43.7031 52.2031 31.2031 Z"
        /><glyph unicode="t" horiz-adv-x="39.208984" d="M18.3125 70.2188 L18.3125 54.6875 L36.8125 54.6875 L36.8125 47.7031 L18.3125 47.7031 L18.3125 18.0156 Q18.3125 11.3281 20.1406 9.4219 Q21.9688 7.5156 27.5938 7.5156 L36.8125 7.5156 L36.8125 0 L27.5938 0 Q17.1875 0 13.2344 3.8828 Q9.2812 7.7656 9.2812 18.0156 L9.2812 47.7031 L2.6875 47.7031 L2.6875 54.6875 L9.2812 54.6875 L9.2812 70.2188 L18.3125 70.2188 Z"
        /><glyph unicode="s" horiz-adv-x="52.09961" d="M44.2812 53.0781 L44.2812 44.5781 Q40.4844 46.5312 36.3828 47.5078 Q32.2812 48.4844 27.875 48.4844 Q21.1875 48.4844 17.8438 46.4375 Q14.5 44.3906 14.5 40.2812 Q14.5 37.1562 16.8906 35.375 Q19.2812 33.5938 26.5156 31.9844 L29.5938 31.2969 Q39.1562 29.25 43.1875 25.5156 Q47.2188 21.7812 47.2188 15.0938 Q47.2188 7.4688 41.1875 3.0234 Q35.1562 -1.4219 24.6094 -1.4219 Q20.2188 -1.4219 15.4531 -0.5625 Q10.6875 0.2969 5.4219 2 L5.4219 11.2812 Q10.4062 8.6875 15.2344 7.3984 Q20.0625 6.1094 24.8125 6.1094 Q31.1562 6.1094 34.5703 8.2812 Q37.9844 10.4531 37.9844 14.4062 Q37.9844 18.0625 35.5234 20.0156 Q33.0625 21.9688 24.7031 23.7812 L21.5781 24.5156 Q13.2344 26.2656 9.5234 29.9062 Q5.8125 33.5469 5.8125 39.8906 Q5.8125 47.6094 11.2812 51.8047 Q16.75 56 26.8125 56 Q31.7812 56 36.1797 55.2734 Q40.5781 54.5469 44.2812 53.0781 Z"
        /><glyph unicode="i" horiz-adv-x="27.783203" d="M9.4219 54.6875 L18.4062 54.6875 L18.4062 0 L9.4219 0 L9.4219 54.6875 ZM9.4219 75.9844 L18.4062 75.9844 L18.4062 64.5938 L9.4219 64.5938 L9.4219 75.9844 Z"
        /><glyph unicode="d" horiz-adv-x="63.476562" d="M45.4062 46.3906 L45.4062 75.9844 L54.3906 75.9844 L54.3906 0 L45.4062 0 L45.4062 8.2031 Q42.5781 3.3281 38.2578 0.9531 Q33.9375 -1.4219 27.875 -1.4219 Q17.9688 -1.4219 11.7422 6.4922 Q5.5156 14.4062 5.5156 27.2969 Q5.5156 40.1875 11.7422 48.0938 Q17.9688 56 27.875 56 Q33.9375 56 38.2578 53.6328 Q42.5781 51.2656 45.4062 46.3906 ZM14.7969 27.2969 Q14.7969 17.3906 18.875 11.75 Q22.9531 6.1094 30.0781 6.1094 Q37.2031 6.1094 41.3047 11.75 Q45.4062 17.3906 45.4062 27.2969 Q45.4062 37.2031 41.3047 42.8438 Q37.2031 48.4844 30.0781 48.4844 Q22.9531 48.4844 18.875 42.8438 Q14.7969 37.2031 14.7969 27.2969 Z"
        /><glyph unicode="v" horiz-adv-x="59.179688" d="M2.9844 54.6875 L12.5 54.6875 L29.5938 8.7969 L46.6875 54.6875 L56.2031 54.6875 L35.6875 0 L23.4844 0 L2.9844 54.6875 Z"
      /></font
      ><font horiz-adv-x="60.009766" id="font2"
      ><font-face ascent="92.822266" descent="23.583984" units-per-em="100" style="font-style:normal; font-family:SansSerif; font-weight:bold;"
        /><missing-glyph horiz-adv-x="60.009766" d="M4.9844 -17.6719 L4.9844 70.5156 L54.9844 70.5156 L54.9844 -17.6719 L4.9844 -17.6719 ZM10.5938 -12.1094 L49.4219 -12.1094 L49.4219 64.8906 L10.5938 64.8906 L10.5938 -12.1094 Z"
        /><glyph unicode="m" horiz-adv-x="104.19922" d="M59.0781 45.6094 Q62.4062 50.6875 66.9688 53.3438 Q71.5312 56 77 56 Q86.4219 56 91.3594 50.1953 Q96.2969 44.3906 96.2969 33.2969 L96.2969 0 L78.7188 0 L78.7188 28.5156 Q78.7656 29.1562 78.7891 29.8359 Q78.8125 30.5156 78.8125 31.7812 Q78.8125 37.5938 77.1016 40.2109 Q75.3906 42.8281 71.5781 42.8281 Q66.6094 42.8281 63.8984 38.7266 Q61.1875 34.625 61.0781 26.8594 L61.0781 0 L43.5 0 L43.5 28.5156 Q43.5 37.5938 41.9375 40.2109 Q40.375 42.8281 36.375 42.8281 Q31.3438 42.8281 28.6094 38.7031 Q25.875 34.5781 25.875 26.9062 L25.875 0 L8.2969 0 L8.2969 54.6875 L25.875 54.6875 L25.875 46.6875 Q29.1094 51.3125 33.2812 53.6562 Q37.4531 56 42.4844 56 Q48.1406 56 52.4922 53.2656 Q56.8438 50.5312 59.0781 45.6094 Z"
        /><glyph unicode="l" horiz-adv-x="34.277344" d="M8.4062 75.9844 L25.875 75.9844 L25.875 0 L8.4062 0 L8.4062 75.9844 Z"
        /><glyph unicode="w" horiz-adv-x="92.38281" d="M3.5156 54.6875 L20.5156 54.6875 L29.6875 17 L38.9219 54.6875 L53.5156 54.6875 L62.7031 17.3906 L71.9219 54.6875 L88.9219 54.6875 L74.5156 0 L55.4219 0 L46.1875 37.5938 L37.0156 0 L17.9219 0 L3.5156 54.6875 Z"
        /><glyph unicode="b" horiz-adv-x="71.58203" d="M37.5 11.2812 Q43.1094 11.2812 46.0703 15.3828 Q49.0312 19.4844 49.0312 27.2969 Q49.0312 35.1094 46.0703 39.2109 Q43.1094 43.3125 37.5 43.3125 Q31.8906 43.3125 28.8828 39.1875 Q25.875 35.0625 25.875 27.2969 Q25.875 19.5312 28.8828 15.4062 Q31.8906 11.2812 37.5 11.2812 ZM25.875 46.6875 Q29.5 51.4688 33.8906 53.7344 Q38.2812 56 44 56 Q54.1094 56 60.6016 47.9688 Q67.0938 39.9375 67.0938 27.2969 Q67.0938 14.6562 60.6016 6.6172 Q54.1094 -1.4219 44 -1.4219 Q38.2812 -1.4219 33.8906 0.8516 Q29.5 3.125 25.875 7.9062 L25.875 0 L8.4062 0 L8.4062 75.9844 L25.875 75.9844 L25.875 46.6875 Z"
        /><glyph unicode=" " horiz-adv-x="34.814453" d=""
        /><glyph unicode="e" horiz-adv-x="67.822266" d="M62.9844 27.4844 L62.9844 22.5156 L22.125 22.5156 Q22.75 16.3594 26.5625 13.2812 Q30.375 10.2031 37.2031 10.2031 Q42.7188 10.2031 48.5078 11.8438 Q54.2969 13.4844 60.4062 16.7969 L60.4062 3.3281 Q54.2031 0.9844 48 -0.2188 Q41.7969 -1.4219 35.5938 -1.4219 Q20.75 -1.4219 12.5234 6.125 Q4.2969 13.6719 4.2969 27.2969 Q4.2969 40.6719 12.375 48.3359 Q20.4531 56 34.625 56 Q47.5156 56 55.25 48.2422 Q62.9844 40.4844 62.9844 27.4844 ZM45.0156 33.2969 Q45.0156 38.2812 42.1094 41.3359 Q39.2031 44.3906 34.5156 44.3906 Q29.4375 44.3906 26.2656 41.5312 Q23.0938 38.6719 22.3125 33.2969 L45.0156 33.2969 Z"
        /><glyph unicode="c" horiz-adv-x="59.277344" d="M52.5938 52.9844 L52.5938 38.7188 Q49.0312 41.1562 45.4375 42.3281 Q41.8438 43.5 37.9844 43.5 Q30.6719 43.5 26.5938 39.2344 Q22.5156 34.9688 22.5156 27.2969 Q22.5156 19.625 26.5938 15.3516 Q30.6719 11.0781 37.9844 11.0781 Q42.0938 11.0781 45.7812 12.3047 Q49.4688 13.5312 52.5938 15.9219 L52.5938 1.6094 Q48.4844 0.0938 44.2656 -0.6641 Q40.0469 -1.4219 35.7969 -1.4219 Q21 -1.4219 12.6484 6.1719 Q4.2969 13.7656 4.2969 27.2969 Q4.2969 40.8281 12.6484 48.4141 Q21 56 35.7969 56 Q40.0938 56 44.2656 55.25 Q48.4375 54.5 52.5938 52.9844 Z"
        /><glyph unicode="n" horiz-adv-x="71.19141" d="M63.375 33.2969 L63.375 0 L45.7969 0 L45.7969 5.4219 L45.7969 25.4844 Q45.7969 32.5625 45.4844 35.25 Q45.1719 37.9375 44.3906 39.2031 Q43.3594 40.9219 41.6016 41.875 Q39.8438 42.8281 37.5938 42.8281 Q32.125 42.8281 29 38.6016 Q25.875 34.375 25.875 26.9062 L25.875 0 L8.4062 0 L8.4062 54.6875 L25.875 54.6875 L25.875 46.6875 Q29.8281 51.4688 34.2734 53.7344 Q38.7188 56 44.0938 56 Q53.5625 56 58.4688 50.1953 Q63.375 44.3906 63.375 33.2969 Z"
        /><glyph unicode="a" horiz-adv-x="67.48047" d="M32.9062 24.6094 Q27.4375 24.6094 24.6797 22.7578 Q21.9219 20.9062 21.9219 17.2812 Q21.9219 13.9688 24.1484 12.0859 Q26.375 10.2031 30.3281 10.2031 Q35.25 10.2031 38.625 13.7422 Q42 17.2812 42 22.6094 L42 24.6094 L32.9062 24.6094 ZM59.625 31.2031 L59.625 0 L42 0 L42 8.1094 Q38.4844 3.125 34.0859 0.8516 Q29.6875 -1.4219 23.3906 -1.4219 Q14.8906 -1.4219 9.5938 3.5391 Q4.2969 8.5 4.2969 16.4062 Q4.2969 26.0312 10.9141 30.5234 Q17.5312 35.0156 31.6875 35.0156 L42 35.0156 L42 36.375 Q42 40.5312 38.7266 42.4609 Q35.4531 44.3906 28.5156 44.3906 Q22.9062 44.3906 18.0703 43.2656 Q13.2344 42.1406 9.0781 39.8906 L9.0781 53.2188 Q14.7031 54.5938 20.3672 55.2969 Q26.0312 56 31.6875 56 Q46.4844 56 53.0547 50.1719 Q59.625 44.3438 59.625 31.2031 Z"
        /><glyph unicode="t" horiz-adv-x="47.802734" d="M27.4844 70.2188 L27.4844 54.6875 L45.5156 54.6875 L45.5156 42.1875 L27.4844 42.1875 L27.4844 19 Q27.4844 15.1875 29 13.8438 Q30.5156 12.5 35.0156 12.5 L44 12.5 L44 0 L29 0 Q18.6562 0 14.3359 4.3203 Q10.0156 8.6406 10.0156 19 L10.0156 42.1875 L1.3125 42.1875 L1.3125 54.6875 L10.0156 54.6875 L10.0156 70.2188 L27.4844 70.2188 Z"
        /><glyph unicode="s" horiz-adv-x="59.521484" d="M51.125 52.9844 L51.125 39.7031 Q45.5156 42.0469 40.2891 43.2188 Q35.0625 44.3906 30.4219 44.3906 Q25.4375 44.3906 23.0234 43.1406 Q20.6094 41.8906 20.6094 39.3125 Q20.6094 37.2031 22.4375 36.0859 Q24.2656 34.9688 29 34.4219 L32.0781 33.9844 Q45.5156 32.2812 50.1484 28.375 Q54.7812 24.4688 54.7812 16.1094 Q54.7812 7.375 48.3359 2.9766 Q41.8906 -1.4219 29.1094 -1.4219 Q23.6875 -1.4219 17.8984 -0.5625 Q12.1094 0.2969 6 2 L6 15.2812 Q11.2344 12.75 16.7266 11.4766 Q22.2188 10.2031 27.875 10.2031 Q33.0156 10.2031 35.6016 11.6172 Q38.1875 13.0312 38.1875 15.8281 Q38.1875 18.1719 36.4062 19.3125 Q34.625 20.4531 29.2969 21.0938 L26.2188 21.4844 Q14.5469 22.9531 9.8594 26.9062 Q5.1719 30.8594 5.1719 38.9219 Q5.1719 47.6094 11.1328 51.8047 Q17.0938 56 29.3906 56 Q34.2344 56 39.5547 55.2734 Q44.875 54.5469 51.125 52.9844 Z"
        /><glyph unicode="i" horiz-adv-x="34.277344" d="M8.4062 54.6875 L25.875 54.6875 L25.875 0 L8.4062 0 L8.4062 54.6875 ZM8.4062 75.9844 L25.875 75.9844 L25.875 61.7188 L8.4062 61.7188 L8.4062 75.9844 Z"
        /><glyph unicode="d" horiz-adv-x="71.58203" d="M45.6094 46.6875 L45.6094 75.9844 L63.1875 75.9844 L63.1875 0 L45.6094 0 L45.6094 7.9062 Q42 3.0781 37.6484 0.8281 Q33.2969 -1.4219 27.5938 -1.4219 Q17.4844 -1.4219 10.9922 6.6172 Q4.5 14.6562 4.5 27.2969 Q4.5 39.9375 10.9922 47.9688 Q17.4844 56 27.5938 56 Q33.25 56 37.625 53.7344 Q42 51.4688 45.6094 46.6875 ZM34.0781 11.2812 Q39.7031 11.2812 42.6562 15.3828 Q45.6094 19.4844 45.6094 27.2969 Q45.6094 35.1094 42.6562 39.2109 Q39.7031 43.3125 34.0781 43.3125 Q28.5156 43.3125 25.5625 39.2109 Q22.6094 35.1094 22.6094 27.2969 Q22.6094 19.4844 25.5625 15.3828 Q28.5156 11.2812 34.0781 11.2812 Z"
        /><glyph unicode="u" horiz-adv-x="71.19141" d="M7.8125 21.2969 L7.8125 54.6875 L25.3906 54.6875 L25.3906 49.2188 Q25.3906 44.7812 25.3438 38.0625 Q25.2969 31.3438 25.2969 29.1094 Q25.2969 22.5156 25.6406 19.6094 Q25.9844 16.7031 26.8125 15.375 Q27.875 13.6719 29.6094 12.7422 Q31.3438 11.8125 33.5938 11.8125 Q39.0625 11.8125 42.1875 16.0156 Q45.3125 20.2188 45.3125 27.6875 L45.3125 54.6875 L62.7969 54.6875 L62.7969 0 L45.3125 0 L45.3125 7.9062 Q41.3594 3.125 36.9375 0.8516 Q32.5156 -1.4219 27.2031 -1.4219 Q17.7188 -1.4219 12.7656 4.3906 Q7.8125 10.2031 7.8125 21.2969 Z"
        /><glyph unicode="h" horiz-adv-x="71.19141" d="M63.375 33.2969 L63.375 0 L45.7969 0 L45.7969 5.4219 L45.7969 25.3906 Q45.7969 32.5625 45.4844 35.25 Q45.1719 37.9375 44.3906 39.2031 Q43.3594 40.9219 41.6016 41.875 Q39.8438 42.8281 37.5938 42.8281 Q32.125 42.8281 29 38.6016 Q25.875 34.375 25.875 26.9062 L25.875 0 L8.4062 0 L8.4062 75.9844 L25.875 75.9844 L25.875 46.6875 Q29.8281 51.4688 34.2734 53.7344 Q38.7188 56 44.0938 56 Q53.5625 56 58.4688 50.1953 Q63.375 44.3906 63.375 33.2969 Z"
        /><glyph unicode="G" horiz-adv-x="82.08008" d="M74.7031 5.4219 Q67.6719 2 60.1094 0.2891 Q52.5469 -1.4219 44.4844 -1.4219 Q26.2656 -1.4219 15.625 8.7656 Q4.9844 18.9531 4.9844 36.375 Q4.9844 54 15.8203 64.1094 Q26.6562 74.2188 45.5156 74.2188 Q52.7812 74.2188 59.4453 72.8516 Q66.1094 71.4844 72.0156 68.7969 L72.0156 53.7188 Q65.9219 57.1719 59.8906 58.8828 Q53.8594 60.5938 47.7969 60.5938 Q36.5781 60.5938 30.5 54.3203 Q24.4219 48.0469 24.4219 36.375 Q24.4219 24.8125 30.2812 18.5078 Q36.1406 12.2031 46.9219 12.2031 Q49.8594 12.2031 52.375 12.5703 Q54.8906 12.9375 56.8906 13.7188 L56.8906 27.875 L45.4062 27.875 L45.4062 40.4844 L74.7031 40.4844 L74.7031 5.4219 Z"
        /><glyph unicode="O" horiz-adv-x="85.009766" d="M42.4844 60.5938 Q33.8906 60.5938 29.1562 54.25 Q24.4219 47.9062 24.4219 36.375 Q24.4219 24.9062 29.1562 18.5547 Q33.8906 12.2031 42.4844 12.2031 Q51.125 12.2031 55.8594 18.5547 Q60.5938 24.9062 60.5938 36.375 Q60.5938 47.9062 55.8594 54.25 Q51.125 60.5938 42.4844 60.5938 ZM42.4844 74.2188 Q60.0625 74.2188 70.0234 64.1641 Q79.9844 54.1094 79.9844 36.375 Q79.9844 18.7031 70.0234 8.6406 Q60.0625 -1.4219 42.4844 -1.4219 Q24.9531 -1.4219 14.9688 8.6406 Q4.9844 18.7031 4.9844 36.375 Q4.9844 54.1094 14.9688 64.1641 Q24.9531 74.2188 42.4844 74.2188 Z"
        /><glyph unicode="H" horiz-adv-x="83.69141" d="M9.1875 72.9062 L27.9844 72.9062 L27.9844 45.125 L55.7188 45.125 L55.7188 72.9062 L74.5156 72.9062 L74.5156 0 L55.7188 0 L55.7188 30.9062 L27.9844 30.9062 L27.9844 0 L9.1875 0 L9.1875 72.9062 Z"
        /><glyph unicode="o" horiz-adv-x="68.70117" d="M34.4219 43.5 Q28.6094 43.5 25.5625 39.3281 Q22.5156 35.1562 22.5156 27.2969 Q22.5156 19.4375 25.5625 15.2578 Q28.6094 11.0781 34.4219 11.0781 Q40.1406 11.0781 43.1641 15.2578 Q46.1875 19.4375 46.1875 27.2969 Q46.1875 35.1562 43.1641 39.3281 Q40.1406 43.5 34.4219 43.5 ZM34.4219 56 Q48.5312 56 56.4688 48.3828 Q64.4062 40.7656 64.4062 27.2969 Q64.4062 13.8125 56.4688 6.1953 Q48.5312 -1.4219 34.4219 -1.4219 Q20.2656 -1.4219 12.2812 6.1953 Q4.2969 13.8125 4.2969 27.2969 Q4.2969 40.7656 12.2812 48.3828 Q20.2656 56 34.4219 56 Z"
        /><glyph unicode="r" horiz-adv-x="49.316406" d="M49.0312 39.7969 Q46.7344 40.875 44.4609 41.3828 Q42.1875 41.8906 39.8906 41.8906 Q33.1562 41.8906 29.5156 37.5703 Q25.875 33.25 25.875 25.2031 L25.875 0 L8.4062 0 L8.4062 54.6875 L25.875 54.6875 L25.875 45.7031 Q29.25 51.0781 33.6172 53.5391 Q37.9844 56 44.0938 56 Q44.9688 56 45.9922 55.9297 Q47.0156 55.8594 48.9688 55.6094 L49.0312 39.7969 Z"
        /><glyph unicode="," horiz-adv-x="37.98828" d="M10.2031 18.8906 L27.7812 18.8906 L27.7812 4 L15.7188 -14.2031 L5.3281 -14.2031 L10.2031 4 L10.2031 18.8906 Z"
        /><glyph unicode="p" horiz-adv-x="71.58203" d="M25.875 7.9062 L25.875 -20.7969 L8.4062 -20.7969 L8.4062 54.6875 L25.875 54.6875 L25.875 46.6875 Q29.5 51.4688 33.8906 53.7344 Q38.2812 56 44 56 Q54.1094 56 60.6016 47.9688 Q67.0938 39.9375 67.0938 27.2969 Q67.0938 14.6562 60.6016 6.6172 Q54.1094 -1.4219 44 -1.4219 Q38.2812 -1.4219 33.8906 0.8516 Q29.5 3.125 25.875 7.9062 ZM37.5 43.3125 Q31.8906 43.3125 28.8828 39.1875 Q25.875 35.0625 25.875 27.2969 Q25.875 19.5312 28.8828 15.4062 Q31.8906 11.2812 37.5 11.2812 Q43.1094 11.2812 46.0703 15.3828 Q49.0312 19.4844 49.0312 27.2969 Q49.0312 35.1094 46.0703 39.2109 Q43.1094 43.3125 37.5 43.3125 Z"
        /><glyph unicode="x" horiz-adv-x="64.50195" d="M22.2188 27.9844 L2.4844 54.6875 L21 54.6875 L32.1719 38.4844 L43.5 54.6875 L62.0156 54.6875 L42.2812 28.0781 L62.9844 0 L44.4844 0 L32.1719 17.2812 L20.0156 0 L1.5156 0 L22.2188 27.9844 Z"
        /><glyph unicode="0" horiz-adv-x="69.58008" d="M46 36.5312 Q46 50.2031 43.4375 55.7891 Q40.875 61.375 34.8125 61.375 Q28.7656 61.375 26.1719 55.7891 Q23.5781 50.2031 23.5781 36.5312 Q23.5781 22.7031 26.1719 17.0391 Q28.7656 11.375 34.8125 11.375 Q40.8281 11.375 43.4141 17.0391 Q46 22.7031 46 36.5312 ZM64.7969 36.375 Q64.7969 18.2656 56.9844 8.4219 Q49.1719 -1.4219 34.8125 -1.4219 Q20.4062 -1.4219 12.5938 8.4219 Q4.7812 18.2656 4.7812 36.375 Q4.7812 54.5469 12.5938 64.3828 Q20.4062 74.2188 34.8125 74.2188 Q49.1719 74.2188 56.9844 64.3828 Q64.7969 54.5469 64.7969 36.375 Z"
        /><glyph unicode="8" horiz-adv-x="69.58008" d="M34.8125 32.625 Q29.5469 32.625 26.7109 29.7422 Q23.875 26.8594 23.875 21.4844 Q23.875 16.1094 26.7109 13.2578 Q29.5469 10.4062 34.8125 10.4062 Q40.0469 10.4062 42.8281 13.2578 Q45.6094 16.1094 45.6094 21.4844 Q45.6094 26.9062 42.8281 29.7656 Q40.0469 32.625 34.8125 32.625 ZM21.0938 38.8125 Q14.4531 40.8281 11.0859 44.9766 Q7.7188 49.125 7.7188 55.3281 Q7.7188 64.5469 14.6016 69.3828 Q21.4844 74.2188 34.8125 74.2188 Q48.0469 74.2188 54.9297 69.4062 Q61.8125 64.5938 61.8125 55.3281 Q61.8125 49.125 58.4219 44.9766 Q55.0312 40.8281 48.3906 38.8125 Q55.8125 36.7656 59.5938 32.1562 Q63.375 27.5469 63.375 20.5156 Q63.375 9.6719 56.1719 4.125 Q48.9688 -1.4219 34.8125 -1.4219 Q20.6094 -1.4219 13.3594 4.125 Q6.1094 9.6719 6.1094 20.5156 Q6.1094 27.5469 9.8906 32.1562 Q13.6719 36.7656 21.0938 38.8125 ZM25.4844 53.4219 Q25.4844 49.0781 27.9062 46.7344 Q30.3281 44.3906 34.8125 44.3906 Q39.2031 44.3906 41.6016 46.7344 Q44 49.0781 44 53.4219 Q44 57.7656 41.6016 60.0859 Q39.2031 62.4062 34.8125 62.4062 Q30.3281 62.4062 27.9062 60.0625 Q25.4844 57.7188 25.4844 53.4219 Z"
        /><glyph unicode=":" horiz-adv-x="39.990234" d="M11.1875 54.6875 L28.8125 54.6875 L28.8125 35.7969 L11.1875 35.7969 L11.1875 54.6875 ZM11.1875 18.8906 L28.8125 18.8906 L28.8125 0 L11.1875 0 L11.1875 18.8906 Z"
        /><glyph unicode="z" horiz-adv-x="58.203125" d="M5.7188 54.6875 L53.4219 54.6875 L53.4219 42.4844 L24.6094 12.5 L53.4219 12.5 L53.4219 0 L4.5 0 L4.5 12.2031 L33.2969 42.1875 L5.7188 42.1875 L5.7188 54.6875 Z"
      /></font
    ></defs
    ><g style="fill:white; stroke:white;"
    ><rect x="0" y="0" width="560" style="clip-path:url(#clipPath1); stroke:none;" height="420"
    /></g
    ><g style="fill:white; text-rendering:optimizeSpeed; color-rendering:optimizeSpeed; image-rendering:optimizeSpeed; shape-rendering:crispEdges; color-interpolation:sRGB; stroke:white;"
    ><rect x="0" width="560" height="420" y="0" style="stroke:none;"
      /><path style="stroke:none;" d="M73 374 L507 374 L507 35 L73 35 Z"
    /></g
    ><g style="fill:rgb(38,38,38); text-rendering:geometricPrecision; color-rendering:optimizeQuality; image-rendering:optimizeQuality; stroke-linejoin:round; color-interpolation:linearRGB; stroke:rgb(38,38,38); stroke-width:0.5;"
    ><line y2="374" style="fill:none;" x1="73" x2="507" y1="374"
      /><line y2="35" style="fill:none;" x1="73" x2="507" y1="35"
      /><line y2="369.66" style="fill:none;" x1="73" x2="73" y1="374"
      /><line y2="369.66" style="fill:none;" x1="145.3333" x2="145.3333" y1="374"
      /><line y2="369.66" style="fill:none;" x1="217.6667" x2="217.6667" y1="374"
      /><line y2="369.66" style="fill:none;" x1="290" x2="290" y1="374"
      /><line y2="369.66" style="fill:none;" x1="362.3333" x2="362.3333" y1="374"
      /><line y2="369.66" style="fill:none;" x1="434.6667" x2="434.6667" y1="374"
      /><line y2="369.66" style="fill:none;" x1="507" x2="507" y1="374"
      /><line y2="39.34" style="fill:none;" x1="73" x2="73" y1="35"
      /><line y2="39.34" style="fill:none;" x1="145.3333" x2="145.3333" y1="35"
      /><line y2="39.34" style="fill:none;" x1="217.6667" x2="217.6667" y1="35"
      /><line y2="39.34" style="fill:none;" x1="290" x2="290" y1="35"
      /><line y2="39.34" style="fill:none;" x1="362.3333" x2="362.3333" y1="35"
      /><line y2="39.34" style="fill:none;" x1="434.6667" x2="434.6667" y1="35"
      /><line y2="39.34" style="fill:none;" x1="507" x2="507" y1="35"
    /></g
    ><g transform="translate(73,378)" style="font-size:10px; fill:rgb(38,38,38); text-rendering:geometricPrecision; color-rendering:optimizeQuality; image-rendering:optimizeQuality; font-family:'SansSerif'; color-interpolation:linearRGB; stroke:rgb(38,38,38);"
    ><text x="-3.5" xml:space="preserve" y="10" style="stroke:none;"
      >0</text
    ></g
    ><g transform="translate(145.3333,378)" style="font-size:10px; fill:rgb(38,38,38); text-rendering:geometricPrecision; color-rendering:optimizeQuality; image-rendering:optimizeQuality; font-family:'SansSerif'; color-interpolation:linearRGB; stroke:rgb(38,38,38);"
    ><text x="-3.5" xml:space="preserve" y="10" style="stroke:none;"
      >5</text
    ></g
    ><g transform="translate(217.6667,378)" style="font-size:10px; fill:rgb(38,38,38); text-rendering:geometricPrecision; color-rendering:optimizeQuality; image-rendering:optimizeQuality; font-family:'SansSerif'; color-interpolation:linearRGB; stroke:rgb(38,38,38);"
    ><text x="-6.5" xml:space="preserve" y="10" style="stroke:none;"
      >10</text
    ></g
    ><g transform="translate(290,378)" style="font-size:10px; fill:rgb(38,38,38); text-rendering:geometricPrecision; color-rendering:optimizeQuality; image-rendering:optimizeQuality; font-family:'SansSerif'; color-interpolation:linearRGB; stroke:rgb(38,38,38);"
    ><text x="-6.5" xml:space="preserve" y="10" style="stroke:none;"
      >15</text
    ></g
    ><g transform="translate(362.3333,378)" style="font-size:10px; fill:rgb(38,38,38); text-rendering:geometricPrecision; color-rendering:optimizeQuality; image-rendering:optimizeQuality; font-family:'SansSerif'; color-interpolation:linearRGB; stroke:rgb(38,38,38);"
    ><text x="-6.5" xml:space="preserve" y="10" style="stroke:none;"
      >20</text
    ></g
    ><g transform="translate(434.6667,378)" style="font-size:10px; fill:rgb(38,38,38); text-rendering:geometricPrecision; color-rendering:optimizeQuality; image-rendering:optimizeQuality; font-family:'SansSerif'; color-interpolation:linearRGB; stroke:rgb(38,38,38);"
    ><text x="-6.5" xml:space="preserve" y="10" style="stroke:none;"
      >25</text
    ></g
    ><g transform="translate(507,378)" style="font-size:10px; fill:rgb(38,38,38); text-rendering:geometricPrecision; color-rendering:optimizeQuality; image-rendering:optimizeQuality; font-family:'SansSerif'; color-interpolation:linearRGB; stroke:rgb(38,38,38);"
    ><text x="-6.5" xml:space="preserve" y="10" style="stroke:none;"
      >30</text
    ></g
    ><g transform="translate(290.0002,392)" style="font-size:11px; fill:rgb(38,38,38); text-rendering:geometricPrecision; color-rendering:optimizeQuality; image-rendering:optimizeQuality; font-family:'SansSerif'; color-interpolation:linearRGB; stroke:rgb(38,38,38);"
    ><text x="-25" xml:space="preserve" y="11" style="stroke:none;"
      >group no</text
    ></g
    ><g style="fill:rgb(38,38,38); text-rendering:geometricPrecision; color-rendering:optimizeQuality; image-rendering:optimizeQuality; stroke-linejoin:round; color-interpolation:linearRGB; stroke:rgb(38,38,38); stroke-width:0.5;"
    ><line y2="35" style="fill:none;" x1="73" x2="73" y1="374"
      /><line y2="35" style="fill:none;" x1="507" x2="507" y1="374"
      /><line y2="374" style="fill:none;" x1="73" x2="77.34" y1="374"
      /><line y2="336.3333" style="fill:none;" x1="73" x2="77.34" y1="336.3333"
      /><line y2="298.6667" style="fill:none;" x1="73" x2="77.34" y1="298.6667"
      /><line y2="261" style="fill:none;" x1="73" x2="77.34" y1="261"
      /><line y2="223.3333" style="fill:none;" x1="73" x2="77.34" y1="223.3333"
      /><line y2="185.6667" style="fill:none;" x1="73" x2="77.34" y1="185.6667"
      /><line y2="148" style="fill:none;" x1="73" x2="77.34" y1="148"
      /><line y2="110.3333" style="fill:none;" x1="73" x2="77.34" y1="110.3333"
      /><line y2="72.6667" style="fill:none;" x1="73" x2="77.34" y1="72.6667"
      /><line y2="35" style="fill:none;" x1="73" x2="77.34" y1="35"
      /><line y2="374" style="fill:none;" x1="507" x2="502.66" y1="374"
      /><line y2="336.3333" style="fill:none;" x1="507" x2="502.66" y1="336.3333"
      /><line y2="298.6667" style="fill:none;" x1="507" x2="502.66" y1="298.6667"
      /><line y2="261" style="fill:none;" x1="507" x2="502.66" y1="261"
      /><line y2="223.3333" style="fill:none;" x1="507" x2="502.66" y1="223.3333"
      /><line y2="185.6667" style="fill:none;" x1="507" x2="502.66" y1="185.6667"
      /><line y2="148" style="fill:none;" x1="507" x2="502.66" y1="148"
      /><line y2="110.3333" style="fill:none;" x1="507" x2="502.66" y1="110.3333"
      /><line y2="72.6667" style="fill:none;" x1="507" x2="502.66" y1="72.6667"
      /><line y2="35" style="fill:none;" x1="507" x2="502.66" y1="35"
    /></g
    ><g transform="translate(69,374)" style="font-size:10px; fill:rgb(38,38,38); text-rendering:geometricPrecision; color-rendering:optimizeQuality; image-rendering:optimizeQuality; font-family:'SansSerif'; color-interpolation:linearRGB; stroke:rgb(38,38,38);"
    ><text x="-7" xml:space="preserve" y="3.5" style="stroke:none;"
      >0</text
    ></g
    ><g transform="translate(69,336.3333)" style="font-size:10px; fill:rgb(38,38,38); text-rendering:geometricPrecision; color-rendering:optimizeQuality; image-rendering:optimizeQuality; font-family:'SansSerif'; color-interpolation:linearRGB; stroke:rgb(38,38,38);"
    ><text x="-7" xml:space="preserve" y="3.5" style="stroke:none;"
      >5</text
    ></g
    ><g transform="translate(69,298.6667)" style="font-size:10px; fill:rgb(38,38,38); text-rendering:geometricPrecision; color-rendering:optimizeQuality; image-rendering:optimizeQuality; font-family:'SansSerif'; color-interpolation:linearRGB; stroke:rgb(38,38,38);"
    ><text x="-13" xml:space="preserve" y="3.5" style="stroke:none;"
      >10</text
    ></g
    ><g transform="translate(69,261)" style="font-size:10px; fill:rgb(38,38,38); text-rendering:geometricPrecision; color-rendering:optimizeQuality; image-rendering:optimizeQuality; font-family:'SansSerif'; color-interpolation:linearRGB; stroke:rgb(38,38,38);"
    ><text x="-13" xml:space="preserve" y="3.5" style="stroke:none;"
      >15</text
    ></g
    ><g transform="translate(69,223.3333)" style="font-size:10px; fill:rgb(38,38,38); text-rendering:geometricPrecision; color-rendering:optimizeQuality; image-rendering:optimizeQuality; font-family:'SansSerif'; color-interpolation:linearRGB; stroke:rgb(38,38,38);"
    ><text x="-13" xml:space="preserve" y="3.5" style="stroke:none;"
      >20</text
    ></g
    ><g transform="translate(69,185.6667)" style="font-size:10px; fill:rgb(38,38,38); text-rendering:geometricPrecision; color-rendering:optimizeQuality; image-rendering:optimizeQuality; font-family:'SansSerif'; color-interpolation:linearRGB; stroke:rgb(38,38,38);"
    ><text x="-13" xml:space="preserve" y="3.5" style="stroke:none;"
      >25</text
    ></g
    ><g transform="translate(69,148)" style="font-size:10px; fill:rgb(38,38,38); text-rendering:geometricPrecision; color-rendering:optimizeQuality; image-rendering:optimizeQuality; font-family:'SansSerif'; color-interpolation:linearRGB; stroke:rgb(38,38,38);"
    ><text x="-13" xml:space="preserve" y="3.5" style="stroke:none;"
      >30</text
    ></g
    ><g transform="translate(69,110.3333)" style="font-size:10px; fill:rgb(38,38,38); text-rendering:geometricPrecision; color-rendering:optimizeQuality; image-rendering:optimizeQuality; font-family:'SansSerif'; color-interpolation:linearRGB; stroke:rgb(38,38,38);"
    ><text x="-13" xml:space="preserve" y="3.5" style="stroke:none;"
      >35</text
    ></g
    ><g transform="translate(69,72.6667)" style="font-size:10px; fill:rgb(38,38,38); text-rendering:geometricPrecision; color-rendering:optimizeQuality; image-rendering:optimizeQuality; font-family:'SansSerif'; color-interpolation:linearRGB; stroke:rgb(38,38,38);"
    ><text x="-13" xml:space="preserve" y="3.5" style="stroke:none;"
      >40</text
    ></g
    ><g transform="translate(69,35)" style="font-size:10px; fill:rgb(38,38,38); text-rendering:geometricPrecision; color-rendering:optimizeQuality; image-rendering:optimizeQuality; font-family:'SansSerif'; color-interpolation:linearRGB; stroke:rgb(38,38,38);"
    ><text x="-13" xml:space="preserve" y="3.5" style="stroke:none;"
      >45</text
    ></g
    ><g transform="translate(53,204.4998) rotate(-90)" style="font-size:11px; fill:rgb(38,38,38); text-rendering:geometricPrecision; color-rendering:optimizeQuality; image-rendering:optimizeQuality; font-family:'SansSerif'; color-interpolation:linearRGB; stroke:rgb(38,38,38);"
    ><text x="-23.5" xml:space="preserve" y="-3" style="stroke:none;"
      >distance</text
    ></g
    ><g transform="translate(201,11)" style="font-size:11px; text-rendering:geometricPrecision; color-rendering:optimizeQuality; image-rendering:optimizeQuality; font-family:'SansSerif'; color-interpolation:linearRGB; font-weight:bold;"
    ><text x="0" xml:space="preserve" y="0" style="stroke:none;"
      >distances between elements</text
    ></g
    ><g transform="translate(177,25)" style="font-size:11px; text-rendering:geometricPrecision; color-rendering:optimizeQuality; image-rendering:optimizeQuality; font-family:'SansSerif'; color-interpolation:linearRGB; font-weight:bold;"
    ><text x="0" xml:space="preserve" y="0" style="stroke:none;"
      >thumb</text
    ></g
    ><g transform="translate(218,30)" style="font-size:8px; text-rendering:geometricPrecision; color-rendering:optimizeQuality; image-rendering:optimizeQuality; font-family:'SansSerif'; color-interpolation:linearRGB; font-weight:bold;"
    ><text x="0" xml:space="preserve" y="0" style="stroke:none;"
      >s</text
    ></g
    ><g transform="translate(223,25)" style="font-size:11px; text-rendering:geometricPrecision; color-rendering:optimizeQuality; image-rendering:optimizeQuality; font-family:'SansSerif'; color-interpolation:linearRGB; font-weight:bold;"
    ><text x="0" xml:space="preserve" y="0" style="stroke:none;"
      >ize: 80x80px, descritor: HOG</text
    ></g
    ><g style="stroke-linecap:butt; fill:rgb(0,114,189); text-rendering:geometricPrecision; color-rendering:optimizeQuality; image-rendering:optimizeQuality; stroke-linejoin:round; color-interpolation:linearRGB; stroke:rgb(0,114,189); stroke-width:0.5;"
    ><line y2="323.5431" style="fill:none;" x1="87.4667" x2="87.4667" y1="368.6152"
      /><line y2="331.8864" style="fill:none;" x1="101.9333" x2="101.9333" y1="362.4691"
      /><line y2="345.4999" style="fill:none;" x1="116.4" x2="116.4" y1="366.759"
      /><line y2="290.1031" style="fill:none;" x1="130.8667" x2="130.8667" y1="352.2158"
      /><line y2="340.8842" style="fill:none;" x1="145.3333" x2="145.3333" y1="366.577"
      /><line y2="340.5912" style="fill:none;" x1="159.8" x2="159.8" y1="364.7811"
      /><line y2="234.3149" style="fill:none;" x1="174.2667" x2="174.2667" y1="358.8374"
      /><line y2="346.2037" style="fill:none;" x1="188.7333" x2="188.7333" y1="367.298"
      /><line y2="296.4291" style="fill:none;" x1="203.2" x2="203.2" y1="354.2499"
      /><line y2="322.9944" style="fill:none;" x1="217.6667" x2="217.6667" y1="361.4039"
      /><line y2="312.5305" style="fill:none;" x1="232.1333" x2="232.1333" y1="367.2747"
      /><line y2="331.2818" style="fill:none;" x1="246.6" x2="246.6" y1="365.9102"
      /><line y2="349.4177" style="fill:none;" x1="261.0667" x2="261.0667" y1="368.8488"
      /><line y2="317.4325" style="fill:none;" x1="275.5333" x2="275.5333" y1="364.3794"
      /><line y2="349.6471" style="fill:none;" x1="290" x2="290" y1="369.5801"
      /><line y2="311.1447" style="fill:none;" x1="304.4667" x2="304.4667" y1="357.9306"
      /><line y2="348.0962" style="fill:none;" x1="318.9333" x2="318.9333" y1="367.5756"
      /><line y2="329.6669" style="fill:none;" x1="333.4" x2="333.4" y1="365.6884"
      /><line y2="351.5522" style="fill:none;" x1="347.8667" x2="347.8667" y1="367.8375"
      /><line y2="304.2949" style="fill:none;" x1="362.3333" x2="362.3333" y1="358.7583"
      /><line y2="350.7206" style="fill:none;" x1="376.8" x2="376.8" y1="370.2411"
      /><line y2="342.6059" style="fill:none;" x1="391.2667" x2="391.2667" y1="368.2063"
      /><line y2="317.3268" style="fill:none;" x1="405.7333" x2="405.7333" y1="366.2377"
      /><line y2="352.0221" style="fill:none;" x1="420.2" x2="420.2" y1="368.0258"
      /><line y2="283.1659" style="fill:none;" x1="434.6667" x2="434.6667" y1="350.1995"
      /><line y2="368.6152" style="fill:none;" x1="83.9947" x2="90.9387" y1="368.6152"
      /><line y2="362.4691" style="fill:none;" x1="98.4613" x2="105.4053" y1="362.4691"
      /><line y2="366.759" style="fill:none;" x1="112.928" x2="119.872" y1="366.759"
      /><line y2="352.2158" style="fill:none;" x1="127.3947" x2="134.3387" y1="352.2158"
      /><line y2="366.577" style="fill:none;" x1="141.8613" x2="148.8053" y1="366.577"
      /><line y2="364.7811" style="fill:none;" x1="156.328" x2="163.272" y1="364.7811"
      /><line y2="358.8374" style="fill:none;" x1="170.7947" x2="177.7387" y1="358.8374"
      /><line y2="367.298" style="fill:none;" x1="185.2613" x2="192.2053" y1="367.298"
      /><line y2="354.2499" style="fill:none;" x1="199.728" x2="206.672" y1="354.2499"
      /><line y2="361.4039" style="fill:none;" x1="214.1947" x2="221.1387" y1="361.4039"
      /><line y2="367.2747" style="fill:none;" x1="228.6613" x2="235.6053" y1="367.2747"
      /><line y2="365.9102" style="fill:none;" x1="243.128" x2="250.072" y1="365.9102"
      /><line y2="368.8488" style="fill:none;" x1="257.5947" x2="264.5387" y1="368.8488"
      /><line y2="364.3794" style="fill:none;" x1="272.0613" x2="279.0053" y1="364.3794"
      /><line y2="369.5801" style="fill:none;" x1="286.528" x2="293.472" y1="369.5801"
      /><line y2="357.9306" style="fill:none;" x1="300.9947" x2="307.9387" y1="357.9306"
      /><line y2="367.5756" style="fill:none;" x1="315.4613" x2="322.4053" y1="367.5756"
      /><line y2="365.6884" style="fill:none;" x1="329.928" x2="336.872" y1="365.6884"
      /><line y2="367.8375" style="fill:none;" x1="344.3947" x2="351.3387" y1="367.8375"
      /><line y2="358.7583" style="fill:none;" x1="358.8613" x2="365.8053" y1="358.7583"
      /><line y2="370.2411" style="fill:none;" x1="373.328" x2="380.272" y1="370.2411"
      /><line y2="368.2063" style="fill:none;" x1="387.7947" x2="394.7387" y1="368.2063"
      /><line y2="366.2377" style="fill:none;" x1="402.2613" x2="409.2053" y1="366.2377"
      /><line y2="368.0258" style="fill:none;" x1="416.728" x2="423.672" y1="368.0258"
      /><line y2="350.1995" style="fill:none;" x1="431.1947" x2="438.1387" y1="350.1995"
      /><line y2="323.5431" style="fill:none;" x1="83.9947" x2="90.9387" y1="323.5431"
      /><line y2="331.8864" style="fill:none;" x1="98.4613" x2="105.4053" y1="331.8864"
      /><line y2="345.4999" style="fill:none;" x1="112.928" x2="119.872" y1="345.4999"
      /><line y2="290.1031" style="fill:none;" x1="127.3947" x2="134.3387" y1="290.1031"
      /><line y2="340.8842" style="fill:none;" x1="141.8613" x2="148.8053" y1="340.8842"
      /><line y2="340.5912" style="fill:none;" x1="156.328" x2="163.272" y1="340.5912"
      /><line y2="234.3149" style="fill:none;" x1="170.7947" x2="177.7387" y1="234.3149"
      /><line y2="346.2037" style="fill:none;" x1="185.2613" x2="192.2053" y1="346.2037"
      /><line y2="296.4291" style="fill:none;" x1="199.728" x2="206.672" y1="296.4291"
      /><line y2="322.9944" style="fill:none;" x1="214.1947" x2="221.1387" y1="322.9944"
      /><line y2="312.5305" style="fill:none;" x1="228.6613" x2="235.6053" y1="312.5305"
      /><line y2="331.2818" style="fill:none;" x1="243.128" x2="250.072" y1="331.2818"
      /><line y2="349.4177" style="fill:none;" x1="257.5947" x2="264.5387" y1="349.4177"
      /><line y2="317.4325" style="fill:none;" x1="272.0613" x2="279.0053" y1="317.4325"
      /><line y2="349.6471" style="fill:none;" x1="286.528" x2="293.472" y1="349.6471"
      /><line y2="311.1447" style="fill:none;" x1="300.9947" x2="307.9387" y1="311.1447"
      /><line y2="348.0962" style="fill:none;" x1="315.4613" x2="322.4053" y1="348.0962"
      /><line y2="329.6669" style="fill:none;" x1="329.928" x2="336.872" y1="329.6669"
      /><line y2="351.5522" style="fill:none;" x1="344.3947" x2="351.3387" y1="351.5522"
      /><line y2="304.2949" style="fill:none;" x1="358.8613" x2="365.8053" y1="304.2949"
      /><line y2="350.7206" style="fill:none;" x1="373.328" x2="380.272" y1="350.7206"
      /><line y2="342.6059" style="fill:none;" x1="387.7947" x2="394.7387" y1="342.6059"
      /><line y2="317.3268" style="fill:none;" x1="402.2613" x2="409.2053" y1="317.3268"
      /><line y2="352.0221" style="fill:none;" x1="416.728" x2="423.672" y1="352.0221"
      /><line y2="283.1659" style="fill:none;" x1="431.1947" x2="438.1387" y1="283.1659"
      /><path d="M87.4667 346.0792 L101.9333 347.1777 L116.4 356.1294 L130.8667 321.1595 L145.3333 353.7306 L159.8 352.6862 L174.2667 296.5761 L188.7333 356.7508 L203.2 325.3395 L217.6667 342.1991 L232.1333 339.9026 L246.6 348.596 L261.0667 359.1333 L275.5333 340.906 L290 359.6136 L304.4667 334.5377 L318.9333 357.8358 L333.4 347.6776 L347.8667 359.6948 L362.3333 331.5266 L376.8 360.4809 L391.2667 355.4061 L405.7333 341.7823 L420.2 360.024 L434.6667 316.6827" style="fill:none; fill-rule:evenodd;"
      /><line x1="87.4667" x2="87.4667" y1="351.4939" style="fill:none; stroke:rgb(217,83,25);" y2="224.7657"
      /><line x1="101.9333" x2="101.9333" y1="321.915" style="fill:none; stroke:rgb(217,83,25);" y2="161.1462"
      /><line x1="116.4" x2="116.4" y1="330.6551" style="fill:none; stroke:rgb(217,83,25);" y2="211.3207"
      /><line x1="130.8667" x2="130.8667" y1="341.0636" style="fill:none; stroke:rgb(217,83,25);" y2="231.2712"
      /><line x1="145.3333" x2="145.3333" y1="316.5307" style="fill:none; stroke:rgb(217,83,25);" y2="145.6698"
      /><line x1="159.8" x2="159.8" y1="347.1469" style="fill:none; stroke:rgb(217,83,25);" y2="250.9483"
      /><line x1="174.2667" x2="174.2667" y1="344.1193" style="fill:none; stroke:rgb(217,83,25);" y2="209.9883"
      /><line x1="188.7333" x2="188.7333" y1="349.0424" style="fill:none; stroke:rgb(217,83,25);" y2="206.6961"
      /><line x1="203.2" x2="203.2" y1="353.7428" style="fill:none; stroke:rgb(217,83,25);" y2="209.3313"
      /><line x1="217.6667" x2="217.6667" y1="244.6606" style="fill:none; stroke:rgb(217,83,25);" y2="53.6387"
      /><line x1="232.1333" x2="232.1333" y1="354.7114" style="fill:none; stroke:rgb(217,83,25);" y2="197.3574"
      /><line x1="246.6" x2="246.6" y1="335.5848" style="fill:none; stroke:rgb(217,83,25);" y2="185.3049"
      /><line x1="261.0667" x2="261.0667" y1="335.2639" style="fill:none; stroke:rgb(217,83,25);" y2="195.9662"
      /><line x1="275.5333" x2="275.5333" y1="347.6621" style="fill:none; stroke:rgb(217,83,25);" y2="247.1073"
      /><line x1="290" x2="290" y1="233.2497" style="fill:none; stroke:rgb(217,83,25);" y2="54.4202"
      /><line x1="304.4667" x2="304.4667" y1="345.0561" style="fill:none; stroke:rgb(217,83,25);" y2="191.3102"
      /><line x1="318.9333" x2="318.9333" y1="312.6171" style="fill:none; stroke:rgb(217,83,25);" y2="140.9411"
      /><line x1="333.4" x2="333.4" y1="337.288" style="fill:none; stroke:rgb(217,83,25);" y2="203.6353"
      /><line x1="347.8667" x2="347.8667" y1="314.5978" style="fill:none; stroke:rgb(217,83,25);" y2="146.778"
      /><line x1="362.3333" x2="362.3333" y1="347.6159" style="fill:none; stroke:rgb(217,83,25);" y2="249.8115"
      /><line x1="376.8" x2="376.8" y1="351.8879" style="fill:none; stroke:rgb(217,83,25);" y2="195.4842"
      /><line x1="391.2667" x2="391.2667" y1="347.7897" style="fill:none; stroke:rgb(217,83,25);" y2="244.9743"
      /><line x1="405.7333" x2="405.7333" y1="320.7857" style="fill:none; stroke:rgb(217,83,25);" y2="169.1422"
      /><line x1="420.2" x2="420.2" y1="363.7177" style="fill:none; stroke:rgb(217,83,25);" y2="215.8119"
      /><line x1="434.6667" x2="434.6667" y1="344.5765" style="fill:none; stroke:rgb(217,83,25);" y2="231.7687"
      /><line x1="83.9947" x2="90.9387" y1="351.4939" style="fill:none; stroke:rgb(217,83,25);" y2="351.4939"
      /><line x1="98.4613" x2="105.4053" y1="321.915" style="fill:none; stroke:rgb(217,83,25);" y2="321.915"
      /><line x1="112.928" x2="119.872" y1="330.6551" style="fill:none; stroke:rgb(217,83,25);" y2="330.6551"
      /><line x1="127.3947" x2="134.3387" y1="341.0636" style="fill:none; stroke:rgb(217,83,25);" y2="341.0636"
      /><line x1="141.8613" x2="148.8053" y1="316.5307" style="fill:none; stroke:rgb(217,83,25);" y2="316.5307"
      /><line x1="156.328" x2="163.272" y1="347.1469" style="fill:none; stroke:rgb(217,83,25);" y2="347.1469"
      /><line x1="170.7947" x2="177.7387" y1="344.1193" style="fill:none; stroke:rgb(217,83,25);" y2="344.1193"
      /><line x1="185.2613" x2="192.2053" y1="349.0424" style="fill:none; stroke:rgb(217,83,25);" y2="349.0424"
      /><line x1="199.728" x2="206.672" y1="353.7428" style="fill:none; stroke:rgb(217,83,25);" y2="353.7428"
      /><line x1="214.1947" x2="221.1387" y1="244.6606" style="fill:none; stroke:rgb(217,83,25);" y2="244.6606"
      /><line x1="228.6613" x2="235.6053" y1="354.7114" style="fill:none; stroke:rgb(217,83,25);" y2="354.7114"
      /><line x1="243.128" x2="250.072" y1="335.5848" style="fill:none; stroke:rgb(217,83,25);" y2="335.5848"
      /><line x1="257.5947" x2="264.5387" y1="335.2639" style="fill:none; stroke:rgb(217,83,25);" y2="335.2639"
      /><line x1="272.0613" x2="279.0053" y1="347.6621" style="fill:none; stroke:rgb(217,83,25);" y2="347.6621"
      /><line x1="286.528" x2="293.472" y1="233.2497" style="fill:none; stroke:rgb(217,83,25);" y2="233.2497"
      /><line x1="300.9947" x2="307.9387" y1="345.0561" style="fill:none; stroke:rgb(217,83,25);" y2="345.0561"
      /><line x1="315.4613" x2="322.4053" y1="312.6171" style="fill:none; stroke:rgb(217,83,25);" y2="312.6171"
      /><line x1="329.928" x2="336.872" y1="337.288" style="fill:none; stroke:rgb(217,83,25);" y2="337.288"
      /><line x1="344.3947" x2="351.3387" y1="314.5978" style="fill:none; stroke:rgb(217,83,25);" y2="314.5978"
      /><line x1="358.8613" x2="365.8053" y1="347.6159" style="fill:none; stroke:rgb(217,83,25);" y2="347.6159"
      /><line x1="373.328" x2="380.272" y1="351.8879" style="fill:none; stroke:rgb(217,83,25);" y2="351.8879"
      /><line x1="387.7947" x2="394.7387" y1="347.7897" style="fill:none; stroke:rgb(217,83,25);" y2="347.7897"
      /><line x1="402.2613" x2="409.2053" y1="320.7857" style="fill:none; stroke:rgb(217,83,25);" y2="320.7857"
      /><line x1="416.728" x2="423.672" y1="363.7177" style="fill:none; stroke:rgb(217,83,25);" y2="363.7177"
      /><line x1="431.1947" x2="438.1387" y1="344.5765" style="fill:none; stroke:rgb(217,83,25);" y2="344.5765"
      /><line x1="83.9947" x2="90.9387" y1="224.7657" style="fill:none; stroke:rgb(217,83,25);" y2="224.7657"
      /><line x1="98.4613" x2="105.4053" y1="161.1462" style="fill:none; stroke:rgb(217,83,25);" y2="161.1462"
      /><line x1="112.928" x2="119.872" y1="211.3207" style="fill:none; stroke:rgb(217,83,25);" y2="211.3207"
      /><line x1="127.3947" x2="134.3387" y1="231.2712" style="fill:none; stroke:rgb(217,83,25);" y2="231.2712"
      /><line x1="141.8613" x2="148.8053" y1="145.6698" style="fill:none; stroke:rgb(217,83,25);" y2="145.6698"
      /><line x1="156.328" x2="163.272" y1="250.9483" style="fill:none; stroke:rgb(217,83,25);" y2="250.9483"
      /><line x1="170.7947" x2="177.7387" y1="209.9883" style="fill:none; stroke:rgb(217,83,25);" y2="209.9883"
      /><line x1="185.2613" x2="192.2053" y1="206.6961" style="fill:none; stroke:rgb(217,83,25);" y2="206.6961"
      /><line x1="199.728" x2="206.672" y1="209.3313" style="fill:none; stroke:rgb(217,83,25);" y2="209.3313"
      /><line x1="214.1947" x2="221.1387" y1="53.6387" style="fill:none; stroke:rgb(217,83,25);" y2="53.6387"
      /><line x1="228.6613" x2="235.6053" y1="197.3574" style="fill:none; stroke:rgb(217,83,25);" y2="197.3574"
      /><line x1="243.128" x2="250.072" y1="185.3049" style="fill:none; stroke:rgb(217,83,25);" y2="185.3049"
      /><line x1="257.5947" x2="264.5387" y1="195.9662" style="fill:none; stroke:rgb(217,83,25);" y2="195.9662"
      /><line x1="272.0613" x2="279.0053" y1="247.1073" style="fill:none; stroke:rgb(217,83,25);" y2="247.1073"
      /><line x1="286.528" x2="293.472" y1="54.4202" style="fill:none; stroke:rgb(217,83,25);" y2="54.4202"
      /><line x1="300.9947" x2="307.9387" y1="191.3102" style="fill:none; stroke:rgb(217,83,25);" y2="191.3102"
      /><line x1="315.4613" x2="322.4053" y1="140.9411" style="fill:none; stroke:rgb(217,83,25);" y2="140.9411"
      /><line x1="329.928" x2="336.872" y1="203.6353" style="fill:none; stroke:rgb(217,83,25);" y2="203.6353"
      /><line x1="344.3947" x2="351.3387" y1="146.778" style="fill:none; stroke:rgb(217,83,25);" y2="146.778"
      /><line x1="358.8613" x2="365.8053" y1="249.8115" style="fill:none; stroke:rgb(217,83,25);" y2="249.8115"
      /><line x1="373.328" x2="380.272" y1="195.4842" style="fill:none; stroke:rgb(217,83,25);" y2="195.4842"
      /><line x1="387.7947" x2="394.7387" y1="244.9743" style="fill:none; stroke:rgb(217,83,25);" y2="244.9743"
      /><line x1="402.2613" x2="409.2053" y1="169.1422" style="fill:none; stroke:rgb(217,83,25);" y2="169.1422"
      /><line x1="416.728" x2="423.672" y1="215.8119" style="fill:none; stroke:rgb(217,83,25);" y2="215.8119"
      /><line x1="431.1947" x2="438.1387" y1="231.7687" style="fill:none; stroke:rgb(217,83,25);" y2="231.7687"
      /><path d="M87.4667 288.1298 L101.9333 241.5306 L116.4 270.9879 L130.8667 286.1674 L145.3333 231.1003 L159.8 299.0476 L174.2667 277.0538 L188.7333 277.8692 L203.2 281.537 L217.6667 149.1496 L232.1333 276.0344 L246.6 260.4449 L261.0667 265.6151 L275.5333 297.3847 L290 143.835 L304.4667 268.1832 L318.9333 226.7791 L333.4 270.4616 L347.8667 230.6879 L362.3333 298.7137 L376.8 273.686 L391.2667 296.382 L405.7333 244.964 L420.2 289.7648 L434.6667 288.1726" style="fill:none; fill-rule:evenodd; stroke:rgb(217,83,25);"
    /></g
    ><g style="fill:white; text-rendering:optimizeSpeed; color-rendering:optimizeSpeed; image-rendering:optimizeSpeed; shape-rendering:crispEdges; color-interpolation:sRGB; stroke:white;"
    ><path style="stroke:none;" d="M380 73 L380 45 L497 45 L497 73 Z"
    /></g
    ><g transform="translate(417,52.8596)" style="font-size:9px; text-rendering:geometricPrecision; color-rendering:optimizeQuality; image-rendering:optimizeQuality; font-family:'SansSerif'; color-interpolation:linearRGB;"
    ><text x="0" xml:space="preserve" y="3" style="stroke:none;"
      >inside group</text
    ></g
    ><g style="stroke-linecap:butt; fill:rgb(0,114,189); text-rendering:geometricPrecision; color-rendering:optimizeQuality; image-rendering:optimizeQuality; stroke-linejoin:round; color-interpolation:linearRGB; stroke:rgb(0,114,189); stroke-width:0.5;"
    ><line y2="52.8596" style="fill:none;" x1="384" x2="414" y1="52.8596"
    /></g
    ><g transform="translate(417,65.1404)" style="font-size:9px; text-rendering:geometricPrecision; color-rendering:optimizeQuality; image-rendering:optimizeQuality; font-family:'SansSerif'; color-interpolation:linearRGB;"
    ><text x="0" xml:space="preserve" y="3" style="stroke:none;"
      >inside vs outside</text
    ></g
    ><g style="stroke-linecap:butt; fill:rgb(217,83,25); text-rendering:geometricPrecision; color-rendering:optimizeQuality; image-rendering:optimizeQuality; stroke-linejoin:round; color-interpolation:linearRGB; stroke:rgb(217,83,25); stroke-width:0.5;"
    ><line y2="65.1404" style="fill:none;" x1="384" x2="414" y1="65.1404"
      /><path d="M380 73 L380 45 L497 45 L497 73 Z" style="fill:none; fill-rule:evenodd; stroke-linejoin:miter; stroke:rgb(38,38,38);"
    /></g
  ></g
></svg
>
