<?xml version="1.0"?>
<!DOCTYPE svg PUBLIC '-//W3C//DTD SVG 1.0//EN'
          'http://www.w3.org/TR/2001/REC-SVG-20010904/DTD/svg10.dtd'>
<svg xmlns:xlink="http://www.w3.org/1999/xlink" style="fill-opacity:1; color-rendering:auto; color-interpolation:auto; stroke:black; text-rendering:auto; stroke-linecap:square; stroke-miterlimit:10; stroke-opacity:1; shape-rendering:auto; fill:black; stroke-dasharray:none; font-weight:normal; stroke-width:1; font-family:'Dialog'; font-style:normal; stroke-linejoin:miter; font-size:12px; stroke-dashoffset:0; image-rendering:auto;" width="800" height="600" xmlns="http://www.w3.org/2000/svg"
><!--Generated by the Batik Graphics2D SVG Generator--><defs id="genericDefs"
  /><g
  ><defs id="defs1"
    ><clipPath clipPathUnits="userSpaceOnUse" id="clipPath1"
      ><path d="M0 0 L800 0 L800 600 L0 600 L0 0 Z"
      /></clipPath
      ><font horiz-adv-x="60.009766" id="font1"
      ><font-face ascent="92.822266" descent="23.583984" units-per-em="100" style="font-style:normal; font-family:SansSerif; font-weight:normal;"
        /><missing-glyph horiz-adv-x="60.009766" d="M4.9844 -17.6719 L4.9844 70.5156 L54.9844 70.5156 L54.9844 -17.6719 L4.9844 -17.6719 ZM10.5938 -12.1094 L49.4219 -12.1094 L49.4219 64.8906 L10.5938 64.8906 L10.5938 -12.1094 Z"
        /><glyph unicode="0" horiz-adv-x="63.623047" d="M31.7812 66.4062 Q24.1719 66.4062 20.3359 58.9141 Q16.5 51.4219 16.5 36.375 Q16.5 21.3906 20.3359 13.8906 Q24.1719 6.3906 31.7812 6.3906 Q39.4531 6.3906 43.2891 13.8906 Q47.125 21.3906 47.125 36.375 Q47.125 51.4219 43.2891 58.9141 Q39.4531 66.4062 31.7812 66.4062 ZM31.7812 74.2188 Q44.0469 74.2188 50.5156 64.5234 Q56.9844 54.8281 56.9844 36.375 Q56.9844 17.9688 50.5156 8.2734 Q44.0469 -1.4219 31.7812 -1.4219 Q19.5312 -1.4219 13.0625 8.2734 Q6.5938 17.9688 6.5938 36.375 Q6.5938 54.8281 13.0625 64.5234 Q19.5312 74.2188 31.7812 74.2188 Z"
        /><glyph unicode="1" horiz-adv-x="63.623047" d="M12.4062 8.2969 L28.5156 8.2969 L28.5156 63.9219 L10.9844 60.4062 L10.9844 69.3906 L28.4219 72.9062 L38.2812 72.9062 L38.2812 8.2969 L54.3906 8.2969 L54.3906 0 L12.4062 0 L12.4062 8.2969 Z"
        /><glyph unicode="2" horiz-adv-x="63.623047" d="M19.1875 8.2969 L53.6094 8.2969 L53.6094 0 L7.3281 0 L7.3281 8.2969 Q12.9375 14.1094 22.6328 23.8984 Q32.3281 33.6875 34.8125 36.5312 Q39.5469 41.8438 41.4297 45.5312 Q43.3125 49.2188 43.3125 52.7812 Q43.3125 58.5938 39.2344 62.2578 Q35.1562 65.9219 28.6094 65.9219 Q23.9688 65.9219 18.8203 64.3125 Q13.6719 62.7031 7.8125 59.4219 L7.8125 69.3906 Q13.7656 71.7812 18.9453 73 Q24.125 74.2188 28.4219 74.2188 Q39.75 74.2188 46.4844 68.5547 Q53.2188 62.8906 53.2188 53.4219 Q53.2188 48.9219 51.5391 44.8984 Q49.8594 40.875 45.4062 35.4062 Q44.1875 33.9844 37.6484 27.2188 Q31.1094 20.4531 19.1875 8.2969 Z"
        /><glyph unicode="3" horiz-adv-x="63.623047" d="M40.5781 39.3125 Q47.6562 37.7969 51.6328 33.0078 Q55.6094 28.2188 55.6094 21.1875 Q55.6094 10.4062 48.1875 4.4922 Q40.7656 -1.4219 27.0938 -1.4219 Q22.5156 -1.4219 17.6562 -0.5156 Q12.7969 0.3906 7.625 2.2031 L7.625 11.7188 Q11.7188 9.3281 16.6016 8.1094 Q21.4844 6.8906 26.8125 6.8906 Q36.0781 6.8906 40.9375 10.5469 Q45.7969 14.2031 45.7969 21.1875 Q45.7969 27.6406 41.2812 31.2734 Q36.7656 34.9062 28.7188 34.9062 L20.2188 34.9062 L20.2188 43.0156 L29.1094 43.0156 Q36.375 43.0156 40.2344 45.9219 Q44.0938 48.8281 44.0938 54.2969 Q44.0938 59.9062 40.1172 62.9141 Q36.1406 65.9219 28.7188 65.9219 Q24.6562 65.9219 20.0156 65.0391 Q15.375 64.1562 9.8125 62.3125 L9.8125 71.0938 Q15.4375 72.6562 20.3438 73.4375 Q25.25 74.2188 29.5938 74.2188 Q40.8281 74.2188 47.3672 69.1172 Q53.9062 64.0156 53.9062 55.3281 Q53.9062 49.2656 50.4375 45.0938 Q46.9688 40.9219 40.5781 39.3125 Z"
        /><glyph unicode="4" horiz-adv-x="63.623047" d="M37.7969 64.3125 L12.8906 25.3906 L37.7969 25.3906 L37.7969 64.3125 ZM35.2031 72.9062 L47.6094 72.9062 L47.6094 25.3906 L58.0156 25.3906 L58.0156 17.1875 L47.6094 17.1875 L47.6094 0 L37.7969 0 L37.7969 17.1875 L4.8906 17.1875 L4.8906 26.7031 L35.2031 72.9062 Z"
        /><glyph unicode="5" horiz-adv-x="63.623047" d="M10.7969 72.9062 L49.5156 72.9062 L49.5156 64.5938 L19.8281 64.5938 L19.8281 46.7344 Q21.9688 47.4688 24.1172 47.8281 Q26.2656 48.1875 28.4219 48.1875 Q40.625 48.1875 47.7578 41.5 Q54.8906 34.8125 54.8906 23.3906 Q54.8906 11.625 47.5625 5.1016 Q40.2344 -1.4219 26.9062 -1.4219 Q22.3125 -1.4219 17.5547 -0.6406 Q12.7969 0.1406 7.7188 1.7031 L7.7188 11.625 Q12.1094 9.2344 16.7969 8.0625 Q21.4844 6.8906 26.7031 6.8906 Q35.1562 6.8906 40.0859 11.3281 Q45.0156 15.7656 45.0156 23.3906 Q45.0156 31 40.0859 35.4453 Q35.1562 39.8906 26.7031 39.8906 Q22.75 39.8906 18.8203 39.0156 Q14.8906 38.1406 10.7969 36.2812 L10.7969 72.9062 Z"
        /><glyph unicode="6" horiz-adv-x="63.623047" d="M33.0156 40.375 Q26.375 40.375 22.4922 35.8359 Q18.6094 31.2969 18.6094 23.3906 Q18.6094 15.5312 22.4922 10.9609 Q26.375 6.3906 33.0156 6.3906 Q39.6562 6.3906 43.5312 10.9609 Q47.4062 15.5312 47.4062 23.3906 Q47.4062 31.2969 43.5312 35.8359 Q39.6562 40.375 33.0156 40.375 ZM52.5938 71.2969 L52.5938 62.3125 Q48.875 64.0625 45.0938 64.9922 Q41.3125 65.9219 37.5938 65.9219 Q27.8281 65.9219 22.6797 59.3281 Q17.5312 52.7344 16.7969 39.4062 Q19.6719 43.6562 24.0234 45.9219 Q28.375 48.1875 33.5938 48.1875 Q44.5781 48.1875 50.9531 41.5234 Q57.3281 34.8594 57.3281 23.3906 Q57.3281 12.1562 50.6875 5.3672 Q44.0469 -1.4219 33.0156 -1.4219 Q20.3594 -1.4219 13.6719 8.2734 Q6.9844 17.9688 6.9844 36.375 Q6.9844 53.6562 15.1875 63.9375 Q23.3906 74.2188 37.2031 74.2188 Q40.9219 74.2188 44.7031 73.4844 Q48.4844 72.75 52.5938 71.2969 Z"
        /><glyph unicode=" " horiz-adv-x="31.78711" d=""
        /><glyph unicode="n" horiz-adv-x="63.378906" d="M54.8906 33.0156 L54.8906 0 L45.9062 0 L45.9062 32.7188 Q45.9062 40.4844 42.875 44.3359 Q39.8438 48.1875 33.7969 48.1875 Q26.5156 48.1875 22.3125 43.5547 Q18.1094 38.9219 18.1094 30.9062 L18.1094 0 L9.0781 0 L9.0781 54.6875 L18.1094 54.6875 L18.1094 46.1875 Q21.3438 51.125 25.7109 53.5625 Q30.0781 56 35.7969 56 Q45.2188 56 50.0547 50.1719 Q54.8906 44.3438 54.8906 33.0156 Z"
        /><glyph unicode="o" horiz-adv-x="61.18164" d="M30.6094 48.3906 Q23.3906 48.3906 19.1875 42.75 Q14.9844 37.1094 14.9844 27.2969 Q14.9844 17.4844 19.1641 11.8438 Q23.3438 6.2031 30.6094 6.2031 Q37.7969 6.2031 41.9922 11.8672 Q46.1875 17.5312 46.1875 27.2969 Q46.1875 37.0156 41.9922 42.7031 Q37.7969 48.3906 30.6094 48.3906 ZM30.6094 56 Q42.3281 56 49.0234 48.3828 Q55.7188 40.7656 55.7188 27.2969 Q55.7188 13.875 49.0234 6.2266 Q42.3281 -1.4219 30.6094 -1.4219 Q18.8438 -1.4219 12.1797 6.2266 Q5.5156 13.875 5.5156 27.2969 Q5.5156 40.7656 12.1797 48.3828 Q18.8438 56 30.6094 56 Z"
        /><glyph unicode="a" horiz-adv-x="61.279297" d="M34.2812 27.4844 Q23.3906 27.4844 19.1875 25 Q14.9844 22.5156 14.9844 16.5 Q14.9844 11.7188 18.1406 8.9141 Q21.2969 6.1094 26.7031 6.1094 Q34.1875 6.1094 38.7031 11.4062 Q43.2188 16.7031 43.2188 25.4844 L43.2188 27.4844 L34.2812 27.4844 ZM52.2031 31.2031 L52.2031 0 L43.2188 0 L43.2188 8.2969 Q40.1406 3.3281 35.5469 0.9531 Q30.9531 -1.4219 24.3125 -1.4219 Q15.9219 -1.4219 10.9609 3.2969 Q6 8.0156 6 15.9219 Q6 25.1406 12.1797 29.8281 Q18.3594 34.5156 30.6094 34.5156 L43.2188 34.5156 L43.2188 35.4062 Q43.2188 41.6094 39.1406 45 Q35.0625 48.3906 27.6875 48.3906 Q23 48.3906 18.5547 47.2656 Q14.1094 46.1406 10.0156 43.8906 L10.0156 52.2031 Q14.9375 54.1094 19.5781 55.0547 Q24.2188 56 28.6094 56 Q40.4844 56 46.3438 49.8516 Q52.2031 43.7031 52.2031 31.2031 Z"
        /><glyph unicode="r" horiz-adv-x="41.11328" d="M41.1094 46.2969 Q39.5938 47.1719 37.8125 47.5859 Q36.0312 48 33.8906 48 Q26.2656 48 22.1875 43.0469 Q18.1094 38.0938 18.1094 28.8125 L18.1094 0 L9.0781 0 L9.0781 54.6875 L18.1094 54.6875 L18.1094 46.1875 Q20.9531 51.1719 25.4922 53.5859 Q30.0312 56 36.5312 56 Q37.4531 56 38.5781 55.8828 Q39.7031 55.7656 41.0625 55.5156 L41.1094 46.2969 Z"
        /><glyph unicode="e" horiz-adv-x="61.523438" d="M56.2031 29.5938 L56.2031 25.2031 L14.8906 25.2031 Q15.4844 15.9219 20.4844 11.0625 Q25.4844 6.2031 34.4219 6.2031 Q39.5938 6.2031 44.4531 7.4688 Q49.3125 8.7344 54.1094 11.2812 L54.1094 2.7812 Q49.2656 0.7344 44.1875 -0.3438 Q39.1094 -1.4219 33.8906 -1.4219 Q20.7969 -1.4219 13.1562 6.1953 Q5.5156 13.8125 5.5156 26.8125 Q5.5156 40.2344 12.7656 48.1172 Q20.0156 56 32.3281 56 Q43.3594 56 49.7812 48.8984 Q56.2031 41.7969 56.2031 29.5938 ZM47.2188 32.2344 Q47.125 39.5938 43.0938 43.9922 Q39.0625 48.3906 32.4219 48.3906 Q24.9062 48.3906 20.3906 44.1406 Q15.875 39.8906 15.1875 32.1719 L47.2188 32.2344 Z"
        /><glyph unicode="t" horiz-adv-x="39.208984" d="M18.3125 70.2188 L18.3125 54.6875 L36.8125 54.6875 L36.8125 47.7031 L18.3125 47.7031 L18.3125 18.0156 Q18.3125 11.3281 20.1406 9.4219 Q21.9688 7.5156 27.5938 7.5156 L36.8125 7.5156 L36.8125 0 L27.5938 0 Q17.1875 0 13.2344 3.8828 Q9.2812 7.7656 9.2812 18.0156 L9.2812 47.7031 L2.6875 47.7031 L2.6875 54.6875 L9.2812 54.6875 L9.2812 70.2188 L18.3125 70.2188 Z"
        /><glyph unicode="i" horiz-adv-x="27.783203" d="M9.4219 54.6875 L18.4062 54.6875 L18.4062 0 L9.4219 0 L9.4219 54.6875 ZM9.4219 75.9844 L18.4062 75.9844 L18.4062 64.5938 L9.4219 64.5938 L9.4219 75.9844 Z"
        /><glyph unicode="u" horiz-adv-x="63.378906" d="M8.5 21.5781 L8.5 54.6875 L17.4844 54.6875 L17.4844 21.9219 Q17.4844 14.1562 20.5078 10.2734 Q23.5312 6.3906 29.5938 6.3906 Q36.8594 6.3906 41.0859 11.0312 Q45.3125 15.6719 45.3125 23.6875 L45.3125 54.6875 L54.2969 54.6875 L54.2969 0 L45.3125 0 L45.3125 8.4062 Q42.0469 3.4219 37.7266 1 Q33.4062 -1.4219 27.6875 -1.4219 Q18.2656 -1.4219 13.3828 4.4375 Q8.5 10.2969 8.5 21.5781 Z"
        /><glyph unicode="c" horiz-adv-x="54.98047" d="M48.7812 52.5938 L48.7812 44.1875 Q44.9688 46.2969 41.1406 47.3438 Q37.3125 48.3906 33.4062 48.3906 Q24.6562 48.3906 19.8203 42.8516 Q14.9844 37.3125 14.9844 27.2969 Q14.9844 17.2812 19.8203 11.7422 Q24.6562 6.2031 33.4062 6.2031 Q37.3125 6.2031 41.1406 7.25 Q44.9688 8.2969 48.7812 10.4062 L48.7812 2.0938 Q45.0156 0.3438 40.9922 -0.5391 Q36.9688 -1.4219 32.4219 -1.4219 Q20.0625 -1.4219 12.7891 6.3438 Q5.5156 14.1094 5.5156 27.2969 Q5.5156 40.6719 12.8672 48.3359 Q20.2188 56 33.0156 56 Q37.1562 56 41.1094 55.1484 Q45.0625 54.2969 48.7812 52.5938 Z"
        /><glyph unicode="g" horiz-adv-x="63.476562" d="M45.4062 27.9844 Q45.4062 37.75 41.3828 43.1172 Q37.3594 48.4844 30.0781 48.4844 Q22.8594 48.4844 18.8281 43.1172 Q14.7969 37.75 14.7969 27.9844 Q14.7969 18.2656 18.8281 12.8906 Q22.8594 7.5156 30.0781 7.5156 Q37.3594 7.5156 41.3828 12.8906 Q45.4062 18.2656 45.4062 27.9844 ZM54.3906 6.7812 Q54.3906 -7.1719 48.1953 -13.9844 Q42 -20.7969 29.2031 -20.7969 Q24.4688 -20.7969 20.2656 -20.0938 Q16.0625 -19.3906 12.1094 -17.9219 L12.1094 -9.1875 Q16.0625 -11.3281 19.9219 -12.3516 Q23.7812 -13.375 27.7812 -13.375 Q36.625 -13.375 41.0156 -8.7656 Q45.4062 -4.1562 45.4062 5.1719 L45.4062 9.625 Q42.625 4.7812 38.2812 2.3906 Q33.9375 0 27.875 0 Q17.8281 0 11.6719 7.6641 Q5.5156 15.3281 5.5156 27.9844 Q5.5156 40.6719 11.6719 48.3359 Q17.8281 56 27.875 56 Q33.9375 56 38.2812 53.6094 Q42.625 51.2188 45.4062 46.3906 L45.4062 54.6875 L54.3906 54.6875 L54.3906 6.7812 Z"
        /><glyph unicode="s" horiz-adv-x="52.09961" d="M44.2812 53.0781 L44.2812 44.5781 Q40.4844 46.5312 36.3828 47.5078 Q32.2812 48.4844 27.875 48.4844 Q21.1875 48.4844 17.8438 46.4375 Q14.5 44.3906 14.5 40.2812 Q14.5 37.1562 16.8906 35.375 Q19.2812 33.5938 26.5156 31.9844 L29.5938 31.2969 Q39.1562 29.25 43.1875 25.5156 Q47.2188 21.7812 47.2188 15.0938 Q47.2188 7.4688 41.1875 3.0234 Q35.1562 -1.4219 24.6094 -1.4219 Q20.2188 -1.4219 15.4531 -0.5625 Q10.6875 0.2969 5.4219 2 L5.4219 11.2812 Q10.4062 8.6875 15.2344 7.3984 Q20.0625 6.1094 24.8125 6.1094 Q31.1562 6.1094 34.5703 8.2812 Q37.9844 10.4531 37.9844 14.4062 Q37.9844 18.0625 35.5234 20.0156 Q33.0625 21.9688 24.7031 23.7812 L21.5781 24.5156 Q13.2344 26.2656 9.5234 29.9062 Q5.8125 33.5469 5.8125 39.8906 Q5.8125 47.6094 11.2812 51.8047 Q16.75 56 26.8125 56 Q31.7812 56 36.1797 55.2734 Q40.5781 54.5469 44.2812 53.0781 Z"
        /><glyph unicode="l" horiz-adv-x="27.783203" d="M9.4219 75.9844 L18.4062 75.9844 L18.4062 0 L9.4219 0 L9.4219 75.9844 Z"
        /><glyph unicode="p" horiz-adv-x="63.476562" d="M18.1094 8.2031 L18.1094 -20.7969 L9.0781 -20.7969 L9.0781 54.6875 L18.1094 54.6875 L18.1094 46.3906 Q20.9531 51.2656 25.2734 53.6328 Q29.5938 56 35.5938 56 Q45.5625 56 51.7891 48.0938 Q58.0156 40.1875 58.0156 27.2969 Q58.0156 14.4062 51.7891 6.4922 Q45.5625 -1.4219 35.5938 -1.4219 Q29.5938 -1.4219 25.2734 0.9531 Q20.9531 3.3281 18.1094 8.2031 ZM48.6875 27.2969 Q48.6875 37.2031 44.6094 42.8438 Q40.5312 48.4844 33.4062 48.4844 Q26.2656 48.4844 22.1875 42.8438 Q18.1094 37.2031 18.1094 27.2969 Q18.1094 17.3906 22.1875 11.75 Q26.2656 6.1094 33.4062 6.1094 Q40.5312 6.1094 44.6094 11.75 Q48.6875 17.3906 48.6875 27.2969 Z"
        /><glyph unicode="w" horiz-adv-x="81.78711" d="M4.2031 54.6875 L13.1875 54.6875 L24.4219 12.0156 L35.5938 54.6875 L46.1875 54.6875 L57.4219 12.0156 L68.6094 54.6875 L77.5938 54.6875 L63.2812 0 L52.6875 0 L40.9219 44.8281 L29.1094 0 L18.5 0 L4.2031 54.6875 Z"
        /><glyph unicode="b" horiz-adv-x="63.476562" d="M48.6875 27.2969 Q48.6875 37.2031 44.6094 42.8438 Q40.5312 48.4844 33.4062 48.4844 Q26.2656 48.4844 22.1875 42.8438 Q18.1094 37.2031 18.1094 27.2969 Q18.1094 17.3906 22.1875 11.75 Q26.2656 6.1094 33.4062 6.1094 Q40.5312 6.1094 44.6094 11.75 Q48.6875 17.3906 48.6875 27.2969 ZM18.1094 46.3906 Q20.9531 51.2656 25.2734 53.6328 Q29.5938 56 35.5938 56 Q45.5625 56 51.7891 48.0938 Q58.0156 40.1875 58.0156 27.2969 Q58.0156 14.4062 51.7891 6.4922 Q45.5625 -1.4219 35.5938 -1.4219 Q29.5938 -1.4219 25.2734 0.9531 Q20.9531 3.3281 18.1094 8.2031 L18.1094 0 L9.0781 0 L9.0781 75.9844 L18.1094 75.9844 L18.1094 46.3906 Z"
        /><glyph unicode="m" horiz-adv-x="97.41211" d="M52 44.1875 Q55.375 50.25 60.0625 53.125 Q64.75 56 71.0938 56 Q79.6406 56 84.2812 50.0234 Q88.9219 44.0469 88.9219 33.0156 L88.9219 0 L79.8906 0 L79.8906 32.7188 Q79.8906 40.5781 77.1016 44.3828 Q74.3125 48.1875 68.6094 48.1875 Q61.625 48.1875 57.5703 43.5547 Q53.5156 38.9219 53.5156 30.9062 L53.5156 0 L44.4844 0 L44.4844 32.7188 Q44.4844 40.625 41.7031 44.4062 Q38.9219 48.1875 33.1094 48.1875 Q26.2188 48.1875 22.1641 43.5312 Q18.1094 38.875 18.1094 30.9062 L18.1094 0 L9.0781 0 L9.0781 54.6875 L18.1094 54.6875 L18.1094 46.1875 Q21.1875 51.2188 25.4844 53.6094 Q29.7812 56 35.6875 56 Q41.6562 56 45.8281 52.9766 Q50 49.9531 52 44.1875 Z"
      /></font
      ><font horiz-adv-x="60.009766" id="font2"
      ><font-face ascent="92.822266" descent="23.583984" units-per-em="100" style="font-style:normal; font-family:SansSerif; font-weight:bold;"
        /><missing-glyph horiz-adv-x="60.009766" d="M4.9844 -17.6719 L4.9844 70.5156 L54.9844 70.5156 L54.9844 -17.6719 L4.9844 -17.6719 ZM10.5938 -12.1094 L49.4219 -12.1094 L49.4219 64.8906 L10.5938 64.8906 L10.5938 -12.1094 Z"
        /><glyph unicode=")" horiz-adv-x="45.703125" d="M8.0156 -13.1875 Q14.2656 -1.5625 17.3906 9.5234 Q20.5156 20.6094 20.5156 31.3906 Q20.5156 42.1875 17.3906 53.25 Q14.2656 64.3125 8.0156 75.875 L22.5156 75.875 Q29.9375 63.9219 33.5234 52.9609 Q37.1094 42 37.1094 31.2969 Q37.1094 20.6094 33.5469 9.7422 Q29.9844 -1.125 22.5156 -13.1875 L8.0156 -13.1875 Z"
        /><glyph unicode="d" horiz-adv-x="71.58203" d="M45.6094 46.6875 L45.6094 75.9844 L63.1875 75.9844 L63.1875 0 L45.6094 0 L45.6094 7.9062 Q42 3.0781 37.6484 0.8281 Q33.2969 -1.4219 27.5938 -1.4219 Q17.4844 -1.4219 10.9922 6.6172 Q4.5 14.6562 4.5 27.2969 Q4.5 39.9375 10.9922 47.9688 Q17.4844 56 27.5938 56 Q33.25 56 37.625 53.7344 Q42 51.4688 45.6094 46.6875 ZM34.0781 11.2812 Q39.7031 11.2812 42.6562 15.3828 Q45.6094 19.4844 45.6094 27.2969 Q45.6094 35.1094 42.6562 39.2109 Q39.7031 43.3125 34.0781 43.3125 Q28.5156 43.3125 25.5625 39.2109 Q22.6094 35.1094 22.6094 27.2969 Q22.6094 19.4844 25.5625 15.3828 Q28.5156 11.2812 34.0781 11.2812 Z"
        /><glyph unicode="x" horiz-adv-x="64.50195" d="M22.2188 27.9844 L2.4844 54.6875 L21 54.6875 L32.1719 38.4844 L43.5 54.6875 L62.0156 54.6875 L42.2812 28.0781 L62.9844 0 L44.4844 0 L32.1719 17.2812 L20.0156 0 L1.5156 0 L22.2188 27.9844 Z"
        /><glyph unicode="z" horiz-adv-x="58.203125" d="M5.7188 54.6875 L53.4219 54.6875 L53.4219 42.4844 L24.6094 12.5 L53.4219 12.5 L53.4219 0 L4.5 0 L4.5 12.2031 L33.2969 42.1875 L5.7188 42.1875 L5.7188 54.6875 Z"
        /><glyph unicode="p" horiz-adv-x="71.58203" d="M25.875 7.9062 L25.875 -20.7969 L8.4062 -20.7969 L8.4062 54.6875 L25.875 54.6875 L25.875 46.6875 Q29.5 51.4688 33.8906 53.7344 Q38.2812 56 44 56 Q54.1094 56 60.6016 47.9688 Q67.0938 39.9375 67.0938 27.2969 Q67.0938 14.6562 60.6016 6.6172 Q54.1094 -1.4219 44 -1.4219 Q38.2812 -1.4219 33.8906 0.8516 Q29.5 3.125 25.875 7.9062 ZM37.5 43.3125 Q31.8906 43.3125 28.8828 39.1875 Q25.875 35.0625 25.875 27.2969 Q25.875 19.5312 28.8828 15.4062 Q31.8906 11.2812 37.5 11.2812 Q43.1094 11.2812 46.0703 15.3828 Q49.0312 19.4844 49.0312 27.2969 Q49.0312 35.1094 46.0703 39.2109 Q43.1094 43.3125 37.5 43.3125 Z"
        /><glyph unicode="," horiz-adv-x="37.98828" d="M10.2031 18.8906 L27.7812 18.8906 L27.7812 4 L15.7188 -14.2031 L5.3281 -14.2031 L10.2031 4 L10.2031 18.8906 Z"
        /><glyph unicode="b" horiz-adv-x="71.58203" d="M37.5 11.2812 Q43.1094 11.2812 46.0703 15.3828 Q49.0312 19.4844 49.0312 27.2969 Q49.0312 35.1094 46.0703 39.2109 Q43.1094 43.3125 37.5 43.3125 Q31.8906 43.3125 28.8828 39.1875 Q25.875 35.0625 25.875 27.2969 Q25.875 19.5312 28.8828 15.4062 Q31.8906 11.2812 37.5 11.2812 ZM25.875 46.6875 Q29.5 51.4688 33.8906 53.7344 Q38.2812 56 44 56 Q54.1094 56 60.6016 47.9688 Q67.0938 39.9375 67.0938 27.2969 Q67.0938 14.6562 60.6016 6.6172 Q54.1094 -1.4219 44 -1.4219 Q38.2812 -1.4219 33.8906 0.8516 Q29.5 3.125 25.875 7.9062 L25.875 0 L8.4062 0 L8.4062 75.9844 L25.875 75.9844 L25.875 46.6875 Z"
        /><glyph unicode="(" horiz-adv-x="45.703125" d="M37.7031 -13.1875 L23.1875 -13.1875 Q15.7188 -1.125 12.1562 9.7422 Q8.5938 20.6094 8.5938 31.2969 Q8.5938 42 12.1797 52.9609 Q15.7656 63.9219 23.1875 75.875 L37.7031 75.875 Q31.4531 64.3125 28.3281 53.25 Q25.2031 42.1875 25.2031 31.3906 Q25.2031 20.6094 28.2969 9.5234 Q31.3906 -1.5625 37.7031 -13.1875 Z"
        /><glyph unicode="o" horiz-adv-x="68.70117" d="M34.4219 43.5 Q28.6094 43.5 25.5625 39.3281 Q22.5156 35.1562 22.5156 27.2969 Q22.5156 19.4375 25.5625 15.2578 Q28.6094 11.0781 34.4219 11.0781 Q40.1406 11.0781 43.1641 15.2578 Q46.1875 19.4375 46.1875 27.2969 Q46.1875 35.1562 43.1641 39.3281 Q40.1406 43.5 34.4219 43.5 ZM34.4219 56 Q48.5312 56 56.4688 48.3828 Q64.4062 40.7656 64.4062 27.2969 Q64.4062 13.8125 56.4688 6.1953 Q48.5312 -1.4219 34.4219 -1.4219 Q20.2656 -1.4219 12.2812 6.1953 Q4.2969 13.8125 4.2969 27.2969 Q4.2969 40.7656 12.2812 48.3828 Q20.2656 56 34.4219 56 Z"
        /><glyph unicode=" " horiz-adv-x="34.814453" d=""
        /><glyph unicode="g" horiz-adv-x="71.58203" d="M45.6094 9.2812 Q42 4.5 37.6484 2.25 Q33.2969 0 27.5938 0 Q17.5781 0 11.0391 7.8828 Q4.5 15.7656 4.5 27.9844 Q4.5 40.2344 11.0391 48.0703 Q17.5781 55.9062 27.5938 55.9062 Q33.2969 55.9062 37.6484 53.6641 Q42 51.4219 45.6094 46.5781 L45.6094 54.6875 L63.1875 54.6875 L63.1875 5.5156 Q63.1875 -7.6719 54.8594 -14.625 Q46.5312 -21.5781 30.7188 -21.5781 Q25.5938 -21.5781 20.8047 -20.7969 Q16.0156 -20.0156 11.1875 -18.4062 L11.1875 -4.7812 Q15.7656 -7.4219 20.1641 -8.7188 Q24.5625 -10.0156 29 -10.0156 Q37.5938 -10.0156 41.6016 -6.25 Q45.6094 -2.4844 45.6094 5.5156 L45.6094 9.2812 ZM34.0781 43.3125 Q28.6562 43.3125 25.6328 39.3047 Q22.6094 35.2969 22.6094 27.9844 Q22.6094 20.4531 25.5391 16.5781 Q28.4688 12.7031 34.0781 12.7031 Q39.5469 12.7031 42.5781 16.7031 Q45.6094 20.7031 45.6094 27.9844 Q45.6094 35.2969 42.5781 39.3047 Q39.5469 43.3125 34.0781 43.3125 Z"
        /><glyph unicode="n" horiz-adv-x="71.19141" d="M63.375 33.2969 L63.375 0 L45.7969 0 L45.7969 5.4219 L45.7969 25.4844 Q45.7969 32.5625 45.4844 35.25 Q45.1719 37.9375 44.3906 39.2031 Q43.3594 40.9219 41.6016 41.875 Q39.8438 42.8281 37.5938 42.8281 Q32.125 42.8281 29 38.6016 Q25.875 34.375 25.875 26.9062 L25.875 0 L8.4062 0 L8.4062 54.6875 L25.875 54.6875 L25.875 46.6875 Q29.8281 51.4688 34.2734 53.7344 Q38.7188 56 44.0938 56 Q53.5625 56 58.4688 50.1953 Q63.375 44.3906 63.375 33.2969 Z"
        /><glyph unicode="i" horiz-adv-x="34.277344" d="M8.4062 54.6875 L25.875 54.6875 L25.875 0 L8.4062 0 L8.4062 54.6875 ZM8.4062 75.9844 L25.875 75.9844 L25.875 61.7188 L8.4062 61.7188 L8.4062 75.9844 Z"
        /><glyph unicode="r" horiz-adv-x="49.316406" d="M49.0312 39.7969 Q46.7344 40.875 44.4609 41.3828 Q42.1875 41.8906 39.8906 41.8906 Q33.1562 41.8906 29.5156 37.5703 Q25.875 33.25 25.875 25.2031 L25.875 0 L8.4062 0 L8.4062 54.6875 L25.875 54.6875 L25.875 45.7031 Q29.25 51.0781 33.6172 53.5391 Q37.9844 56 44.0938 56 Q44.9688 56 45.9922 55.9297 Q47.0156 55.8594 48.9688 55.6094 L49.0312 39.7969 Z"
        /><glyph unicode="e" horiz-adv-x="67.822266" d="M62.9844 27.4844 L62.9844 22.5156 L22.125 22.5156 Q22.75 16.3594 26.5625 13.2812 Q30.375 10.2031 37.2031 10.2031 Q42.7188 10.2031 48.5078 11.8438 Q54.2969 13.4844 60.4062 16.7969 L60.4062 3.3281 Q54.2031 0.9844 48 -0.2188 Q41.7969 -1.4219 35.5938 -1.4219 Q20.75 -1.4219 12.5234 6.125 Q4.2969 13.6719 4.2969 27.2969 Q4.2969 40.6719 12.375 48.3359 Q20.4531 56 34.625 56 Q47.5156 56 55.25 48.2422 Q62.9844 40.4844 62.9844 27.4844 ZM45.0156 33.2969 Q45.0156 38.2812 42.1094 41.3359 Q39.2031 44.3906 34.5156 44.3906 Q29.4375 44.3906 26.2656 41.5312 Q23.0938 38.6719 22.3125 33.2969 L45.0156 33.2969 Z"
        /><glyph unicode="t" horiz-adv-x="47.802734" d="M27.4844 70.2188 L27.4844 54.6875 L45.5156 54.6875 L45.5156 42.1875 L27.4844 42.1875 L27.4844 19 Q27.4844 15.1875 29 13.8438 Q30.5156 12.5 35.0156 12.5 L44 12.5 L44 0 L29 0 Q18.6562 0 14.3359 4.3203 Q10.0156 8.6406 10.0156 19 L10.0156 42.1875 L1.3125 42.1875 L1.3125 54.6875 L10.0156 54.6875 L10.0156 70.2188 L27.4844 70.2188 Z"
        /><glyph unicode="s" horiz-adv-x="59.521484" d="M51.125 52.9844 L51.125 39.7031 Q45.5156 42.0469 40.2891 43.2188 Q35.0625 44.3906 30.4219 44.3906 Q25.4375 44.3906 23.0234 43.1406 Q20.6094 41.8906 20.6094 39.3125 Q20.6094 37.2031 22.4375 36.0859 Q24.2656 34.9688 29 34.4219 L32.0781 33.9844 Q45.5156 32.2812 50.1484 28.375 Q54.7812 24.4688 54.7812 16.1094 Q54.7812 7.375 48.3359 2.9766 Q41.8906 -1.4219 29.1094 -1.4219 Q23.6875 -1.4219 17.8984 -0.5625 Q12.1094 0.2969 6 2 L6 15.2812 Q11.2344 12.75 16.7266 11.4766 Q22.2188 10.2031 27.875 10.2031 Q33.0156 10.2031 35.6016 11.6172 Q38.1875 13.0312 38.1875 15.8281 Q38.1875 18.1719 36.4062 19.3125 Q34.625 20.4531 29.2969 21.0938 L26.2188 21.4844 Q14.5469 22.9531 9.8594 26.9062 Q5.1719 30.8594 5.1719 38.9219 Q5.1719 47.6094 11.1328 51.8047 Q17.0938 56 29.3906 56 Q34.2344 56 39.5547 55.2734 Q44.875 54.5469 51.125 52.9844 Z"
        /><glyph unicode="u" horiz-adv-x="71.19141" d="M7.8125 21.2969 L7.8125 54.6875 L25.3906 54.6875 L25.3906 49.2188 Q25.3906 44.7812 25.3438 38.0625 Q25.2969 31.3438 25.2969 29.1094 Q25.2969 22.5156 25.6406 19.6094 Q25.9844 16.7031 26.8125 15.375 Q27.875 13.6719 29.6094 12.7422 Q31.3438 11.8125 33.5938 11.8125 Q39.0625 11.8125 42.1875 16.0156 Q45.3125 20.2188 45.3125 27.6875 L45.3125 54.6875 L62.7969 54.6875 L62.7969 0 L45.3125 0 L45.3125 7.9062 Q41.3594 3.125 36.9375 0.8516 Q32.5156 -1.4219 27.2031 -1.4219 Q17.7188 -1.4219 12.7656 4.3906 Q7.8125 10.2031 7.8125 21.2969 Z"
        /><glyph unicode="l" horiz-adv-x="34.277344" d="M8.4062 75.9844 L25.875 75.9844 L25.875 0 L8.4062 0 L8.4062 75.9844 Z"
        /><glyph unicode="c" horiz-adv-x="59.277344" d="M52.5938 52.9844 L52.5938 38.7188 Q49.0312 41.1562 45.4375 42.3281 Q41.8438 43.5 37.9844 43.5 Q30.6719 43.5 26.5938 39.2344 Q22.5156 34.9688 22.5156 27.2969 Q22.5156 19.625 26.5938 15.3516 Q30.6719 11.0781 37.9844 11.0781 Q42.0938 11.0781 45.7812 12.3047 Q49.4688 13.5312 52.5938 15.9219 L52.5938 1.6094 Q48.4844 0.0938 44.2656 -0.6641 Q40.0469 -1.4219 35.7969 -1.4219 Q21 -1.4219 12.6484 6.1719 Q4.2969 13.7656 4.2969 27.2969 Q4.2969 40.8281 12.6484 48.4141 Q21 56 35.7969 56 Q40.0938 56 44.2656 55.25 Q48.4375 54.5 52.5938 52.9844 Z"
        /><glyph unicode="0" horiz-adv-x="69.58008" d="M46 36.5312 Q46 50.2031 43.4375 55.7891 Q40.875 61.375 34.8125 61.375 Q28.7656 61.375 26.1719 55.7891 Q23.5781 50.2031 23.5781 36.5312 Q23.5781 22.7031 26.1719 17.0391 Q28.7656 11.375 34.8125 11.375 Q40.8281 11.375 43.4141 17.0391 Q46 22.7031 46 36.5312 ZM64.7969 36.375 Q64.7969 18.2656 56.9844 8.4219 Q49.1719 -1.4219 34.8125 -1.4219 Q20.4062 -1.4219 12.5938 8.4219 Q4.7812 18.2656 4.7812 36.375 Q4.7812 54.5469 12.5938 64.3828 Q20.4062 74.2188 34.8125 74.2188 Q49.1719 74.2188 56.9844 64.3828 Q64.7969 54.5469 64.7969 36.375 Z"
        /><glyph unicode="3" horiz-adv-x="69.58008" d="M46.5781 39.3125 Q53.9531 37.4062 57.7891 32.6953 Q61.625 27.9844 61.625 20.7031 Q61.625 9.8594 53.3203 4.2188 Q45.0156 -1.4219 29.1094 -1.4219 Q23.4844 -1.4219 17.8438 -0.5156 Q12.2031 0.3906 6.6875 2.2031 L6.6875 16.7031 Q11.9688 14.0625 17.1641 12.7188 Q22.3594 11.375 27.3906 11.375 Q34.8594 11.375 38.8438 13.9609 Q42.8281 16.5469 42.8281 21.3906 Q42.8281 26.375 38.75 28.9375 Q34.6719 31.5 26.7031 31.5 L19.1875 31.5 L19.1875 43.6094 L27.0938 43.6094 Q34.1875 43.6094 37.6484 45.8281 Q41.1094 48.0469 41.1094 52.5938 Q41.1094 56.7812 37.7422 59.0781 Q34.375 61.375 28.2188 61.375 Q23.6875 61.375 19.0469 60.3516 Q14.4062 59.3281 9.8125 57.3281 L9.8125 71.0938 Q15.375 72.6562 20.8438 73.4375 Q26.3125 74.2188 31.5938 74.2188 Q45.7969 74.2188 52.8516 69.5547 Q59.9062 64.8906 59.9062 55.5156 Q59.9062 49.125 56.5391 45.0469 Q53.1719 40.9688 46.5781 39.3125 Z"
        /><glyph unicode="h" horiz-adv-x="71.19141" d="M63.375 33.2969 L63.375 0 L45.7969 0 L45.7969 5.4219 L45.7969 25.3906 Q45.7969 32.5625 45.4844 35.25 Q45.1719 37.9375 44.3906 39.2031 Q43.3594 40.9219 41.6016 41.875 Q39.8438 42.8281 37.5938 42.8281 Q32.125 42.8281 29 38.6016 Q25.875 34.375 25.875 26.9062 L25.875 0 L8.4062 0 L8.4062 75.9844 L25.875 75.9844 L25.875 46.6875 Q29.8281 51.4688 34.2734 53.7344 Q38.7188 56 44.0938 56 Q53.5625 56 58.4688 50.1953 Q63.375 44.3906 63.375 33.2969 Z"
        /><glyph unicode="D" horiz-adv-x="83.00781" d="M27.9844 58.6875 L27.9844 14.2031 L34.7188 14.2031 Q46.2344 14.2031 52.3203 19.9219 Q58.4062 25.6406 58.4062 36.5312 Q58.4062 47.3594 52.3516 53.0234 Q46.2969 58.6875 34.7188 58.6875 L27.9844 58.6875 ZM9.1875 72.9062 L29 72.9062 Q45.6094 72.9062 53.7344 70.5391 Q61.8594 68.1719 67.6719 62.5 Q72.7969 57.5625 75.2891 51.1172 Q77.7812 44.6719 77.7812 36.5312 Q77.7812 28.2656 75.2891 21.7969 Q72.7969 15.3281 67.6719 10.4062 Q61.8125 4.7344 53.6094 2.3672 Q45.4062 0 29 0 L9.1875 0 L9.1875 72.9062 Z"
        /><glyph unicode="f" horiz-adv-x="43.50586" d="M44.3906 75.9844 L44.3906 64.5 L34.7188 64.5 Q31 64.5 29.5391 63.1562 Q28.0781 61.8125 28.0781 58.5 L28.0781 54.6875 L43.0156 54.6875 L43.0156 42.1875 L28.0781 42.1875 L28.0781 0 L10.5938 0 L10.5938 42.1875 L1.9062 42.1875 L1.9062 54.6875 L10.5938 54.6875 L10.5938 58.5 Q10.5938 67.4375 15.5781 71.7109 Q20.5625 75.9844 31 75.9844 L44.3906 75.9844 Z"
        /><glyph unicode="v" horiz-adv-x="65.18555" d="M1.5156 54.6875 L19 54.6875 L32.625 16.8906 L46.1875 54.6875 L63.7188 54.6875 L42.1875 0 L23 0 L1.5156 54.6875 Z"
        /><glyph unicode="a" horiz-adv-x="67.48047" d="M32.9062 24.6094 Q27.4375 24.6094 24.6797 22.7578 Q21.9219 20.9062 21.9219 17.2812 Q21.9219 13.9688 24.1484 12.0859 Q26.375 10.2031 30.3281 10.2031 Q35.25 10.2031 38.625 13.7422 Q42 17.2812 42 22.6094 L42 24.6094 L32.9062 24.6094 ZM59.625 31.2031 L59.625 0 L42 0 L42 8.1094 Q38.4844 3.125 34.0859 0.8516 Q29.6875 -1.4219 23.3906 -1.4219 Q14.8906 -1.4219 9.5938 3.5391 Q4.2969 8.5 4.2969 16.4062 Q4.2969 26.0312 10.9141 30.5234 Q17.5312 35.0156 31.6875 35.0156 L42 35.0156 L42 36.375 Q42 40.5312 38.7266 42.4609 Q35.4531 44.3906 28.5156 44.3906 Q22.9062 44.3906 18.0703 43.2656 Q13.2344 42.1406 9.0781 39.8906 L9.0781 53.2188 Q14.7031 54.5938 20.3672 55.2969 Q26.0312 56 31.6875 56 Q46.4844 56 53.0547 50.1719 Q59.625 44.3438 59.625 31.2031 Z"
        /><glyph unicode="F" horiz-adv-x="68.31055" d="M9.1875 72.9062 L59.9062 72.9062 L59.9062 58.6875 L27.9844 58.6875 L27.9844 45.125 L58.0156 45.125 L58.0156 30.9062 L27.9844 30.9062 L27.9844 0 L9.1875 0 L9.1875 72.9062 Z"
        /><glyph unicode="I" horiz-adv-x="37.20703" d="M9.1875 72.9062 L27.9844 72.9062 L27.9844 0 L9.1875 0 L9.1875 72.9062 Z"
        /><glyph unicode="S" horiz-adv-x="72.021484" d="M59.9062 70.6094 L59.9062 55.1719 Q53.9062 57.8594 48.1953 59.2266 Q42.4844 60.5938 37.4062 60.5938 Q30.6719 60.5938 27.4453 58.7422 Q24.2188 56.8906 24.2188 52.9844 Q24.2188 50.0469 26.3906 48.4141 Q28.5625 46.7812 34.2812 45.6094 L42.2812 44 Q54.4375 41.5469 59.5703 36.5703 Q64.7031 31.5938 64.7031 22.4062 Q64.7031 10.3594 57.5469 4.4688 Q50.3906 -1.4219 35.6875 -1.4219 Q28.7656 -1.4219 21.7812 -0.1016 Q14.7969 1.2188 7.8125 3.8125 L7.8125 19.6719 Q14.7969 15.9688 21.3125 14.0859 Q27.8281 12.2031 33.8906 12.2031 Q40.0469 12.2031 43.3125 14.2578 Q46.5781 16.3125 46.5781 20.125 Q46.5781 23.5312 44.3594 25.3906 Q42.1406 27.25 35.5 28.7188 L28.2188 30.3281 Q17.2812 32.6719 12.2266 37.7969 Q7.1719 42.9219 7.1719 51.6094 Q7.1719 62.5 14.2031 68.3594 Q21.2344 74.2188 34.4219 74.2188 Q40.4375 74.2188 46.7812 73.3125 Q53.125 72.4062 59.9062 70.6094 Z"
        /><glyph unicode="'" horiz-adv-x="30.615234" d="M21.0938 72.9062 L21.0938 45.7969 L9.5156 45.7969 L9.5156 72.9062 L21.0938 72.9062 Z"
        /><glyph unicode=":" horiz-adv-x="39.990234" d="M11.1875 54.6875 L28.8125 54.6875 L28.8125 35.7969 L11.1875 35.7969 L11.1875 54.6875 ZM11.1875 18.8906 L28.8125 18.8906 L28.8125 0 L11.1875 0 L11.1875 18.8906 Z"
        /><glyph unicode="y" horiz-adv-x="65.18555" d="M1.2188 54.6875 L18.7031 54.6875 L33.4062 17.5781 L45.9062 54.6875 L63.375 54.6875 L40.375 -5.1719 Q36.9219 -14.3125 32.3047 -17.9453 Q27.6875 -21.5781 20.125 -21.5781 L10.0156 -21.5781 L10.0156 -10.1094 L15.4844 -10.1094 Q19.9219 -10.1094 21.9453 -8.6953 Q23.9688 -7.2812 25.0938 -3.6094 L25.5938 -2.0938 L1.2188 54.6875 Z"
        /><glyph unicode="T" horiz-adv-x="68.21289" d="M0.4844 72.9062 L67.6719 72.9062 L67.6719 58.6875 L43.5 58.6875 L43.5 0 L24.7031 0 L24.7031 58.6875 L0.4844 58.6875 L0.4844 72.9062 Z"
        /><glyph unicode="-" horiz-adv-x="41.503906" d="M5.4219 35.8906 L36.0781 35.8906 L36.0781 21.6875 L5.4219 21.6875 L5.4219 35.8906 Z"
        /><glyph unicode="G" horiz-adv-x="82.08008" d="M74.7031 5.4219 Q67.6719 2 60.1094 0.2891 Q52.5469 -1.4219 44.4844 -1.4219 Q26.2656 -1.4219 15.625 8.7656 Q4.9844 18.9531 4.9844 36.375 Q4.9844 54 15.8203 64.1094 Q26.6562 74.2188 45.5156 74.2188 Q52.7812 74.2188 59.4453 72.8516 Q66.1094 71.4844 72.0156 68.7969 L72.0156 53.7188 Q65.9219 57.1719 59.8906 58.8828 Q53.8594 60.5938 47.7969 60.5938 Q36.5781 60.5938 30.5 54.3203 Q24.4219 48.0469 24.4219 36.375 Q24.4219 24.8125 30.2812 18.5078 Q36.1406 12.2031 46.9219 12.2031 Q49.8594 12.2031 52.375 12.5703 Q54.8906 12.9375 56.8906 13.7188 L56.8906 27.875 L45.4062 27.875 L45.4062 40.4844 L74.7031 40.4844 L74.7031 5.4219 Z"
        /><glyph unicode="w" horiz-adv-x="92.38281" d="M3.5156 54.6875 L20.5156 54.6875 L29.6875 17 L38.9219 54.6875 L53.5156 54.6875 L62.7031 17.3906 L71.9219 54.6875 L88.9219 54.6875 L74.5156 0 L55.4219 0 L46.1875 37.5938 L37.0156 0 L17.9219 0 L3.5156 54.6875 Z"
        /><glyph unicode="5" horiz-adv-x="69.58008" d="M10.5938 72.9062 L57.3281 72.9062 L57.3281 59.0781 L25.5938 59.0781 L25.5938 47.7969 Q27.7344 48.3906 29.9062 48.7109 Q32.0781 49.0312 34.4219 49.0312 Q47.75 49.0312 55.1719 42.3594 Q62.5938 35.6875 62.5938 23.7812 Q62.5938 11.9688 54.5156 5.2734 Q46.4375 -1.4219 32.0781 -1.4219 Q25.875 -1.4219 19.7969 -0.2188 Q13.7188 0.9844 7.7188 3.4219 L7.7188 18.2188 Q13.6719 14.7969 19.0156 13.0859 Q24.3594 11.375 29.1094 11.375 Q35.9375 11.375 39.8672 14.7188 Q43.7969 18.0625 43.7969 23.7812 Q43.7969 29.5469 39.8672 32.8672 Q35.9375 36.1875 29.1094 36.1875 Q25.0469 36.1875 20.4609 35.1328 Q15.875 34.0781 10.5938 31.8906 L10.5938 72.9062 Z"
        /><glyph unicode="m" horiz-adv-x="104.19922" d="M59.0781 45.6094 Q62.4062 50.6875 66.9688 53.3438 Q71.5312 56 77 56 Q86.4219 56 91.3594 50.1953 Q96.2969 44.3906 96.2969 33.2969 L96.2969 0 L78.7188 0 L78.7188 28.5156 Q78.7656 29.1562 78.7891 29.8359 Q78.8125 30.5156 78.8125 31.7812 Q78.8125 37.5938 77.1016 40.2109 Q75.3906 42.8281 71.5781 42.8281 Q66.6094 42.8281 63.8984 38.7266 Q61.1875 34.625 61.0781 26.8594 L61.0781 0 L43.5 0 L43.5 28.5156 Q43.5 37.5938 41.9375 40.2109 Q40.375 42.8281 36.375 42.8281 Q31.3438 42.8281 28.6094 38.7031 Q25.875 34.5781 25.875 26.9062 L25.875 0 L8.2969 0 L8.2969 54.6875 L25.875 54.6875 L25.875 46.6875 Q29.1094 51.3125 33.2812 53.6562 Q37.4531 56 42.4844 56 Q48.1406 56 52.4922 53.2656 Q56.8438 50.5312 59.0781 45.6094 Z"
        /><glyph unicode="A" horiz-adv-x="77.39258" d="M53.4219 13.2812 L24.0312 13.2812 L19.3906 0 L0.4844 0 L27.4844 72.9062 L49.9062 72.9062 L76.9062 0 L58.0156 0 L53.4219 13.2812 ZM28.7188 26.8125 L48.6875 26.8125 L38.7188 55.8125 L28.7188 26.8125 Z"
        /><glyph unicode="P" horiz-adv-x="73.291016" d="M9.1875 72.9062 L40.375 72.9062 Q54.2969 72.9062 61.7422 66.7266 Q69.1875 60.5469 69.1875 49.125 Q69.1875 37.6406 61.7422 31.4688 Q54.2969 25.2969 40.375 25.2969 L27.9844 25.2969 L27.9844 0 L9.1875 0 L9.1875 72.9062 ZM27.9844 59.2812 L27.9844 38.9219 L38.375 38.9219 Q43.8438 38.9219 46.8281 41.5781 Q49.8125 44.2344 49.8125 49.125 Q49.8125 54 46.8281 56.6406 Q43.8438 59.2812 38.375 59.2812 L27.9844 59.2812 Z"
        /><glyph unicode="6" horiz-adv-x="69.58008" d="M36.1875 35.9844 Q31.25 35.9844 28.7812 32.7891 Q26.3125 29.5938 26.3125 23.1875 Q26.3125 16.7969 28.7812 13.6016 Q31.25 10.4062 36.1875 10.4062 Q41.1562 10.4062 43.625 13.6016 Q46.0938 16.7969 46.0938 23.1875 Q46.0938 29.5938 43.625 32.7891 Q41.1562 35.9844 36.1875 35.9844 ZM59.4219 71 L59.4219 57.5156 Q54.7812 59.7188 50.6797 60.7656 Q46.5781 61.8125 42.6719 61.8125 Q34.2812 61.8125 29.5938 57.1484 Q24.9062 52.4844 24.125 43.3125 Q27.3438 45.7031 31.1016 46.8984 Q34.8594 48.0938 39.3125 48.0938 Q50.4844 48.0938 57.3438 41.5547 Q64.2031 35.0156 64.2031 24.4219 Q64.2031 12.7031 56.5391 5.6406 Q48.875 -1.4219 35.9844 -1.4219 Q21.7812 -1.4219 13.9922 8.1797 Q6.2031 17.7812 6.2031 35.4062 Q6.2031 53.4688 15.3125 63.7969 Q24.4219 74.125 40.2812 74.125 Q45.3125 74.125 50.0469 73.3438 Q54.7812 72.5625 59.4219 71 Z"
        /><glyph unicode="9" horiz-adv-x="69.58008" d="M10.0156 1.6094 L10.0156 15.0938 Q14.5 12.9844 18.6016 11.9375 Q22.7031 10.8906 26.7031 10.8906 Q35.1094 10.8906 39.7969 15.5547 Q44.4844 20.2188 45.3125 29.3906 Q42 26.9531 38.2344 25.7344 Q34.4688 24.5156 30.0781 24.5156 Q18.8906 24.5156 12.0312 31.0312 Q5.1719 37.5469 5.1719 48.1875 Q5.1719 59.9688 12.8125 67.0469 Q20.4531 74.125 33.2969 74.125 Q47.5625 74.125 55.375 64.5078 Q63.1875 54.8906 63.1875 37.3125 Q63.1875 19.2344 54.0547 8.9062 Q44.9219 -1.4219 29 -1.4219 Q23.875 -1.4219 19.1875 -0.6641 Q14.5 0.0938 10.0156 1.6094 ZM33.2031 36.7188 Q38.1406 36.7188 40.625 39.9141 Q43.1094 43.1094 43.1094 49.5156 Q43.1094 55.8594 40.625 59.0859 Q38.1406 62.3125 33.2031 62.3125 Q28.2656 62.3125 25.7812 59.0859 Q23.2969 55.8594 23.2969 49.5156 Q23.2969 43.1094 25.7812 39.9141 Q28.2656 36.7188 33.2031 36.7188 Z"
        /><glyph unicode="L" horiz-adv-x="63.720703" d="M9.1875 72.9062 L27.9844 72.9062 L27.9844 14.2031 L60.9844 14.2031 L60.9844 0 L9.1875 0 L9.1875 72.9062 Z"
        /><glyph unicode="Z" horiz-adv-x="72.509766" d="M5.6094 72.9062 L66.8906 72.9062 L66.8906 61.5312 L27.7812 14.2031 L68.0156 14.2031 L68.0156 0 L4.5 0 L4.5 11.375 L43.6094 58.6875 L5.6094 58.6875 L5.6094 72.9062 Z"
        /><glyph unicode="E" horiz-adv-x="68.31055" d="M9.1875 72.9062 L59.9062 72.9062 L59.9062 58.6875 L27.9844 58.6875 L27.9844 45.125 L58.0156 45.125 L58.0156 30.9062 L27.9844 30.9062 L27.9844 14.2031 L60.9844 14.2031 L60.9844 0 L9.1875 0 L9.1875 72.9062 Z"
        /><glyph unicode="N" horiz-adv-x="83.69141" d="M9.1875 72.9062 L30.1719 72.9062 L56.6875 22.9062 L56.6875 72.9062 L74.5156 72.9062 L74.5156 0 L53.5156 0 L27 50 L27 0 L9.1875 0 L9.1875 72.9062 Z"
      /></font
    ></defs
    ><g style="fill:white; stroke:white;"
    ><rect x="0" y="0" width="800" style="clip-path:url(#clipPath1); stroke:none;" height="600"
    /></g
    ><g style="fill:white; text-rendering:optimizeSpeed; color-rendering:optimizeSpeed; image-rendering:optimizeSpeed; shape-rendering:crispEdges; color-interpolation:sRGB; stroke:white;"
    ><rect x="0" width="800" height="600" y="0" style="stroke:none;"
      /><path style="stroke:none;" d="M104 534 L724 534 L724 94 L104 94 Z"
    /></g
    ><g style="fill:rgb(38,38,38); text-rendering:geometricPrecision; color-rendering:optimizeQuality; image-rendering:optimizeQuality; stroke-linejoin:round; color-interpolation:linearRGB; stroke:rgb(38,38,38); stroke-width:0.6667;"
    ><line y2="534" style="fill:none;" x1="104" x2="724" y1="534"
      /><line y2="94" style="fill:none;" x1="104" x2="724" y1="94"
      /><line y2="527.8" style="fill:none;" x1="104" x2="104" y1="534"
      /><line y2="527.8" style="fill:none;" x1="207.3333" x2="207.3333" y1="534"
      /><line y2="527.8" style="fill:none;" x1="310.6667" x2="310.6667" y1="534"
      /><line y2="527.8" style="fill:none;" x1="414" x2="414" y1="534"
      /><line y2="527.8" style="fill:none;" x1="517.3333" x2="517.3333" y1="534"
      /><line y2="527.8" style="fill:none;" x1="620.6667" x2="620.6667" y1="534"
      /><line y2="527.8" style="fill:none;" x1="724" x2="724" y1="534"
      /><line y2="100.2" style="fill:none;" x1="104" x2="104" y1="94"
      /><line y2="100.2" style="fill:none;" x1="207.3333" x2="207.3333" y1="94"
      /><line y2="100.2" style="fill:none;" x1="310.6667" x2="310.6667" y1="94"
      /><line y2="100.2" style="fill:none;" x1="414" x2="414" y1="94"
      /><line y2="100.2" style="fill:none;" x1="517.3333" x2="517.3333" y1="94"
      /><line y2="100.2" style="fill:none;" x1="620.6667" x2="620.6667" y1="94"
      /><line y2="100.2" style="fill:none;" x1="724" x2="724" y1="94"
    /></g
    ><g transform="translate(104,539.3333)" style="font-size:13px; fill:rgb(38,38,38); text-rendering:geometricPrecision; color-rendering:optimizeQuality; image-rendering:optimizeQuality; font-family:'SansSerif'; color-interpolation:linearRGB; stroke:rgb(38,38,38);"
    ><text x="-4.5" xml:space="preserve" y="13" style="stroke:none;"
      >0</text
    ></g
    ><g transform="translate(207.3333,539.3333)" style="font-size:13px; fill:rgb(38,38,38); text-rendering:geometricPrecision; color-rendering:optimizeQuality; image-rendering:optimizeQuality; font-family:'SansSerif'; color-interpolation:linearRGB; stroke:rgb(38,38,38);"
    ><text x="-12.5" xml:space="preserve" y="13" style="stroke:none;"
      >100</text
    ></g
    ><g transform="translate(310.6667,539.3333)" style="font-size:13px; fill:rgb(38,38,38); text-rendering:geometricPrecision; color-rendering:optimizeQuality; image-rendering:optimizeQuality; font-family:'SansSerif'; color-interpolation:linearRGB; stroke:rgb(38,38,38);"
    ><text x="-12.5" xml:space="preserve" y="13" style="stroke:none;"
      >200</text
    ></g
    ><g transform="translate(414,539.3333)" style="font-size:13px; fill:rgb(38,38,38); text-rendering:geometricPrecision; color-rendering:optimizeQuality; image-rendering:optimizeQuality; font-family:'SansSerif'; color-interpolation:linearRGB; stroke:rgb(38,38,38);"
    ><text x="-12.5" xml:space="preserve" y="13" style="stroke:none;"
      >300</text
    ></g
    ><g transform="translate(517.3333,539.3333)" style="font-size:13px; fill:rgb(38,38,38); text-rendering:geometricPrecision; color-rendering:optimizeQuality; image-rendering:optimizeQuality; font-family:'SansSerif'; color-interpolation:linearRGB; stroke:rgb(38,38,38);"
    ><text x="-12.5" xml:space="preserve" y="13" style="stroke:none;"
      >400</text
    ></g
    ><g transform="translate(620.6667,539.3333)" style="font-size:13px; fill:rgb(38,38,38); text-rendering:geometricPrecision; color-rendering:optimizeQuality; image-rendering:optimizeQuality; font-family:'SansSerif'; color-interpolation:linearRGB; stroke:rgb(38,38,38);"
    ><text x="-12.5" xml:space="preserve" y="13" style="stroke:none;"
      >500</text
    ></g
    ><g transform="translate(724,539.3333)" style="font-size:13px; fill:rgb(38,38,38); text-rendering:geometricPrecision; color-rendering:optimizeQuality; image-rendering:optimizeQuality; font-family:'SansSerif'; color-interpolation:linearRGB; stroke:rgb(38,38,38);"
    ><text x="-12.5" xml:space="preserve" y="13" style="stroke:none;"
      >600</text
    ></g
    ><g transform="translate(414.0003,557.6667)" style="font-size:15px; fill:rgb(38,38,38); text-rendering:geometricPrecision; color-rendering:optimizeQuality; image-rendering:optimizeQuality; font-family:'SansSerif'; color-interpolation:linearRGB; stroke:rgb(38,38,38);"
    ><text x="-43.5" xml:space="preserve" y="14" style="stroke:none;"
      >iteration no</text
    ></g
    ><g style="fill:rgb(38,38,38); text-rendering:geometricPrecision; color-rendering:optimizeQuality; image-rendering:optimizeQuality; stroke-linejoin:round; color-interpolation:linearRGB; stroke:rgb(38,38,38); stroke-width:0.6667;"
    ><line y2="94" style="fill:none;" x1="104" x2="104" y1="534"
      /><line y2="94" style="fill:none;" x1="724" x2="724" y1="534"
      /><line y2="534" style="fill:none;" x1="104" x2="110.2" y1="534"
      /><line y2="479" style="fill:none;" x1="104" x2="110.2" y1="479"
      /><line y2="424" style="fill:none;" x1="104" x2="110.2" y1="424"
      /><line y2="369" style="fill:none;" x1="104" x2="110.2" y1="369"
      /><line y2="314" style="fill:none;" x1="104" x2="110.2" y1="314"
      /><line y2="259" style="fill:none;" x1="104" x2="110.2" y1="259"
      /><line y2="204" style="fill:none;" x1="104" x2="110.2" y1="204"
      /><line y2="149" style="fill:none;" x1="104" x2="110.2" y1="149"
      /><line y2="94" style="fill:none;" x1="104" x2="110.2" y1="94"
      /><line y2="534" style="fill:none;" x1="724" x2="717.8" y1="534"
      /><line y2="479" style="fill:none;" x1="724" x2="717.8" y1="479"
      /><line y2="424" style="fill:none;" x1="724" x2="717.8" y1="424"
      /><line y2="369" style="fill:none;" x1="724" x2="717.8" y1="369"
      /><line y2="314" style="fill:none;" x1="724" x2="717.8" y1="314"
      /><line y2="259" style="fill:none;" x1="724" x2="717.8" y1="259"
      /><line y2="204" style="fill:none;" x1="724" x2="717.8" y1="204"
      /><line y2="149" style="fill:none;" x1="724" x2="717.8" y1="149"
      /><line y2="94" style="fill:none;" x1="724" x2="717.8" y1="94"
    /></g
    ><g transform="translate(98.6667,534)" style="font-size:13px; fill:rgb(38,38,38); text-rendering:geometricPrecision; color-rendering:optimizeQuality; image-rendering:optimizeQuality; font-family:'SansSerif'; color-interpolation:linearRGB; stroke:rgb(38,38,38);"
    ><text x="-9" xml:space="preserve" y="4.5" style="stroke:none;"
      >0</text
    ></g
    ><g transform="translate(98.6667,479)" style="font-size:13px; fill:rgb(38,38,38); text-rendering:geometricPrecision; color-rendering:optimizeQuality; image-rendering:optimizeQuality; font-family:'SansSerif'; color-interpolation:linearRGB; stroke:rgb(38,38,38);"
    ><text x="-9" xml:space="preserve" y="4.5" style="stroke:none;"
      >5</text
    ></g
    ><g transform="translate(98.6667,424)" style="font-size:13px; fill:rgb(38,38,38); text-rendering:geometricPrecision; color-rendering:optimizeQuality; image-rendering:optimizeQuality; font-family:'SansSerif'; color-interpolation:linearRGB; stroke:rgb(38,38,38);"
    ><text x="-17" xml:space="preserve" y="4.5" style="stroke:none;"
      >10</text
    ></g
    ><g transform="translate(98.6667,369)" style="font-size:13px; fill:rgb(38,38,38); text-rendering:geometricPrecision; color-rendering:optimizeQuality; image-rendering:optimizeQuality; font-family:'SansSerif'; color-interpolation:linearRGB; stroke:rgb(38,38,38);"
    ><text x="-17" xml:space="preserve" y="4.5" style="stroke:none;"
      >15</text
    ></g
    ><g transform="translate(98.6667,314)" style="font-size:13px; fill:rgb(38,38,38); text-rendering:geometricPrecision; color-rendering:optimizeQuality; image-rendering:optimizeQuality; font-family:'SansSerif'; color-interpolation:linearRGB; stroke:rgb(38,38,38);"
    ><text x="-17" xml:space="preserve" y="4.5" style="stroke:none;"
      >20</text
    ></g
    ><g transform="translate(98.6667,259)" style="font-size:13px; fill:rgb(38,38,38); text-rendering:geometricPrecision; color-rendering:optimizeQuality; image-rendering:optimizeQuality; font-family:'SansSerif'; color-interpolation:linearRGB; stroke:rgb(38,38,38);"
    ><text x="-17" xml:space="preserve" y="4.5" style="stroke:none;"
      >25</text
    ></g
    ><g transform="translate(98.6667,204)" style="font-size:13px; fill:rgb(38,38,38); text-rendering:geometricPrecision; color-rendering:optimizeQuality; image-rendering:optimizeQuality; font-family:'SansSerif'; color-interpolation:linearRGB; stroke:rgb(38,38,38);"
    ><text x="-17" xml:space="preserve" y="4.5" style="stroke:none;"
      >30</text
    ></g
    ><g transform="translate(98.6667,149)" style="font-size:13px; fill:rgb(38,38,38); text-rendering:geometricPrecision; color-rendering:optimizeQuality; image-rendering:optimizeQuality; font-family:'SansSerif'; color-interpolation:linearRGB; stroke:rgb(38,38,38);"
    ><text x="-17" xml:space="preserve" y="4.5" style="stroke:none;"
      >35</text
    ></g
    ><g transform="translate(98.6667,94)" style="font-size:13px; fill:rgb(38,38,38); text-rendering:geometricPrecision; color-rendering:optimizeQuality; image-rendering:optimizeQuality; font-family:'SansSerif'; color-interpolation:linearRGB; stroke:rgb(38,38,38);"
    ><text x="-17" xml:space="preserve" y="4.5" style="stroke:none;"
      >40</text
    ></g
    ><g transform="translate(77.6667,313.9998) rotate(-90)" style="font-size:15px; fill:rgb(38,38,38); text-rendering:geometricPrecision; color-rendering:optimizeQuality; image-rendering:optimizeQuality; font-family:'SansSerif'; color-interpolation:linearRGB; stroke:rgb(38,38,38);"
    ><text x="-21.5" xml:space="preserve" y="-4" style="stroke:none;"
      >count</text
    ></g
    ><g transform="translate(414.0004,91.25)" style="font-size:15px; text-rendering:geometricPrecision; color-rendering:optimizeQuality; image-rendering:optimizeQuality; font-family:'SansSerif'; color-interpolation:linearRGB; font-weight:bold;"
    ><text x="-223.5" xml:space="preserve" y="-76" style="stroke:none;"
      >clustering error (less is better, group zero excluded)</text
      ><text x="-309" xml:space="preserve" y="-58" style="stroke:none;"
      >descriptorType: 'SIFT', discardStarved: false, groupDiscardThreshold: 30</text
      ><text x="-291.5" xml:space="preserve" y="-40" style="stroke:none;"
      >groupPreserveAmount: 5, livePreview: false, newGroupThreshold: -3</text
      ><text x="-247.5" xml:space="preserve" y="-22" style="stroke:none;"
      >removeZeroLabel: false, shuffleFiles: false, thumbSize: 96</text
      ><text x="-95.5" xml:space="preserve" y="-4" style="stroke:none;"
      >useNLastElements: Inf</text
    ></g
    ><g style="stroke-linecap:butt; fill:rgb(0,114,189); text-rendering:geometricPrecision; color-rendering:optimizeQuality; image-rendering:optimizeQuality; stroke-linejoin:round; color-interpolation:linearRGB; stroke:rgb(0,114,189); stroke-width:1.3333;"
    ><path d="M105.0333 534 L106.0667 534 L107.1 534 L108.1333 534 L109.1667 534 L110.2 534 L111.2333 534 L112.2667 534 L113.3 534 L114.3333 534 L115.3667 534 L116.4 534 L117.4333 534 L118.4667 534 L119.5 534 L120.5333 534 L121.5667 534 L122.6 534 L123.6333 534 L124.6667 534 L125.7 534 L126.7333 534 L127.7667 534 L128.8 534 L129.8333 534 L130.8667 534 L131.9 534 L132.9333 534 L133.9667 534 L135 534 L136.0333 534 L137.0667 534 L138.1 534 L139.1333 534 L140.1667 534 L141.2 534 L142.2333 534 L143.2667 534 L144.3 534 L145.3333 534 L146.3667 534 L147.4 534 L148.4333 534 L149.4667 534 L150.5 534 L151.5333 534 L152.5667 534 L153.6 534 L154.6333 534 L155.6667 534 L156.7 534 L157.7333 534 L158.7667 534 L159.8 534 L160.8333 534 L161.8667 534 L162.9 534 L163.9333 534 L164.9667 534 L166 534 L167.0333 534 L168.0667 534 L169.1 534 L170.1333 534 L171.1667 534 L172.2 534 L173.2333 534 L174.2667 534 L175.3 534 L176.3333 534 L177.3667 534 L178.4 534 L179.4333 534 L180.4667 534 L181.5 534 L182.5333 534 L183.5667 534 L184.6 534 L185.6333 534 L186.6667 534 L187.7 534 L188.7333 534 L189.7667 534 L190.8 534 L191.8333 534 L192.8667 534 L193.9 534 L194.9333 534 L195.9667 534 L197 534 L198.0333 534 L199.0667 534 L200.1 534 L201.1333 534 L202.1667 534 L203.2 534 L204.2333 534 L205.2667 534 L206.3 534 L207.3333 534 L208.3667 534 L209.4 534 L210.4333 534 L211.4667 534 L212.5 534 L213.5333 534 L214.5667 534 L215.6 534 L216.6333 534 L217.6667 534 L218.7 523 L219.7333 512 L220.7667 512 L221.8 534 L222.8333 534 L223.8667 534 L224.9 534 L225.9333 534 L226.9667 534 L228 534 L229.0333 534 L230.0667 534 L231.1 534 L232.1333 534 L233.1667 534 L234.2 534 L235.2333 534 L236.2667 534 L237.3 534 L238.3333 534 L239.3667 534 L240.4 534 L241.4333 534 L242.4667 534 L243.5 534 L244.5333 534 L245.5667 534 L246.6 534 L247.6333 534 L248.6667 534 L249.7 534 L250.7333 534 L251.7667 534 L252.8 534 L253.8333 534 L254.8667 534 L255.9 534 L256.9333 534 L257.9667 534 L259 534 L260.0333 534 L261.0667 534 L262.1 534 L263.1333 534 L264.1667 534 L265.2 534 L266.2333 534 L267.2667 534 L268.3 534 L269.3333 534 L270.3667 534 L271.4 534 L272.4333 534 L273.4667 534 L274.5 534 L275.5333 534 L276.5667 534 L277.6 534 L278.6333 534 L279.6667 534 L280.7 534 L281.7333 534 L282.7667 534 L283.8 534 L284.8333 534 L285.8667 534 L286.9 534 L287.9333 534 L288.9667 534 L290 523 L291.0333 512 L292.0667 501 L293.1 501 L294.1333 490 L295.1667 490 L296.2 479 L297.2333 479 L298.2667 468 L299.3 468 L300.3333 468 L301.3667 468 L302.4 468 L303.4333 468 L304.4667 468 L305.5 468 L306.5333 468 L307.5667 468 L308.6 468 L309.6333 468 L310.6667 468 L311.7 468 L312.7333 468 L313.7667 468 L314.8 468 L315.8333 468 L316.8667 468 L317.9 468 L318.9333 336 L319.9667 336 L321 325 L322.0333 435 L323.0667 424 L324.1 413 L325.1333 402 L326.1667 391 L327.2 380 L328.2333 369 L329.2667 369 L330.3 424 L331.3333 413 L332.3667 424 L333.4 424 L334.4333 424 L335.4667 424 L336.5 413 L337.5333 402 L338.5667 391 L339.6 391 L340.6333 380 L341.6667 380 L342.7 380 L343.7333 380 L344.7667 380 L345.8 380 L346.8333 380 L347.8667 380 L348.9 380 L349.9333 380 L350.9667 380 L352 380 L353.0333 380 L354.0667 380 L355.1 380 L356.1333 380 L357.1667 380 L358.2 380 L359.2333 380 L360.2667 380 L361.3 380 L362.3333 380 L363.3667 380 L364.4 380 L365.4333 380 L366.4667 380 L367.5 380 L368.5333 380 L369.5667 380 L370.6 380 L371.6333 380 L372.6667 380 L373.7 380 L374.7333 380 L375.7667 380 L376.8 380 L377.8333 380 L378.8667 380 L379.9 380 L380.9333 380 L381.9667 380 L383 380 L384.0333 380 L385.0667 380 L386.1 380 L387.1333 380 L388.1667 380 L389.2 380 L390.2333 380 L391.2667 380 L392.3 380 L393.3333 380 L394.3667 380 L395.4 380 L396.4333 380 L397.4667 380 L398.5 380 L399.5333 380 L400.5667 380 L401.6 380 L402.6333 380 L403.6667 380 L404.7 380 L405.7333 380 L406.7667 380 L407.8 380 L408.8333 380 L409.8667 380 L410.9 380 L411.9333 380 L412.9667 380 L414 138 L415.0333 138 L416.0667 138 L417.1 380 L418.1333 380 L419.1667 380 L420.2 380 L421.2333 380 L422.2667 380 L423.3 380 L424.3333 380 L425.3667 380 L426.4 380 L427.4333 380 L428.4667 380 L429.5 380 L430.5333 380 L431.5667 380 L432.6 380 L433.6333 380 L434.6667 380 L435.7 380 L436.7333 380 L437.7667 380 L438.8 380 L439.8333 380 L440.8667 380 L441.9 380 L442.9333 380 L443.9667 380 L445 380 L446.0333 380 L447.0667 380 L448.1 380 L449.1333 380 L450.1667 380 L451.2 380 L452.2333 380 L453.2667 380 L454.3 380 L455.3333 380 L456.3667 380 L457.4 380 L458.4333 380 L459.4667 380 L460.5 380 L461.5333 380 L462.5667 380 L463.6 380 L464.6333 380 L465.6667 380 L466.7 380 L467.7333 380 L468.7667 380 L469.8 380 L470.8333 380 L471.8667 380 L472.9 380 L473.9333 380 L474.9667 380 L476 380 L477.0333 380 L478.0667 380 L479.1 380 L480.1333 380 L481.1667 380 L482.2 380 L483.2333 380 L484.2667 380 L485.3 380 L486.3333 380 L487.3667 380 L488.4 380 L489.4333 380 L490.4667 380 L491.5 380 L492.5333 380 L493.5667 380 L494.6 380 L495.6333 380 L496.6667 380 L497.7 380 L498.7333 380 L499.7667 380 L500.8 380 L501.8333 380 L502.8667 380 L503.9 380 L504.9333 380 L505.9667 380 L507 380 L508.0333 380 L509.0667 380 L510.1 380 L511.1333 380 L512.1667 380 L513.2 380 L514.2333 380 L515.2667 380 L516.3 380 L517.3333 380 L518.3666 380 L519.4 380 L520.4333 380 L521.4667 380 L522.5 380 L523.5333 380 L524.5667 380 L525.6 380 L526.6334 380 L527.6667 380 L528.7 380 L529.7333 380 L530.7667 380 L531.8 380 L532.8333 380 L533.8666 380 L534.9 380 L535.9333 380 L536.9667 380 L538 380 L539.0333 380 L540.0667 380 L541.1 380 L542.1334 380 L543.1667 380 L544.2 380 L545.2333 380 L546.2667 380 L547.3 380 L548.3333 380 L549.3666 380 L550.4 380 L551.4333 380 L552.4667 380 L553.5 380 L554.5333 380 L555.5667 380 L556.6 380 L557.6334 380 L558.6667 380 L559.7 380 L560.7333 380 L561.7667 380 L562.8 380 L563.8333 380 L564.8666 380 L565.9 380 L566.9333 380 L567.9667 380 L569 380 L570.0333 380 L571.0667 380 L572.1 380 L573.1334 380 L574.1667 380 L575.2 380 L576.2333 380 L577.2667 380 L578.3 380 L579.3333 380 L580.3666 380 L581.4 380 L582.4333 380 L583.4667 380 L584.5 380 L585.5333 380 L586.5667 380 L587.6 380 L588.6334 380 L589.6667 380 L590.7 380 L591.7333 380 L592.7667 380 L593.8 380 L594.8333 380 L595.8666 380 L596.9 380 L597.9333 380 L598.9667 380 L600 380 L601.0333 380 L602.0667 380 L603.1 380 L604.1334 380 L605.1667 380 L606.2 380 L607.2333 380 L608.2667 380 L609.3 380 L610.3333 380 L611.3666 380 L612.4 380 L613.4333 380 L614.4667 380 L615.5 380 L616.5333 380 L617.5667 380 L618.6 380 L619.6334 380 L620.6667 380 L621.7 380 L622.7333 380 L623.7667 380 L624.8 380 L625.8333 380 L626.8666 380 L627.9 380 L628.9333 380 L629.9667 380 L631 380 L632.0333 380 L633.0667 380 L634.1 380 L635.1334 380 L636.1667 380 L637.2 380 L638.2333 380 L639.2667 380 L640.3 380 L641.3333 380 L642.3666 380 L643.4 380 L644.4333 380 L645.4667 380 L646.5 380 L647.5333 380 L648.5667 380 L649.6 380 L650.6334 380 L651.6667 380 L652.7 380 L653.7333 380 L654.7667 380 L655.8 380 L656.8333 380 L657.8666 380 L658.9 380 L659.9333 380 L660.9667 380 L662 380 L663.0333 380 L664.0667 380 L665.1 380 L666.1334 380 L667.1667 380 L668.2 380 L669.2333 380 L670.2667 380 L671.3 380 L672.3333 380 L673.3666 380 L674.4 380 L675.4333 138 L676.4667 138 L677.5 380 L678.5333 380 L679.5667 380 L680.6 380 L681.6334 380 L682.6667 380 L683.7 380 L684.7333 380 L685.7667 380 L686.8 380 L687.8333 380 L688.8666 380 L689.9 380 L690.9333 380 L691.9667 380 L693 380 L694.0333 380 L695.0667 380 L696.1 380 L697.1334 380 L698.1667 380 L699.2 380 L700.2333 380 L701.2667 380 L702.3 380 L703.3333 380 L704.3666 380 L705.4 380 L706.4333 380 L707.4667 380 L708.5 380 L709.5333 380 L710.5667 138 L711.6 138 L712.6334 138 L713.6667 138 L714.7 138 L715.7333 138 L716.7667 138 L717.8 138" style="fill:none; fill-rule:evenodd;"
      /><line x1="221.8" x2="221.8" y1="534" style="fill:none; stroke:rgb(204,204,204);" y2="94"
      /><line x1="332.3667" x2="332.3667" y1="534" style="fill:none; stroke:rgb(204,204,204);" y2="94"
      /><line x1="335.4667" x2="335.4667" y1="534" style="fill:none; stroke:rgb(204,204,204);" y2="94"
      /><line x1="417.1" x2="417.1" y1="534" style="fill:none; stroke:rgb(204,204,204);" y2="94"
      /><line x1="677.5" x2="677.5" y1="534" style="fill:none; stroke:rgb(204,204,204);" y2="94"
    /></g
    ><g style="fill:white; text-rendering:optimizeSpeed; color-rendering:optimizeSpeed; image-rendering:optimizeSpeed; shape-rendering:crispEdges; color-interpolation:sRGB; stroke:white;"
    ><path style="stroke:none;" d="M117 142 L117 107 L305 107 L305 142 Z"
    /></g
    ><g transform="translate(154,116.6377)" style="text-rendering:geometricPrecision; font-family:'SansSerif'; color-interpolation:linearRGB; color-rendering:optimizeQuality; image-rendering:optimizeQuality;"
    ><text x="0" xml:space="preserve" y="4.5" style="stroke:none;"
      >clustering errors</text
    ></g
    ><g style="stroke-linecap:butt; fill:rgb(0,114,189); text-rendering:geometricPrecision; color-rendering:optimizeQuality; image-rendering:optimizeQuality; stroke-linejoin:round; color-interpolation:linearRGB; stroke:rgb(0,114,189); stroke-width:1.3333;"
    ><line y2="116.6377" style="fill:none;" x1="121" x2="151" y1="116.6377"
    /></g
    ><g transform="translate(154,132.3623)" style="text-rendering:geometricPrecision; font-family:'SansSerif'; color-interpolation:linearRGB; color-rendering:optimizeQuality; image-rendering:optimizeQuality;"
    ><text x="0" xml:space="preserve" y="4.5" style="stroke:none;"
      >merges between groups</text
    ></g
    ><g style="stroke-linecap:butt; fill:rgb(204,204,204); text-rendering:geometricPrecision; color-rendering:optimizeQuality; image-rendering:optimizeQuality; stroke-linejoin:round; color-interpolation:linearRGB; stroke:rgb(204,204,204); stroke-width:1.3333;"
    ><line y2="132.3623" style="fill:none;" x1="121" x2="151" y1="132.3623"
    /></g
    ><g style="stroke-linecap:butt; fill:rgb(38,38,38); text-rendering:geometricPrecision; color-rendering:optimizeQuality; image-rendering:optimizeQuality; color-interpolation:linearRGB; stroke:rgb(38,38,38); stroke-width:0.6667;"
    ><path d="M117 142 L117 107 L305 107 L305 142 Z" style="fill:none; fill-rule:evenodd;"
    /></g
  ></g
></svg
>
