<?xml version="1.0"?>
<!DOCTYPE svg PUBLIC '-//W3C//DTD SVG 1.0//EN'
          'http://www.w3.org/TR/2001/REC-SVG-20010904/DTD/svg10.dtd'>
<svg xmlns:xlink="http://www.w3.org/1999/xlink" style="fill-opacity:1; color-rendering:auto; color-interpolation:auto; stroke:black; text-rendering:auto; stroke-linecap:square; stroke-miterlimit:10; stroke-opacity:1; shape-rendering:auto; fill:black; stroke-dasharray:none; font-weight:normal; stroke-width:1; font-family:'Dialog'; font-style:normal; stroke-linejoin:miter; font-size:12px; stroke-dashoffset:0; image-rendering:auto;" width="800" height="600" xmlns="http://www.w3.org/2000/svg"
><!--Generated by the Batik Graphics2D SVG Generator--><defs id="genericDefs"
  /><g
  ><defs id="defs1"
    ><clipPath clipPathUnits="userSpaceOnUse" id="clipPath1"
      ><path d="M0 0 L800 0 L800 600 L0 600 L0 0 Z"
      /></clipPath
      ><font horiz-adv-x="60.009766" id="font1"
      ><font-face ascent="92.822266" descent="23.583984" units-per-em="100" style="font-style:normal; font-family:SansSerif; font-weight:normal;"
        /><missing-glyph horiz-adv-x="60.009766" d="M4.9844 -17.6719 L4.9844 70.5156 L54.9844 70.5156 L54.9844 -17.6719 L4.9844 -17.6719 ZM10.5938 -12.1094 L49.4219 -12.1094 L49.4219 64.8906 L10.5938 64.8906 L10.5938 -12.1094 Z"
        /><glyph unicode="0" horiz-adv-x="63.623047" d="M31.7812 66.4062 Q24.1719 66.4062 20.3359 58.9141 Q16.5 51.4219 16.5 36.375 Q16.5 21.3906 20.3359 13.8906 Q24.1719 6.3906 31.7812 6.3906 Q39.4531 6.3906 43.2891 13.8906 Q47.125 21.3906 47.125 36.375 Q47.125 51.4219 43.2891 58.9141 Q39.4531 66.4062 31.7812 66.4062 ZM31.7812 74.2188 Q44.0469 74.2188 50.5156 64.5234 Q56.9844 54.8281 56.9844 36.375 Q56.9844 17.9688 50.5156 8.2734 Q44.0469 -1.4219 31.7812 -1.4219 Q19.5312 -1.4219 13.0625 8.2734 Q6.5938 17.9688 6.5938 36.375 Q6.5938 54.8281 13.0625 64.5234 Q19.5312 74.2188 31.7812 74.2188 Z"
        /><glyph unicode="1" horiz-adv-x="63.623047" d="M12.4062 8.2969 L28.5156 8.2969 L28.5156 63.9219 L10.9844 60.4062 L10.9844 69.3906 L28.4219 72.9062 L38.2812 72.9062 L38.2812 8.2969 L54.3906 8.2969 L54.3906 0 L12.4062 0 L12.4062 8.2969 Z"
        /><glyph unicode="2" horiz-adv-x="63.623047" d="M19.1875 8.2969 L53.6094 8.2969 L53.6094 0 L7.3281 0 L7.3281 8.2969 Q12.9375 14.1094 22.6328 23.8984 Q32.3281 33.6875 34.8125 36.5312 Q39.5469 41.8438 41.4297 45.5312 Q43.3125 49.2188 43.3125 52.7812 Q43.3125 58.5938 39.2344 62.2578 Q35.1562 65.9219 28.6094 65.9219 Q23.9688 65.9219 18.8203 64.3125 Q13.6719 62.7031 7.8125 59.4219 L7.8125 69.3906 Q13.7656 71.7812 18.9453 73 Q24.125 74.2188 28.4219 74.2188 Q39.75 74.2188 46.4844 68.5547 Q53.2188 62.8906 53.2188 53.4219 Q53.2188 48.9219 51.5391 44.8984 Q49.8594 40.875 45.4062 35.4062 Q44.1875 33.9844 37.6484 27.2188 Q31.1094 20.4531 19.1875 8.2969 Z"
        /><glyph unicode="3" horiz-adv-x="63.623047" d="M40.5781 39.3125 Q47.6562 37.7969 51.6328 33.0078 Q55.6094 28.2188 55.6094 21.1875 Q55.6094 10.4062 48.1875 4.4922 Q40.7656 -1.4219 27.0938 -1.4219 Q22.5156 -1.4219 17.6562 -0.5156 Q12.7969 0.3906 7.625 2.2031 L7.625 11.7188 Q11.7188 9.3281 16.6016 8.1094 Q21.4844 6.8906 26.8125 6.8906 Q36.0781 6.8906 40.9375 10.5469 Q45.7969 14.2031 45.7969 21.1875 Q45.7969 27.6406 41.2812 31.2734 Q36.7656 34.9062 28.7188 34.9062 L20.2188 34.9062 L20.2188 43.0156 L29.1094 43.0156 Q36.375 43.0156 40.2344 45.9219 Q44.0938 48.8281 44.0938 54.2969 Q44.0938 59.9062 40.1172 62.9141 Q36.1406 65.9219 28.7188 65.9219 Q24.6562 65.9219 20.0156 65.0391 Q15.375 64.1562 9.8125 62.3125 L9.8125 71.0938 Q15.4375 72.6562 20.3438 73.4375 Q25.25 74.2188 29.5938 74.2188 Q40.8281 74.2188 47.3672 69.1172 Q53.9062 64.0156 53.9062 55.3281 Q53.9062 49.2656 50.4375 45.0938 Q46.9688 40.9219 40.5781 39.3125 Z"
        /><glyph unicode="4" horiz-adv-x="63.623047" d="M37.7969 64.3125 L12.8906 25.3906 L37.7969 25.3906 L37.7969 64.3125 ZM35.2031 72.9062 L47.6094 72.9062 L47.6094 25.3906 L58.0156 25.3906 L58.0156 17.1875 L47.6094 17.1875 L47.6094 0 L37.7969 0 L37.7969 17.1875 L4.8906 17.1875 L4.8906 26.7031 L35.2031 72.9062 Z"
        /><glyph unicode="5" horiz-adv-x="63.623047" d="M10.7969 72.9062 L49.5156 72.9062 L49.5156 64.5938 L19.8281 64.5938 L19.8281 46.7344 Q21.9688 47.4688 24.1172 47.8281 Q26.2656 48.1875 28.4219 48.1875 Q40.625 48.1875 47.7578 41.5 Q54.8906 34.8125 54.8906 23.3906 Q54.8906 11.625 47.5625 5.1016 Q40.2344 -1.4219 26.9062 -1.4219 Q22.3125 -1.4219 17.5547 -0.6406 Q12.7969 0.1406 7.7188 1.7031 L7.7188 11.625 Q12.1094 9.2344 16.7969 8.0625 Q21.4844 6.8906 26.7031 6.8906 Q35.1562 6.8906 40.0859 11.3281 Q45.0156 15.7656 45.0156 23.3906 Q45.0156 31 40.0859 35.4453 Q35.1562 39.8906 26.7031 39.8906 Q22.75 39.8906 18.8203 39.0156 Q14.8906 38.1406 10.7969 36.2812 L10.7969 72.9062 Z"
        /><glyph unicode="6" horiz-adv-x="63.623047" d="M33.0156 40.375 Q26.375 40.375 22.4922 35.8359 Q18.6094 31.2969 18.6094 23.3906 Q18.6094 15.5312 22.4922 10.9609 Q26.375 6.3906 33.0156 6.3906 Q39.6562 6.3906 43.5312 10.9609 Q47.4062 15.5312 47.4062 23.3906 Q47.4062 31.2969 43.5312 35.8359 Q39.6562 40.375 33.0156 40.375 ZM52.5938 71.2969 L52.5938 62.3125 Q48.875 64.0625 45.0938 64.9922 Q41.3125 65.9219 37.5938 65.9219 Q27.8281 65.9219 22.6797 59.3281 Q17.5312 52.7344 16.7969 39.4062 Q19.6719 43.6562 24.0234 45.9219 Q28.375 48.1875 33.5938 48.1875 Q44.5781 48.1875 50.9531 41.5234 Q57.3281 34.8594 57.3281 23.3906 Q57.3281 12.1562 50.6875 5.3672 Q44.0469 -1.4219 33.0156 -1.4219 Q20.3594 -1.4219 13.6719 8.2734 Q6.9844 17.9688 6.9844 36.375 Q6.9844 53.6562 15.1875 63.9375 Q23.3906 74.2188 37.2031 74.2188 Q40.9219 74.2188 44.7031 73.4844 Q48.4844 72.75 52.5938 71.2969 Z"
        /><glyph unicode="]" horiz-adv-x="39.01367" d="M30.4219 75.9844 L30.4219 -13.1875 L9.7188 -13.1875 L9.7188 -6.2031 L21.3906 -6.2031 L21.3906 69 L9.7188 69 L9.7188 75.9844 L30.4219 75.9844 Z"
        /><glyph unicode="s" horiz-adv-x="52.09961" d="M44.2812 53.0781 L44.2812 44.5781 Q40.4844 46.5312 36.3828 47.5078 Q32.2812 48.4844 27.875 48.4844 Q21.1875 48.4844 17.8438 46.4375 Q14.5 44.3906 14.5 40.2812 Q14.5 37.1562 16.8906 35.375 Q19.2812 33.5938 26.5156 31.9844 L29.5938 31.2969 Q39.1562 29.25 43.1875 25.5156 Q47.2188 21.7812 47.2188 15.0938 Q47.2188 7.4688 41.1875 3.0234 Q35.1562 -1.4219 24.6094 -1.4219 Q20.2188 -1.4219 15.4531 -0.5625 Q10.6875 0.2969 5.4219 2 L5.4219 11.2812 Q10.4062 8.6875 15.2344 7.3984 Q20.0625 6.1094 24.8125 6.1094 Q31.1562 6.1094 34.5703 8.2812 Q37.9844 10.4531 37.9844 14.4062 Q37.9844 18.0625 35.5234 20.0156 Q33.0625 21.9688 24.7031 23.7812 L21.5781 24.5156 Q13.2344 26.2656 9.5234 29.9062 Q5.8125 33.5469 5.8125 39.8906 Q5.8125 47.6094 11.2812 51.8047 Q16.75 56 26.8125 56 Q31.7812 56 36.1797 55.2734 Q40.5781 54.5469 44.2812 53.0781 Z"
        /><glyph unicode="[" horiz-adv-x="39.01367" d="M8.5938 75.9844 L29.2969 75.9844 L29.2969 69 L17.5781 69 L17.5781 -6.2031 L29.2969 -6.2031 L29.2969 -13.1875 L8.5938 -13.1875 L8.5938 75.9844 Z"
        /><glyph unicode=" " horiz-adv-x="31.78711" d=""
        /><glyph unicode="e" horiz-adv-x="61.523438" d="M56.2031 29.5938 L56.2031 25.2031 L14.8906 25.2031 Q15.4844 15.9219 20.4844 11.0625 Q25.4844 6.2031 34.4219 6.2031 Q39.5938 6.2031 44.4531 7.4688 Q49.3125 8.7344 54.1094 11.2812 L54.1094 2.7812 Q49.2656 0.7344 44.1875 -0.3438 Q39.1094 -1.4219 33.8906 -1.4219 Q20.7969 -1.4219 13.1562 6.1953 Q5.5156 13.8125 5.5156 26.8125 Q5.5156 40.2344 12.7656 48.1172 Q20.0156 56 32.3281 56 Q43.3594 56 49.7812 48.8984 Q56.2031 41.7969 56.2031 29.5938 ZM47.2188 32.2344 Q47.125 39.5938 43.0938 43.9922 Q39.0625 48.3906 32.4219 48.3906 Q24.9062 48.3906 20.3906 44.1406 Q15.875 39.8906 15.1875 32.1719 L47.2188 32.2344 Z"
        /><glyph unicode="m" horiz-adv-x="97.41211" d="M52 44.1875 Q55.375 50.25 60.0625 53.125 Q64.75 56 71.0938 56 Q79.6406 56 84.2812 50.0234 Q88.9219 44.0469 88.9219 33.0156 L88.9219 0 L79.8906 0 L79.8906 32.7188 Q79.8906 40.5781 77.1016 44.3828 Q74.3125 48.1875 68.6094 48.1875 Q61.625 48.1875 57.5703 43.5547 Q53.5156 38.9219 53.5156 30.9062 L53.5156 0 L44.4844 0 L44.4844 32.7188 Q44.4844 40.625 41.7031 44.4062 Q38.9219 48.1875 33.1094 48.1875 Q26.2188 48.1875 22.1641 43.5312 Q18.1094 38.875 18.1094 30.9062 L18.1094 0 L9.0781 0 L9.0781 54.6875 L18.1094 54.6875 L18.1094 46.1875 Q21.1875 51.2188 25.4844 53.6094 Q29.7812 56 35.6875 56 Q41.6562 56 45.8281 52.9766 Q50 49.9531 52 44.1875 Z"
        /><glyph unicode="i" horiz-adv-x="27.783203" d="M9.4219 54.6875 L18.4062 54.6875 L18.4062 0 L9.4219 0 L9.4219 54.6875 ZM9.4219 75.9844 L18.4062 75.9844 L18.4062 64.5938 L9.4219 64.5938 L9.4219 75.9844 Z"
        /><glyph unicode="t" horiz-adv-x="39.208984" d="M18.3125 70.2188 L18.3125 54.6875 L36.8125 54.6875 L36.8125 47.7031 L18.3125 47.7031 L18.3125 18.0156 Q18.3125 11.3281 20.1406 9.4219 Q21.9688 7.5156 27.5938 7.5156 L36.8125 7.5156 L36.8125 0 L27.5938 0 Q17.1875 0 13.2344 3.8828 Q9.2812 7.7656 9.2812 18.0156 L9.2812 47.7031 L2.6875 47.7031 L2.6875 54.6875 L9.2812 54.6875 L9.2812 70.2188 L18.3125 70.2188 Z"
        /><glyph unicode="." horiz-adv-x="31.78711" d="M10.6875 12.4062 L21 12.4062 L21 0 L10.6875 0 L10.6875 12.4062 Z"
        /><glyph unicode="7" horiz-adv-x="63.623047" d="M8.2031 72.9062 L55.0781 72.9062 L55.0781 68.7031 L28.6094 0 L18.3125 0 L43.2188 64.5938 L8.2031 64.5938 L8.2031 72.9062 Z"
        /><glyph unicode="y" horiz-adv-x="59.179688" d="M32.1719 -5.0781 Q28.375 -14.8438 24.7578 -17.8203 Q21.1406 -20.7969 15.0938 -20.7969 L7.9062 -20.7969 L7.9062 -13.2812 L13.1875 -13.2812 Q16.8906 -13.2812 18.9453 -11.5234 Q21 -9.7656 23.4844 -3.2188 L25.0938 0.875 L2.9844 54.6875 L12.5 54.6875 L29.5938 11.9219 L46.6875 54.6875 L56.2031 54.6875 L32.1719 -5.0781 Z"
        /><glyph unicode="l" horiz-adv-x="27.783203" d="M9.4219 75.9844 L18.4062 75.9844 L18.4062 0 L9.4219 0 L9.4219 75.9844 Z"
        /><glyph unicode="f" horiz-adv-x="35.20508" d="M37.1094 75.9844 L37.1094 68.5 L28.5156 68.5 Q23.6875 68.5 21.8047 66.5469 Q19.9219 64.5938 19.9219 59.5156 L19.9219 54.6875 L34.7188 54.6875 L34.7188 47.7031 L19.9219 47.7031 L19.9219 0 L10.8906 0 L10.8906 47.7031 L2.2969 47.7031 L2.2969 54.6875 L10.8906 54.6875 L10.8906 58.5 Q10.8906 67.625 15.1406 71.8047 Q19.3906 75.9844 28.6094 75.9844 L37.1094 75.9844 Z"
        /><glyph unicode="o" horiz-adv-x="61.18164" d="M30.6094 48.3906 Q23.3906 48.3906 19.1875 42.75 Q14.9844 37.1094 14.9844 27.2969 Q14.9844 17.4844 19.1641 11.8438 Q23.3438 6.2031 30.6094 6.2031 Q37.7969 6.2031 41.9922 11.8672 Q46.1875 17.5312 46.1875 27.2969 Q46.1875 37.0156 41.9922 42.7031 Q37.7969 48.3906 30.6094 48.3906 ZM30.6094 56 Q42.3281 56 49.0234 48.3828 Q55.7188 40.7656 55.7188 27.2969 Q55.7188 13.875 49.0234 6.2266 Q42.3281 -1.4219 30.6094 -1.4219 Q18.8438 -1.4219 12.1797 6.2266 Q5.5156 13.875 5.5156 27.2969 Q5.5156 40.7656 12.1797 48.3828 Q18.8438 56 30.6094 56 Z"
        /><glyph unicode="r" horiz-adv-x="41.11328" d="M41.1094 46.2969 Q39.5938 47.1719 37.8125 47.5859 Q36.0312 48 33.8906 48 Q26.2656 48 22.1875 43.0469 Q18.1094 38.0938 18.1094 28.8125 L18.1094 0 L9.0781 0 L9.0781 54.6875 L18.1094 54.6875 L18.1094 46.1875 Q20.9531 51.1719 25.4922 53.5859 Q30.0312 56 36.5312 56 Q37.4531 56 38.5781 55.8828 Q39.7031 55.7656 41.0625 55.5156 L41.1094 46.2969 Z"
        /><glyph unicode="b" horiz-adv-x="63.476562" d="M48.6875 27.2969 Q48.6875 37.2031 44.6094 42.8438 Q40.5312 48.4844 33.4062 48.4844 Q26.2656 48.4844 22.1875 42.8438 Q18.1094 37.2031 18.1094 27.2969 Q18.1094 17.3906 22.1875 11.75 Q26.2656 6.1094 33.4062 6.1094 Q40.5312 6.1094 44.6094 11.75 Q48.6875 17.3906 48.6875 27.2969 ZM18.1094 46.3906 Q20.9531 51.2656 25.2734 53.6328 Q29.5938 56 35.5938 56 Q45.5625 56 51.7891 48.0938 Q58.0156 40.1875 58.0156 27.2969 Q58.0156 14.4062 51.7891 6.4922 Q45.5625 -1.4219 35.5938 -1.4219 Q29.5938 -1.4219 25.2734 0.9531 Q20.9531 3.3281 18.1094 8.2031 L18.1094 0 L9.0781 0 L9.0781 75.9844 L18.1094 75.9844 L18.1094 46.3906 Z"
        /><glyph unicode="u" horiz-adv-x="63.378906" d="M8.5 21.5781 L8.5 54.6875 L17.4844 54.6875 L17.4844 21.9219 Q17.4844 14.1562 20.5078 10.2734 Q23.5312 6.3906 29.5938 6.3906 Q36.8594 6.3906 41.0859 11.0312 Q45.3125 15.6719 45.3125 23.6875 L45.3125 54.6875 L54.2969 54.6875 L54.2969 0 L45.3125 0 L45.3125 8.4062 Q42.0469 3.4219 37.7266 1 Q33.4062 -1.4219 27.6875 -1.4219 Q18.2656 -1.4219 13.3828 4.4375 Q8.5 10.2969 8.5 21.5781 Z"
        /><glyph unicode="n" horiz-adv-x="63.378906" d="M54.8906 33.0156 L54.8906 0 L45.9062 0 L45.9062 32.7188 Q45.9062 40.4844 42.875 44.3359 Q39.8438 48.1875 33.7969 48.1875 Q26.5156 48.1875 22.3125 43.5547 Q18.1094 38.9219 18.1094 30.9062 L18.1094 0 L9.0781 0 L9.0781 54.6875 L18.1094 54.6875 L18.1094 46.1875 Q21.3438 51.125 25.7109 53.5625 Q30.0781 56 35.7969 56 Q45.2188 56 50.0547 50.1719 Q54.8906 44.3438 54.8906 33.0156 Z"
      /></font
      ><font horiz-adv-x="60.009766" id="font2"
      ><font-face ascent="92.822266" descent="23.583984" units-per-em="100" style="font-style:normal; font-family:SansSerif; font-weight:bold;"
        /><missing-glyph horiz-adv-x="60.009766" d="M4.9844 -17.6719 L4.9844 70.5156 L54.9844 70.5156 L54.9844 -17.6719 L4.9844 -17.6719 ZM10.5938 -12.1094 L49.4219 -12.1094 L49.4219 64.8906 L10.5938 64.8906 L10.5938 -12.1094 Z"
        /><glyph unicode="m" horiz-adv-x="104.19922" d="M59.0781 45.6094 Q62.4062 50.6875 66.9688 53.3438 Q71.5312 56 77 56 Q86.4219 56 91.3594 50.1953 Q96.2969 44.3906 96.2969 33.2969 L96.2969 0 L78.7188 0 L78.7188 28.5156 Q78.7656 29.1562 78.7891 29.8359 Q78.8125 30.5156 78.8125 31.7812 Q78.8125 37.5938 77.1016 40.2109 Q75.3906 42.8281 71.5781 42.8281 Q66.6094 42.8281 63.8984 38.7266 Q61.1875 34.625 61.0781 26.8594 L61.0781 0 L43.5 0 L43.5 28.5156 Q43.5 37.5938 41.9375 40.2109 Q40.375 42.8281 36.375 42.8281 Q31.3438 42.8281 28.6094 38.7031 Q25.875 34.5781 25.875 26.9062 L25.875 0 L8.2969 0 L8.2969 54.6875 L25.875 54.6875 L25.875 46.6875 Q29.1094 51.3125 33.2812 53.6562 Q37.4531 56 42.4844 56 Q48.1406 56 52.4922 53.2656 Q56.8438 50.5312 59.0781 45.6094 Z"
        /><glyph unicode=" " horiz-adv-x="34.814453" d=""
        /><glyph unicode="g" horiz-adv-x="71.58203" d="M45.6094 9.2812 Q42 4.5 37.6484 2.25 Q33.2969 0 27.5938 0 Q17.5781 0 11.0391 7.8828 Q4.5 15.7656 4.5 27.9844 Q4.5 40.2344 11.0391 48.0703 Q17.5781 55.9062 27.5938 55.9062 Q33.2969 55.9062 37.6484 53.6641 Q42 51.4219 45.6094 46.5781 L45.6094 54.6875 L63.1875 54.6875 L63.1875 5.5156 Q63.1875 -7.6719 54.8594 -14.625 Q46.5312 -21.5781 30.7188 -21.5781 Q25.5938 -21.5781 20.8047 -20.7969 Q16.0156 -20.0156 11.1875 -18.4062 L11.1875 -4.7812 Q15.7656 -7.4219 20.1641 -8.7188 Q24.5625 -10.0156 29 -10.0156 Q37.5938 -10.0156 41.6016 -6.25 Q45.6094 -2.4844 45.6094 5.5156 L45.6094 9.2812 ZM34.0781 43.3125 Q28.6562 43.3125 25.6328 39.3047 Q22.6094 35.2969 22.6094 27.9844 Q22.6094 20.4531 25.5391 16.5781 Q28.4688 12.7031 34.0781 12.7031 Q39.5469 12.7031 42.5781 16.7031 Q45.6094 20.7031 45.6094 27.9844 Q45.6094 35.2969 42.5781 39.3047 Q39.5469 43.3125 34.0781 43.3125 Z"
        /><glyph unicode="n" horiz-adv-x="71.19141" d="M63.375 33.2969 L63.375 0 L45.7969 0 L45.7969 5.4219 L45.7969 25.4844 Q45.7969 32.5625 45.4844 35.25 Q45.1719 37.9375 44.3906 39.2031 Q43.3594 40.9219 41.6016 41.875 Q39.8438 42.8281 37.5938 42.8281 Q32.125 42.8281 29 38.6016 Q25.875 34.375 25.875 26.9062 L25.875 0 L8.4062 0 L8.4062 54.6875 L25.875 54.6875 L25.875 46.6875 Q29.8281 51.4688 34.2734 53.7344 Q38.7188 56 44.0938 56 Q53.5625 56 58.4688 50.1953 Q63.375 44.3906 63.375 33.2969 Z"
        /><glyph unicode="i" horiz-adv-x="34.277344" d="M8.4062 54.6875 L25.875 54.6875 L25.875 0 L8.4062 0 L8.4062 54.6875 ZM8.4062 75.9844 L25.875 75.9844 L25.875 61.7188 L8.4062 61.7188 L8.4062 75.9844 Z"
        /><glyph unicode="r" horiz-adv-x="49.316406" d="M49.0312 39.7969 Q46.7344 40.875 44.4609 41.3828 Q42.1875 41.8906 39.8906 41.8906 Q33.1562 41.8906 29.5156 37.5703 Q25.875 33.25 25.875 25.2031 L25.875 0 L8.4062 0 L8.4062 54.6875 L25.875 54.6875 L25.875 45.7031 Q29.25 51.0781 33.6172 53.5391 Q37.9844 56 44.0938 56 Q44.9688 56 45.9922 55.9297 Q47.0156 55.8594 48.9688 55.6094 L49.0312 39.7969 Z"
        /><glyph unicode="e" horiz-adv-x="67.822266" d="M62.9844 27.4844 L62.9844 22.5156 L22.125 22.5156 Q22.75 16.3594 26.5625 13.2812 Q30.375 10.2031 37.2031 10.2031 Q42.7188 10.2031 48.5078 11.8438 Q54.2969 13.4844 60.4062 16.7969 L60.4062 3.3281 Q54.2031 0.9844 48 -0.2188 Q41.7969 -1.4219 35.5938 -1.4219 Q20.75 -1.4219 12.5234 6.125 Q4.2969 13.6719 4.2969 27.2969 Q4.2969 40.6719 12.375 48.3359 Q20.4531 56 34.625 56 Q47.5156 56 55.25 48.2422 Q62.9844 40.4844 62.9844 27.4844 ZM45.0156 33.2969 Q45.0156 38.2812 42.1094 41.3359 Q39.2031 44.3906 34.5156 44.3906 Q29.4375 44.3906 26.2656 41.5312 Q23.0938 38.6719 22.3125 33.2969 L45.0156 33.2969 Z"
        /><glyph unicode="t" horiz-adv-x="47.802734" d="M27.4844 70.2188 L27.4844 54.6875 L45.5156 54.6875 L45.5156 42.1875 L27.4844 42.1875 L27.4844 19 Q27.4844 15.1875 29 13.8438 Q30.5156 12.5 35.0156 12.5 L44 12.5 L44 0 L29 0 Q18.6562 0 14.3359 4.3203 Q10.0156 8.6406 10.0156 19 L10.0156 42.1875 L1.3125 42.1875 L1.3125 54.6875 L10.0156 54.6875 L10.0156 70.2188 L27.4844 70.2188 Z"
        /><glyph unicode="s" horiz-adv-x="59.521484" d="M51.125 52.9844 L51.125 39.7031 Q45.5156 42.0469 40.2891 43.2188 Q35.0625 44.3906 30.4219 44.3906 Q25.4375 44.3906 23.0234 43.1406 Q20.6094 41.8906 20.6094 39.3125 Q20.6094 37.2031 22.4375 36.0859 Q24.2656 34.9688 29 34.4219 L32.0781 33.9844 Q45.5156 32.2812 50.1484 28.375 Q54.7812 24.4688 54.7812 16.1094 Q54.7812 7.375 48.3359 2.9766 Q41.8906 -1.4219 29.1094 -1.4219 Q23.6875 -1.4219 17.8984 -0.5625 Q12.1094 0.2969 6 2 L6 15.2812 Q11.2344 12.75 16.7266 11.4766 Q22.2188 10.2031 27.875 10.2031 Q33.0156 10.2031 35.6016 11.6172 Q38.1875 13.0312 38.1875 15.8281 Q38.1875 18.1719 36.4062 19.3125 Q34.625 20.4531 29.2969 21.0938 L26.2188 21.4844 Q14.5469 22.9531 9.8594 26.9062 Q5.1719 30.8594 5.1719 38.9219 Q5.1719 47.6094 11.1328 51.8047 Q17.0938 56 29.3906 56 Q34.2344 56 39.5547 55.2734 Q44.875 54.5469 51.125 52.9844 Z"
        /><glyph unicode="u" horiz-adv-x="71.19141" d="M7.8125 21.2969 L7.8125 54.6875 L25.3906 54.6875 L25.3906 49.2188 Q25.3906 44.7812 25.3438 38.0625 Q25.2969 31.3438 25.2969 29.1094 Q25.2969 22.5156 25.6406 19.6094 Q25.9844 16.7031 26.8125 15.375 Q27.875 13.6719 29.6094 12.7422 Q31.3438 11.8125 33.5938 11.8125 Q39.0625 11.8125 42.1875 16.0156 Q45.3125 20.2188 45.3125 27.6875 L45.3125 54.6875 L62.7969 54.6875 L62.7969 0 L45.3125 0 L45.3125 7.9062 Q41.3594 3.125 36.9375 0.8516 Q32.5156 -1.4219 27.2031 -1.4219 Q17.7188 -1.4219 12.7656 4.3906 Q7.8125 10.2031 7.8125 21.2969 Z"
        /><glyph unicode="l" horiz-adv-x="34.277344" d="M8.4062 75.9844 L25.875 75.9844 L25.875 0 L8.4062 0 L8.4062 75.9844 Z"
        /><glyph unicode="c" horiz-adv-x="59.277344" d="M52.5938 52.9844 L52.5938 38.7188 Q49.0312 41.1562 45.4375 42.3281 Q41.8438 43.5 37.9844 43.5 Q30.6719 43.5 26.5938 39.2344 Q22.5156 34.9688 22.5156 27.2969 Q22.5156 19.625 26.5938 15.3516 Q30.6719 11.0781 37.9844 11.0781 Q42.0938 11.0781 45.7812 12.3047 Q49.4688 13.5312 52.5938 15.9219 L52.5938 1.6094 Q48.4844 0.0938 44.2656 -0.6641 Q40.0469 -1.4219 35.7969 -1.4219 Q21 -1.4219 12.6484 6.1719 Q4.2969 13.7656 4.2969 27.2969 Q4.2969 40.8281 12.6484 48.4141 Q21 56 35.7969 56 Q40.0938 56 44.2656 55.25 Q48.4375 54.5 52.5938 52.9844 Z"
      /></font
    ></defs
    ><g style="fill:white; stroke:white;"
    ><rect x="0" y="0" width="800" style="clip-path:url(#clipPath1); stroke:none;" height="600"
    /></g
    ><g style="fill:white; text-rendering:optimizeSpeed; color-rendering:optimizeSpeed; image-rendering:optimizeSpeed; shape-rendering:crispEdges; color-interpolation:sRGB; stroke:white;"
    ><rect x="0" width="800" height="600" y="0" style="stroke:none;"
      /><path style="stroke:none;" d="M104 534 L724 534 L724 45 L104 45 Z"
    /></g
    ><g style="fill:rgb(38,38,38); text-rendering:geometricPrecision; color-rendering:optimizeQuality; image-rendering:optimizeQuality; stroke-linejoin:round; color-interpolation:linearRGB; stroke:rgb(38,38,38); stroke-width:0.6667;"
    ><line y2="534" style="fill:none;" x1="104" x2="724" y1="534"
      /><line y2="45" style="fill:none;" x1="104" x2="724" y1="45"
      /><line y2="527.8" style="fill:none;" x1="104" x2="104" y1="534"
      /><line y2="527.8" style="fill:none;" x1="207.3333" x2="207.3333" y1="534"
      /><line y2="527.8" style="fill:none;" x1="310.6667" x2="310.6667" y1="534"
      /><line y2="527.8" style="fill:none;" x1="414" x2="414" y1="534"
      /><line y2="527.8" style="fill:none;" x1="517.3333" x2="517.3333" y1="534"
      /><line y2="527.8" style="fill:none;" x1="620.6667" x2="620.6667" y1="534"
      /><line y2="527.8" style="fill:none;" x1="724" x2="724" y1="534"
      /><line y2="51.2" style="fill:none;" x1="104" x2="104" y1="45"
      /><line y2="51.2" style="fill:none;" x1="207.3333" x2="207.3333" y1="45"
      /><line y2="51.2" style="fill:none;" x1="310.6667" x2="310.6667" y1="45"
      /><line y2="51.2" style="fill:none;" x1="414" x2="414" y1="45"
      /><line y2="51.2" style="fill:none;" x1="517.3333" x2="517.3333" y1="45"
      /><line y2="51.2" style="fill:none;" x1="620.6667" x2="620.6667" y1="45"
      /><line y2="51.2" style="fill:none;" x1="724" x2="724" y1="45"
    /></g
    ><g transform="translate(104,539.3333)" style="font-size:13px; fill:rgb(38,38,38); text-rendering:geometricPrecision; color-rendering:optimizeQuality; image-rendering:optimizeQuality; font-family:'SansSerif'; color-interpolation:linearRGB; stroke:rgb(38,38,38);"
    ><text x="-4.5" xml:space="preserve" y="13" style="stroke:none;"
      >0</text
    ></g
    ><g transform="translate(207.3333,539.3333)" style="font-size:13px; fill:rgb(38,38,38); text-rendering:geometricPrecision; color-rendering:optimizeQuality; image-rendering:optimizeQuality; font-family:'SansSerif'; color-interpolation:linearRGB; stroke:rgb(38,38,38);"
    ><text x="-12.5" xml:space="preserve" y="13" style="stroke:none;"
      >100</text
    ></g
    ><g transform="translate(310.6667,539.3333)" style="font-size:13px; fill:rgb(38,38,38); text-rendering:geometricPrecision; color-rendering:optimizeQuality; image-rendering:optimizeQuality; font-family:'SansSerif'; color-interpolation:linearRGB; stroke:rgb(38,38,38);"
    ><text x="-12.5" xml:space="preserve" y="13" style="stroke:none;"
      >200</text
    ></g
    ><g transform="translate(414,539.3333)" style="font-size:13px; fill:rgb(38,38,38); text-rendering:geometricPrecision; color-rendering:optimizeQuality; image-rendering:optimizeQuality; font-family:'SansSerif'; color-interpolation:linearRGB; stroke:rgb(38,38,38);"
    ><text x="-12.5" xml:space="preserve" y="13" style="stroke:none;"
      >300</text
    ></g
    ><g transform="translate(517.3333,539.3333)" style="font-size:13px; fill:rgb(38,38,38); text-rendering:geometricPrecision; color-rendering:optimizeQuality; image-rendering:optimizeQuality; font-family:'SansSerif'; color-interpolation:linearRGB; stroke:rgb(38,38,38);"
    ><text x="-12.5" xml:space="preserve" y="13" style="stroke:none;"
      >400</text
    ></g
    ><g transform="translate(620.6667,539.3333)" style="font-size:13px; fill:rgb(38,38,38); text-rendering:geometricPrecision; color-rendering:optimizeQuality; image-rendering:optimizeQuality; font-family:'SansSerif'; color-interpolation:linearRGB; stroke:rgb(38,38,38);"
    ><text x="-12.5" xml:space="preserve" y="13" style="stroke:none;"
      >500</text
    ></g
    ><g transform="translate(724,539.3333)" style="font-size:13px; fill:rgb(38,38,38); text-rendering:geometricPrecision; color-rendering:optimizeQuality; image-rendering:optimizeQuality; font-family:'SansSerif'; color-interpolation:linearRGB; stroke:rgb(38,38,38);"
    ><text x="-12.5" xml:space="preserve" y="13" style="stroke:none;"
      >600</text
    ></g
    ><g transform="translate(414.0003,557.6667)" style="font-size:15px; fill:rgb(38,38,38); text-rendering:geometricPrecision; color-rendering:optimizeQuality; image-rendering:optimizeQuality; font-family:'SansSerif'; color-interpolation:linearRGB; stroke:rgb(38,38,38);"
    ><text x="-29.5" xml:space="preserve" y="14" style="stroke:none;"
      >time [s]</text
    ></g
    ><g style="fill:rgb(38,38,38); text-rendering:geometricPrecision; color-rendering:optimizeQuality; image-rendering:optimizeQuality; stroke-linejoin:round; color-interpolation:linearRGB; stroke:rgb(38,38,38); stroke-width:0.6667;"
    ><line y2="45" style="fill:none;" x1="104" x2="104" y1="534"
      /><line y2="45" style="fill:none;" x1="724" x2="724" y1="534"
      /><line y2="534" style="fill:none;" x1="104" x2="110.2" y1="534"
      /><line y2="464.1429" style="fill:none;" x1="104" x2="110.2" y1="464.1429"
      /><line y2="394.2857" style="fill:none;" x1="104" x2="110.2" y1="394.2857"
      /><line y2="324.4286" style="fill:none;" x1="104" x2="110.2" y1="324.4286"
      /><line y2="254.5714" style="fill:none;" x1="104" x2="110.2" y1="254.5714"
      /><line y2="184.7143" style="fill:none;" x1="104" x2="110.2" y1="184.7143"
      /><line y2="114.8572" style="fill:none;" x1="104" x2="110.2" y1="114.8572"
      /><line y2="45" style="fill:none;" x1="104" x2="110.2" y1="45"
      /><line y2="534" style="fill:none;" x1="724" x2="717.8" y1="534"
      /><line y2="464.1429" style="fill:none;" x1="724" x2="717.8" y1="464.1429"
      /><line y2="394.2857" style="fill:none;" x1="724" x2="717.8" y1="394.2857"
      /><line y2="324.4286" style="fill:none;" x1="724" x2="717.8" y1="324.4286"
      /><line y2="254.5714" style="fill:none;" x1="724" x2="717.8" y1="254.5714"
      /><line y2="184.7143" style="fill:none;" x1="724" x2="717.8" y1="184.7143"
      /><line y2="114.8572" style="fill:none;" x1="724" x2="717.8" y1="114.8572"
      /><line y2="45" style="fill:none;" x1="724" x2="717.8" y1="45"
    /></g
    ><g transform="translate(98.6667,534)" style="font-size:13px; fill:rgb(38,38,38); text-rendering:geometricPrecision; color-rendering:optimizeQuality; image-rendering:optimizeQuality; font-family:'SansSerif'; color-interpolation:linearRGB; stroke:rgb(38,38,38);"
    ><text x="-9" xml:space="preserve" y="4.5" style="stroke:none;"
      >0</text
    ></g
    ><g transform="translate(98.6667,464.1429)" style="font-size:13px; fill:rgb(38,38,38); text-rendering:geometricPrecision; color-rendering:optimizeQuality; image-rendering:optimizeQuality; font-family:'SansSerif'; color-interpolation:linearRGB; stroke:rgb(38,38,38);"
    ><text x="-29" xml:space="preserve" y="4.5" style="stroke:none;"
      >0.01</text
    ></g
    ><g transform="translate(98.6667,394.2857)" style="font-size:13px; fill:rgb(38,38,38); text-rendering:geometricPrecision; color-rendering:optimizeQuality; image-rendering:optimizeQuality; font-family:'SansSerif'; color-interpolation:linearRGB; stroke:rgb(38,38,38);"
    ><text x="-29" xml:space="preserve" y="4.5" style="stroke:none;"
      >0.02</text
    ></g
    ><g transform="translate(98.6667,324.4286)" style="font-size:13px; fill:rgb(38,38,38); text-rendering:geometricPrecision; color-rendering:optimizeQuality; image-rendering:optimizeQuality; font-family:'SansSerif'; color-interpolation:linearRGB; stroke:rgb(38,38,38);"
    ><text x="-29" xml:space="preserve" y="4.5" style="stroke:none;"
      >0.03</text
    ></g
    ><g transform="translate(98.6667,254.5714)" style="font-size:13px; fill:rgb(38,38,38); text-rendering:geometricPrecision; color-rendering:optimizeQuality; image-rendering:optimizeQuality; font-family:'SansSerif'; color-interpolation:linearRGB; stroke:rgb(38,38,38);"
    ><text x="-29" xml:space="preserve" y="4.5" style="stroke:none;"
      >0.04</text
    ></g
    ><g transform="translate(98.6667,184.7143)" style="font-size:13px; fill:rgb(38,38,38); text-rendering:geometricPrecision; color-rendering:optimizeQuality; image-rendering:optimizeQuality; font-family:'SansSerif'; color-interpolation:linearRGB; stroke:rgb(38,38,38);"
    ><text x="-29" xml:space="preserve" y="4.5" style="stroke:none;"
      >0.05</text
    ></g
    ><g transform="translate(98.6667,114.8572)" style="font-size:13px; fill:rgb(38,38,38); text-rendering:geometricPrecision; color-rendering:optimizeQuality; image-rendering:optimizeQuality; font-family:'SansSerif'; color-interpolation:linearRGB; stroke:rgb(38,38,38);"
    ><text x="-29" xml:space="preserve" y="4.5" style="stroke:none;"
      >0.06</text
    ></g
    ><g transform="translate(98.6667,45)" style="font-size:13px; fill:rgb(38,38,38); text-rendering:geometricPrecision; color-rendering:optimizeQuality; image-rendering:optimizeQuality; font-family:'SansSerif'; color-interpolation:linearRGB; stroke:rgb(38,38,38);"
    ><text x="-29" xml:space="preserve" y="4.5" style="stroke:none;"
      >0.07</text
    ></g
    ><g transform="translate(65.6667,289.4998) rotate(-90)" style="font-size:15px; fill:rgb(38,38,38); text-rendering:geometricPrecision; color-rendering:optimizeQuality; image-rendering:optimizeQuality; font-family:'SansSerif'; color-interpolation:linearRGB; stroke:rgb(38,38,38);"
    ><text x="-126.5" xml:space="preserve" y="-4" style="stroke:none;"
      >number of elements in memmory</text
    ></g
    ><g transform="translate(414.0004,42.25)" style="font-size:15px; text-rendering:geometricPrecision; color-rendering:optimizeQuality; image-rendering:optimizeQuality; font-family:'SansSerif'; color-interpolation:linearRGB; font-weight:bold;"
    ><text x="-64.5" xml:space="preserve" y="-4" style="stroke:none;"
      >clustering time</text
    ></g
    ><g style="stroke-linecap:butt; fill:rgb(0,114,189); text-rendering:geometricPrecision; color-rendering:optimizeQuality; image-rendering:optimizeQuality; stroke-linejoin:round; color-interpolation:linearRGB; stroke:rgb(0,114,189); stroke-width:1.3333;"
    ><path d="M105.0333 505.0582 L106.0667 343.4996 L107.1 435.6062 L108.1333 425.2115 L109.1667 451.7781 L110.2 417.9603 L111.2333 519.1414 L112.2667 520.9856 L113.3 521.0695 L114.3333 521.3419 L115.3667 475.8649 L116.4 440.5242 L117.4333 515.9559 L118.4667 516.892 L119.5 517.87 L120.5333 519.5885 L121.5667 519.7771 L122.6 519.316 L123.6333 521.272 L124.6667 521.8239 L125.7 521.4187 L126.7333 520.8319 L127.7667 521.2092 L128.8 522.3478 L129.8333 522.8019 L130.8667 522.5295 L131.9 522.2291 L132.9333 521.6003 L133.9667 521.3209 L135 521.5794 L136.0333 521.3349 L137.0667 497.325 L138.1 520.6922 L139.1333 520.825 L140.1667 520.2731 L141.2 520.5455 L142.2333 519.2601 L143.2667 519.9657 L144.3 520.308 L145.3333 519.798 L146.3667 521.4187 L147.4 521.4746 L148.4333 522.8857 L149.4667 523.0674 L150.5 522.7181 L151.5333 520.1263 L152.5667 507.9852 L153.6 519.337 L154.6333 515.914 L155.6667 516.871 L156.7 510.7865 L157.7333 511.6178 L158.7667 515.893 L159.8 509.8504 L160.8333 499.3089 L161.8667 513.3223 L162.9 508.6418 L163.9333 509.0191 L164.9667 513.6576 L166 506.5601 L167.0333 505.652 L168.0667 506.9024 L169.1 508.097 L170.1333 509.5081 L171.1667 508.6698 L172.2 508.0271 L173.2333 508.7466 L174.2667 513.0149 L175.3 507.0631 L176.3333 505.9384 L177.3667 504.0522 L178.4 505.8615 L179.4333 511.6317 L180.4667 504.6181 L181.5 504.4225 L182.5333 503.1231 L183.5667 511.2126 L184.6 503.6541 L185.6333 510.7236 L186.6667 502.6621 L187.7 508.8864 L188.7333 504.0872 L189.7667 505.7567 L190.8 503.1511 L191.8333 503.2768 L192.8667 501.8657 L193.9 499.274 L194.9333 498.303 L195.9667 499.791 L197 497.7441 L198.0333 498.5754 L199.0667 486.1967 L200.1 495.5855 L201.1333 498.1982 L202.1667 497.2831 L203.2 507.2377 L204.2333 496.2282 L205.2667 496.4867 L206.3 498.7641 L207.3333 499.4556 L208.3667 495.7812 L209.4 491.8133 L210.4333 485.6449 L211.4667 487.9991 L212.5 484.2128 L213.5333 452.4697 L214.5667 480.8247 L215.6 485.4772 L216.6333 488.027 L217.6667 491.8272 L218.7 491.6875 L219.7333 433.1263 L220.7667 500.1193 L221.8 491.2963 L222.8333 489.3683 L223.8667 492.1765 L224.9 489.2775 L225.9333 491.5827 L226.9667 487.3424 L228 490.3323 L229.0333 493.0567 L230.0667 488.0759 L231.1 483.3256 L232.1333 480.3707 L233.1667 484.1639 L234.2 462.2986 L235.2333 483.3885 L236.2667 483.0392 L237.3 481.677 L238.3333 483.6819 L239.3667 486.0081 L240.4 487.7406 L241.4333 486.4063 L242.4667 486.4203 L243.5 485.7008 L244.5333 487.5171 L245.5667 488.2715 L246.6 490.6537 L247.6333 485.9942 L248.6667 485.603 L249.7 484.0941 L250.7333 485.4283 L251.7667 485.9453 L252.8 490.3393 L253.8333 487.4961 L254.8667 488.1947 L255.9 487.063 L256.9333 487.8105 L257.9667 486.8045 L259 485.61 L260.0333 485.2956 L261.0667 489.3403 L262.1 490.7864 L263.1333 492.8821 L264.1667 491.5408 L265.2 489.2495 L266.2333 483.8216 L267.2667 486.6858 L268.3 488.0689 L269.3333 489.0888 L270.3667 487.8663 L271.4 487.07 L272.4333 488.2017 L273.4667 486.3434 L274.5 489.012 L275.5333 488.4042 L276.5667 492.8751 L277.6 487.9153 L278.6333 475.3899 L279.6667 483.7867 L280.7 481.698 L281.7333 481.9005 L282.7667 480.9225 L283.8 484.7088 L284.8333 484.5341 L285.8667 486.3365 L286.9 483.3885 L287.9333 487.077 L288.9667 492.428 L290 486.4413 L291.0333 480.2798 L292.0667 475.6344 L293.1 486.1618 L294.1333 476.1722 L295.1667 491.9879 L296.2 474.7961 L297.2333 489.7455 L298.2667 468.5788 L299.3 462.4244 L300.3333 456.256 L301.3667 452.6933 L302.4 454.6842 L303.4333 459.0154 L304.4667 452.6863 L305.5 452.2392 L306.5333 451.8829 L307.5667 455.4177 L308.6 452.9797 L309.6333 449.4938 L310.6667 457.0943 L311.7 454.9986 L312.7333 452.6793 L313.7667 454.6353 L314.8 453.4757 L315.8333 453.5804 L316.8667 455.5225 L317.9 469.7873 L318.9333 456.8358 L319.9667 463.8844 L321 453.4827 L322.0333 454.5724 L323.0667 452.2951 L324.1 442.9761 L325.1333 446.5039 L326.1667 442.7875 L327.2 450.3391 L328.2333 449.0188 L329.2667 483.0532 L330.3 439.5462 L331.3333 443.8703 L332.3667 375.2147 L333.4 425.9869 L334.4333 462.4314 L335.4667 451.9668 L336.5 453.2102 L337.5333 467.8802 L338.5667 467.0908 L339.6 489.8014 L340.6333 461.3206 L341.6667 461.1809 L342.7 457.1082 L343.7333 453.3709 L344.7667 453.6852 L345.8 436.8148 L346.8333 380.9989 L347.8667 433.769 L348.9 449.4799 L349.9333 448.7324 L350.9667 451.7432 L352 449.6615 L353.0333 451.4428 L354.0667 437.8556 L355.1 451.1215 L356.1333 452.8539 L357.1667 450.1155 L358.2 456.5075 L359.2333 458.0304 L360.2667 455.5644 L361.3 405.0228 L362.3333 452.33 L363.3667 443.1857 L364.4 455.8369 L365.4333 448.5368 L366.4667 460.0352 L367.5 454.1882 L368.5333 456.9406 L369.5667 453.9716 L370.6 445.7076 L371.6333 451.2682 L372.6667 458.0862 L373.7 419.7277 L374.7333 456.5983 L375.7667 452.4907 L376.8 461.7048 L377.8333 459.7419 L378.8667 485.596 L379.9 467.2166 L380.9333 450.5486 L381.9667 449.0537 L383 469.3053 L384.0333 440.3216 L385.0667 474.356 L386.1 436.2209 L387.1333 437.6949 L388.1667 437.7508 L389.2 440.8385 L390.2333 436.4096 L391.2667 436.5353 L392.3 471.5896 L393.3333 431.4986 L394.3667 468.0479 L395.4 432.8469 L396.4333 432.274 L397.4667 450.849 L398.5 435.4106 L399.5333 436.193 L400.5667 443.2556 L401.6 420.4333 L402.6333 439.5881 L403.6667 419.2457 L404.7 418.128 L405.7333 405.5187 L406.7667 406.378 L407.8 415.2219 L408.8333 404.0098 L409.8667 422.6687 L410.9 412.6162 L411.9333 409.9128 L412.9667 386.6503 L414 415.4734 L415.0333 413.9715 L416.0667 433.5454 L417.1 416.9683 L418.1333 411.1841 L419.1667 420.6568 L420.2 396.9752 L421.2333 395.627 L422.2667 301.9695 L423.3 389.5773 L424.3333 398.4562 L425.3667 388.7041 L426.4 399.993 L427.4333 405.8261 L428.4667 426.4899 L429.5 395.9273 L430.5333 421.7256 L431.5667 401.1038 L432.6 402.6895 L433.6333 400.517 L434.6667 404.1425 L435.7 408.3689 L436.7333 408.1733 L437.7667 408.4388 L438.8 414.7259 L439.8333 402.438 L440.8667 411.764 L441.9 410.6113 L442.9333 419.6369 L443.9667 414.9006 L445 425.9799 L446.0333 407.6983 L447.0667 398.5121 L448.1 385.5605 L449.1333 398.4492 L450.1667 390.0803 L451.2 425.4769 L452.2333 404.7922 L453.2667 423.9401 L454.3 405.1345 L455.3333 425.952 L456.3667 393.664 L457.4 427.9149 L458.4333 399.1129 L459.4667 404.7084 L460.5 427.7123 L461.5333 405.4279 L462.5667 411.3099 L463.6 411.6732 L464.6333 409.9756 L465.6667 411.3867 L466.7 410.9327 L467.7333 409.5914 L468.7667 409.0046 L469.8 408.9208 L470.8333 406.2173 L471.8667 415.1031 L472.9 414.8097 L473.9333 415.1171 L474.9667 408.9906 L476 399.7975 L477.0333 395.1869 L478.0667 387.2022 L479.1 401.7255 L480.1333 394.3416 L481.1667 406.0078 L482.2 404.3102 L483.2333 408.1035 L484.2667 400.1677 L485.3 409.5705 L486.3333 403.9889 L487.3667 398.568 L488.4 408.2292 L489.4333 404.2334 L490.4667 374.8026 L491.5 355.9272 L492.5333 374.9632 L493.5667 376.5699 L494.6 359.448 L495.6333 355.3962 L496.6667 356.5209 L497.7 356.507 L498.7333 357.7923 L499.7667 356.6118 L500.8 356.1856 L501.8333 354.4392 L502.8667 353.9781 L503.9 355.7455 L504.9333 285.6928 L505.9667 449.878 L507 278.1692 L508.0333 281.2988 L509.0667 394.2019 L510.1 340.6564 L511.1333 399.511 L512.1667 400.1048 L513.2 326.8666 L514.2333 393.8596 L515.2667 404.9599 L516.3 395.7807 L517.3333 380.0558 L518.3666 389.5284 L519.4 384.0516 L520.4333 375.3893 L521.4667 391.0932 L522.5 376.3953 L523.5333 389.9057 L524.5667 388.0475 L525.6 394.6699 L526.6334 394.4813 L527.6667 411.9596 L528.7 397.9043 L529.7333 399.2805 L530.7667 283.0242 L531.8 388.6902 L532.8333 307.7257 L533.8666 385.7212 L534.9 322.9057 L535.9333 396.7726 L536.9667 331.6867 L538 387.0625 L539.0333 297.0725 L540.0667 424.3662 L541.1 313.3842 L542.1334 260.3067 L543.1667 335.4241 L544.2 422.3613 L545.2333 307.9004 L546.2667 385.6444 L547.3 312.7484 L548.3333 310.7226 L549.3666 417.8555 L550.4 311.7495 L551.4333 343.1573 L552.4667 334.7046 L553.5 347.0553 L554.5333 344.8199 L555.5667 335.6965 L556.6 337.6945 L557.6334 338.9309 L558.6667 339.5317 L559.7 326.8317 L560.7333 315.5078 L561.7667 314.5298 L562.8 331.6099 L563.8333 337.8272 L564.8666 335.1447 L565.9 347.9006 L566.9333 334.0828 L567.9667 374.4812 L569 356.1717 L570.0333 370.1012 L571.0667 355.4102 L572.1 370.5273 L573.1334 348.6411 L574.1667 368.4875 L575.2 336.1436 L576.2333 374.104 L577.2667 334.7185 L578.3 372.7487 L579.3333 354.3134 L580.3666 376.6887 L581.4 353.5171 L582.4333 381.5996 L583.4667 363.5276 L584.5 380.3143 L585.5333 352.6369 L586.5667 381.7254 L587.6 349.9823 L588.6334 381.2713 L589.6667 354.9282 L590.7 381.8861 L591.7333 362.0117 L592.7667 357.6736 L593.8 347.6421 L594.8333 338.393 L595.8666 335.7664 L596.9 347.0693 L597.9333 345.3717 L598.9667 341.2502 L600 345.9865 L601.0333 346.3218 L602.0667 349.5283 L603.1 347.6351 L604.1334 347.6561 L605.1667 350.0871 L606.2 363.1853 L607.2333 354.2785 L608.2667 361.8091 L609.3 347.4675 L610.3333 363.2063 L611.3666 348.2638 L612.4 350.7298 L613.4333 347.4325 L614.4667 349.1021 L615.5 336.2274 L616.5333 344.9037 L617.5667 338.3092 L618.6 335.7664 L619.6334 346.0493 L620.6667 342.8918 L621.7 357.967 L622.7333 348.7179 L623.7667 362.4588 L624.8 346.9156 L625.8333 361.9069 L626.8666 343.0245 L627.9 361.7812 L628.9333 347.7119 L629.9667 337.6735 L631 355.1937 L632.0333 360.3142 L633.0667 361.7113 L634.1 351.0791 L635.1334 354.7675 L636.1667 346.2799 L637.2 358.0648 L638.2333 352.6508 L639.2667 357.6945 L640.3 356.6676 L641.3333 286.1608 L642.3666 253.6493 L643.4 174.4034 L644.4333 261.3057 L645.4667 267.8373 L646.5 209.9187 L647.5333 233.0275 L648.5667 56.1142 L649.6 219.8315 L650.6334 202.2484 L651.6667 151.6649 L652.7 166.8169 L653.7333 295.5706 L654.7667 292.427 L655.8 282.7937 L656.8333 285.7626 L657.8666 250.6734 L658.9 240.621 L659.9333 241.3754 L660.9667 398.1628 L662 226.0488 L663.0333 199.3493 L664.0667 223.6736 L665.1 228.389 L666.1334 255.9127 L667.1667 237.7778 L668.2 228.4309 L669.2333 323.7789 L670.2667 321.5016 L671.3 319.0565 L672.3333 324.7499 L673.3666 318.6653 L674.4 330.2896 L675.4333 327.649 L676.4667 320.3978 L677.5 317.5197 L678.5333 313.9011 L679.5667 313.9011 L680.6 304.6241 L681.6334 312.6786 L682.6667 314.3691 L683.7 306.3914 L684.7333 312.9999 L685.7667 324.1491 L686.8 316.4928 L687.8333 313.7335 L688.8666 321.5784 L689.9 337.4709 L690.9333 313.0349 L691.9667 309.8424 L693 309.4372 L694.0333 293.4749 L695.0667 296.8769 L696.1 292.3362 L697.1334 282.9614 L698.1667 280.6631 L699.2 286.2377 L700.2333 309.7935 L701.2667 306.7477 L702.3 384.2612 L703.3333 287.3205 L704.3666 278.3717 L705.4 272.2034 L706.4333 272.9369 L707.4667 272.0776 L708.5 263.4992 L709.5333 283.9044 L710.5667 279.713 L711.6 234.3548 L712.6334 244.4142 L713.6667 243.6947 L714.7 262.4723 L715.7333 260.2578 L716.7667 275.347 L717.8 249.7932" style="fill:none; fill-rule:evenodd;"
    /></g
  ></g
></svg
>
