<?xml version="1.0"?>
<!DOCTYPE svg PUBLIC '-//W3C//DTD SVG 1.0//EN'
          'http://www.w3.org/TR/2001/REC-SVG-20010904/DTD/svg10.dtd'>
<svg xmlns:xlink="http://www.w3.org/1999/xlink" style="fill-opacity:1; color-rendering:auto; color-interpolation:auto; stroke:black; text-rendering:auto; stroke-linecap:square; stroke-miterlimit:10; stroke-opacity:1; shape-rendering:auto; fill:black; stroke-dasharray:none; font-weight:normal; stroke-width:1; font-family:'Dialog'; font-style:normal; stroke-linejoin:miter; font-size:12px; stroke-dashoffset:0; image-rendering:auto;" width="560" height="420" xmlns="http://www.w3.org/2000/svg"
><!--Generated by the Batik Graphics2D SVG Generator--><defs id="genericDefs"
  /><g
  ><defs id="defs1"
    ><clipPath clipPathUnits="userSpaceOnUse" id="clipPath1"
      ><path d="M0 0 L560 0 L560 420 L0 420 L0 0 Z"
      /></clipPath
      ><font horiz-adv-x="60.009766" id="font1"
      ><font-face ascent="92.822266" descent="23.583984" units-per-em="100" style="font-style:normal; font-family:SansSerif; font-weight:normal;"
        /><missing-glyph horiz-adv-x="60.009766" d="M4.9844 -17.6719 L4.9844 70.5156 L54.9844 70.5156 L54.9844 -17.6719 L4.9844 -17.6719 ZM10.5938 -12.1094 L49.4219 -12.1094 L49.4219 64.8906 L10.5938 64.8906 L10.5938 -12.1094 Z"
        /><glyph unicode="0" horiz-adv-x="63.623047" d="M31.7812 66.4062 Q24.1719 66.4062 20.3359 58.9141 Q16.5 51.4219 16.5 36.375 Q16.5 21.3906 20.3359 13.8906 Q24.1719 6.3906 31.7812 6.3906 Q39.4531 6.3906 43.2891 13.8906 Q47.125 21.3906 47.125 36.375 Q47.125 51.4219 43.2891 58.9141 Q39.4531 66.4062 31.7812 66.4062 ZM31.7812 74.2188 Q44.0469 74.2188 50.5156 64.5234 Q56.9844 54.8281 56.9844 36.375 Q56.9844 17.9688 50.5156 8.2734 Q44.0469 -1.4219 31.7812 -1.4219 Q19.5312 -1.4219 13.0625 8.2734 Q6.5938 17.9688 6.5938 36.375 Q6.5938 54.8281 13.0625 64.5234 Q19.5312 74.2188 31.7812 74.2188 Z"
        /><glyph unicode="5" horiz-adv-x="63.623047" d="M10.7969 72.9062 L49.5156 72.9062 L49.5156 64.5938 L19.8281 64.5938 L19.8281 46.7344 Q21.9688 47.4688 24.1172 47.8281 Q26.2656 48.1875 28.4219 48.1875 Q40.625 48.1875 47.7578 41.5 Q54.8906 34.8125 54.8906 23.3906 Q54.8906 11.625 47.5625 5.1016 Q40.2344 -1.4219 26.9062 -1.4219 Q22.3125 -1.4219 17.5547 -0.6406 Q12.7969 0.1406 7.7188 1.7031 L7.7188 11.625 Q12.1094 9.2344 16.7969 8.0625 Q21.4844 6.8906 26.7031 6.8906 Q35.1562 6.8906 40.0859 11.3281 Q45.0156 15.7656 45.0156 23.3906 Q45.0156 31 40.0859 35.4453 Q35.1562 39.8906 26.7031 39.8906 Q22.75 39.8906 18.8203 39.0156 Q14.8906 38.1406 10.7969 36.2812 L10.7969 72.9062 Z"
        /><glyph unicode="1" horiz-adv-x="63.623047" d="M12.4062 8.2969 L28.5156 8.2969 L28.5156 63.9219 L10.9844 60.4062 L10.9844 69.3906 L28.4219 72.9062 L38.2812 72.9062 L38.2812 8.2969 L54.3906 8.2969 L54.3906 0 L12.4062 0 L12.4062 8.2969 Z"
        /><glyph unicode="2" horiz-adv-x="63.623047" d="M19.1875 8.2969 L53.6094 8.2969 L53.6094 0 L7.3281 0 L7.3281 8.2969 Q12.9375 14.1094 22.6328 23.8984 Q32.3281 33.6875 34.8125 36.5312 Q39.5469 41.8438 41.4297 45.5312 Q43.3125 49.2188 43.3125 52.7812 Q43.3125 58.5938 39.2344 62.2578 Q35.1562 65.9219 28.6094 65.9219 Q23.9688 65.9219 18.8203 64.3125 Q13.6719 62.7031 7.8125 59.4219 L7.8125 69.3906 Q13.7656 71.7812 18.9453 73 Q24.125 74.2188 28.4219 74.2188 Q39.75 74.2188 46.4844 68.5547 Q53.2188 62.8906 53.2188 53.4219 Q53.2188 48.9219 51.5391 44.8984 Q49.8594 40.875 45.4062 35.4062 Q44.1875 33.9844 37.6484 27.2188 Q31.1094 20.4531 19.1875 8.2969 Z"
        /><glyph unicode="3" horiz-adv-x="63.623047" d="M40.5781 39.3125 Q47.6562 37.7969 51.6328 33.0078 Q55.6094 28.2188 55.6094 21.1875 Q55.6094 10.4062 48.1875 4.4922 Q40.7656 -1.4219 27.0938 -1.4219 Q22.5156 -1.4219 17.6562 -0.5156 Q12.7969 0.3906 7.625 2.2031 L7.625 11.7188 Q11.7188 9.3281 16.6016 8.1094 Q21.4844 6.8906 26.8125 6.8906 Q36.0781 6.8906 40.9375 10.5469 Q45.7969 14.2031 45.7969 21.1875 Q45.7969 27.6406 41.2812 31.2734 Q36.7656 34.9062 28.7188 34.9062 L20.2188 34.9062 L20.2188 43.0156 L29.1094 43.0156 Q36.375 43.0156 40.2344 45.9219 Q44.0938 48.8281 44.0938 54.2969 Q44.0938 59.9062 40.1172 62.9141 Q36.1406 65.9219 28.7188 65.9219 Q24.6562 65.9219 20.0156 65.0391 Q15.375 64.1562 9.8125 62.3125 L9.8125 71.0938 Q15.4375 72.6562 20.3438 73.4375 Q25.25 74.2188 29.5938 74.2188 Q40.8281 74.2188 47.3672 69.1172 Q53.9062 64.0156 53.9062 55.3281 Q53.9062 49.2656 50.4375 45.0938 Q46.9688 40.9219 40.5781 39.3125 Z"
        /><glyph unicode="4" horiz-adv-x="63.623047" d="M37.7969 64.3125 L12.8906 25.3906 L37.7969 25.3906 L37.7969 64.3125 ZM35.2031 72.9062 L47.6094 72.9062 L47.6094 25.3906 L58.0156 25.3906 L58.0156 17.1875 L47.6094 17.1875 L47.6094 0 L37.7969 0 L37.7969 17.1875 L4.8906 17.1875 L4.8906 26.7031 L35.2031 72.9062 Z"
        /><glyph unicode="n" horiz-adv-x="63.378906" d="M54.8906 33.0156 L54.8906 0 L45.9062 0 L45.9062 32.7188 Q45.9062 40.4844 42.875 44.3359 Q39.8438 48.1875 33.7969 48.1875 Q26.5156 48.1875 22.3125 43.5547 Q18.1094 38.9219 18.1094 30.9062 L18.1094 0 L9.0781 0 L9.0781 54.6875 L18.1094 54.6875 L18.1094 46.1875 Q21.3438 51.125 25.7109 53.5625 Q30.0781 56 35.7969 56 Q45.2188 56 50.0547 50.1719 Q54.8906 44.3438 54.8906 33.0156 Z"
        /><glyph unicode=" " horiz-adv-x="31.78711" d=""
        /><glyph unicode="p" horiz-adv-x="63.476562" d="M18.1094 8.2031 L18.1094 -20.7969 L9.0781 -20.7969 L9.0781 54.6875 L18.1094 54.6875 L18.1094 46.3906 Q20.9531 51.2656 25.2734 53.6328 Q29.5938 56 35.5938 56 Q45.5625 56 51.7891 48.0938 Q58.0156 40.1875 58.0156 27.2969 Q58.0156 14.4062 51.7891 6.4922 Q45.5625 -1.4219 35.5938 -1.4219 Q29.5938 -1.4219 25.2734 0.9531 Q20.9531 3.3281 18.1094 8.2031 ZM48.6875 27.2969 Q48.6875 37.2031 44.6094 42.8438 Q40.5312 48.4844 33.4062 48.4844 Q26.2656 48.4844 22.1875 42.8438 Q18.1094 37.2031 18.1094 27.2969 Q18.1094 17.3906 22.1875 11.75 Q26.2656 6.1094 33.4062 6.1094 Q40.5312 6.1094 44.6094 11.75 Q48.6875 17.3906 48.6875 27.2969 Z"
        /><glyph unicode="u" horiz-adv-x="63.378906" d="M8.5 21.5781 L8.5 54.6875 L17.4844 54.6875 L17.4844 21.9219 Q17.4844 14.1562 20.5078 10.2734 Q23.5312 6.3906 29.5938 6.3906 Q36.8594 6.3906 41.0859 11.0312 Q45.3125 15.6719 45.3125 23.6875 L45.3125 54.6875 L54.2969 54.6875 L54.2969 0 L45.3125 0 L45.3125 8.4062 Q42.0469 3.4219 37.7266 1 Q33.4062 -1.4219 27.6875 -1.4219 Q18.2656 -1.4219 13.3828 4.4375 Q8.5 10.2969 8.5 21.5781 Z"
        /><glyph unicode="o" horiz-adv-x="61.18164" d="M30.6094 48.3906 Q23.3906 48.3906 19.1875 42.75 Q14.9844 37.1094 14.9844 27.2969 Q14.9844 17.4844 19.1641 11.8438 Q23.3438 6.2031 30.6094 6.2031 Q37.7969 6.2031 41.9922 11.8672 Q46.1875 17.5312 46.1875 27.2969 Q46.1875 37.0156 41.9922 42.7031 Q37.7969 48.3906 30.6094 48.3906 ZM30.6094 56 Q42.3281 56 49.0234 48.3828 Q55.7188 40.7656 55.7188 27.2969 Q55.7188 13.875 49.0234 6.2266 Q42.3281 -1.4219 30.6094 -1.4219 Q18.8438 -1.4219 12.1797 6.2266 Q5.5156 13.875 5.5156 27.2969 Q5.5156 40.7656 12.1797 48.3828 Q18.8438 56 30.6094 56 Z"
        /><glyph unicode="r" horiz-adv-x="41.11328" d="M41.1094 46.2969 Q39.5938 47.1719 37.8125 47.5859 Q36.0312 48 33.8906 48 Q26.2656 48 22.1875 43.0469 Q18.1094 38.0938 18.1094 28.8125 L18.1094 0 L9.0781 0 L9.0781 54.6875 L18.1094 54.6875 L18.1094 46.1875 Q20.9531 51.1719 25.4922 53.5859 Q30.0312 56 36.5312 56 Q37.4531 56 38.5781 55.8828 Q39.7031 55.7656 41.0625 55.5156 L41.1094 46.2969 Z"
        /><glyph unicode="g" horiz-adv-x="63.476562" d="M45.4062 27.9844 Q45.4062 37.75 41.3828 43.1172 Q37.3594 48.4844 30.0781 48.4844 Q22.8594 48.4844 18.8281 43.1172 Q14.7969 37.75 14.7969 27.9844 Q14.7969 18.2656 18.8281 12.8906 Q22.8594 7.5156 30.0781 7.5156 Q37.3594 7.5156 41.3828 12.8906 Q45.4062 18.2656 45.4062 27.9844 ZM54.3906 6.7812 Q54.3906 -7.1719 48.1953 -13.9844 Q42 -20.7969 29.2031 -20.7969 Q24.4688 -20.7969 20.2656 -20.0938 Q16.0625 -19.3906 12.1094 -17.9219 L12.1094 -9.1875 Q16.0625 -11.3281 19.9219 -12.3516 Q23.7812 -13.375 27.7812 -13.375 Q36.625 -13.375 41.0156 -8.7656 Q45.4062 -4.1562 45.4062 5.1719 L45.4062 9.625 Q42.625 4.7812 38.2812 2.3906 Q33.9375 0 27.875 0 Q17.8281 0 11.6719 7.6641 Q5.5156 15.3281 5.5156 27.9844 Q5.5156 40.6719 11.6719 48.3359 Q17.8281 56 27.875 56 Q33.9375 56 38.2812 53.6094 Q42.625 51.2188 45.4062 46.3906 L45.4062 54.6875 L54.3906 54.6875 L54.3906 6.7812 Z"
        /><glyph unicode="-" horiz-adv-x="36.083984" d="M4.8906 31.3906 L31.2031 31.3906 L31.2031 23.3906 L4.8906 23.3906 L4.8906 31.3906 Z"
        /><glyph unicode="8" horiz-adv-x="63.623047" d="M31.7812 34.625 Q24.75 34.625 20.7266 30.8594 Q16.7031 27.0938 16.7031 20.5156 Q16.7031 13.9219 20.7266 10.1562 Q24.75 6.3906 31.7812 6.3906 Q38.8125 6.3906 42.8672 10.1797 Q46.9219 13.9688 46.9219 20.5156 Q46.9219 27.0938 42.8984 30.8594 Q38.875 34.625 31.7812 34.625 ZM21.9219 38.8125 Q15.5781 40.375 12.0391 44.7266 Q8.5 49.0781 8.5 55.3281 Q8.5 64.0625 14.7266 69.1406 Q20.9531 74.2188 31.7812 74.2188 Q42.6719 74.2188 48.875 69.1406 Q55.0781 64.0625 55.0781 55.3281 Q55.0781 49.0781 51.5391 44.7266 Q48 40.375 41.7031 38.8125 Q48.8281 37.1562 52.8047 32.3203 Q56.7812 27.4844 56.7812 20.5156 Q56.7812 9.9062 50.3125 4.2422 Q43.8438 -1.4219 31.7812 -1.4219 Q19.7344 -1.4219 13.2578 4.2422 Q6.7812 9.9062 6.7812 20.5156 Q6.7812 27.4844 10.7891 32.3203 Q14.7969 37.1562 21.9219 38.8125 ZM18.3125 54.3906 Q18.3125 48.7344 21.8516 45.5625 Q25.3906 42.3906 31.7812 42.3906 Q38.1406 42.3906 41.7266 45.5625 Q45.3125 48.7344 45.3125 54.3906 Q45.3125 60.0625 41.7266 63.2344 Q38.1406 66.4062 31.7812 66.4062 Q25.3906 66.4062 21.8516 63.2344 Q18.3125 60.0625 18.3125 54.3906 Z"
        /><glyph unicode="6" horiz-adv-x="63.623047" d="M33.0156 40.375 Q26.375 40.375 22.4922 35.8359 Q18.6094 31.2969 18.6094 23.3906 Q18.6094 15.5312 22.4922 10.9609 Q26.375 6.3906 33.0156 6.3906 Q39.6562 6.3906 43.5312 10.9609 Q47.4062 15.5312 47.4062 23.3906 Q47.4062 31.2969 43.5312 35.8359 Q39.6562 40.375 33.0156 40.375 ZM52.5938 71.2969 L52.5938 62.3125 Q48.875 64.0625 45.0938 64.9922 Q41.3125 65.9219 37.5938 65.9219 Q27.8281 65.9219 22.6797 59.3281 Q17.5312 52.7344 16.7969 39.4062 Q19.6719 43.6562 24.0234 45.9219 Q28.375 48.1875 33.5938 48.1875 Q44.5781 48.1875 50.9531 41.5234 Q57.3281 34.8594 57.3281 23.3906 Q57.3281 12.1562 50.6875 5.3672 Q44.0469 -1.4219 33.0156 -1.4219 Q20.3594 -1.4219 13.6719 8.2734 Q6.9844 17.9688 6.9844 36.375 Q6.9844 53.6562 15.1875 63.9375 Q23.3906 74.2188 37.2031 74.2188 Q40.9219 74.2188 44.7031 73.4844 Q48.4844 72.75 52.5938 71.2969 Z"
        /><glyph unicode="e" horiz-adv-x="61.523438" d="M56.2031 29.5938 L56.2031 25.2031 L14.8906 25.2031 Q15.4844 15.9219 20.4844 11.0625 Q25.4844 6.2031 34.4219 6.2031 Q39.5938 6.2031 44.4531 7.4688 Q49.3125 8.7344 54.1094 11.2812 L54.1094 2.7812 Q49.2656 0.7344 44.1875 -0.3438 Q39.1094 -1.4219 33.8906 -1.4219 Q20.7969 -1.4219 13.1562 6.1953 Q5.5156 13.8125 5.5156 26.8125 Q5.5156 40.2344 12.7656 48.1172 Q20.0156 56 32.3281 56 Q43.3594 56 49.7812 48.8984 Q56.2031 41.7969 56.2031 29.5938 ZM47.2188 32.2344 Q47.125 39.5938 43.0938 43.9922 Q39.0625 48.3906 32.4219 48.3906 Q24.9062 48.3906 20.3906 44.1406 Q15.875 39.8906 15.1875 32.1719 L47.2188 32.2344 Z"
        /><glyph unicode="c" horiz-adv-x="54.98047" d="M48.7812 52.5938 L48.7812 44.1875 Q44.9688 46.2969 41.1406 47.3438 Q37.3125 48.3906 33.4062 48.3906 Q24.6562 48.3906 19.8203 42.8516 Q14.9844 37.3125 14.9844 27.2969 Q14.9844 17.2812 19.8203 11.7422 Q24.6562 6.2031 33.4062 6.2031 Q37.3125 6.2031 41.1406 7.25 Q44.9688 8.2969 48.7812 10.4062 L48.7812 2.0938 Q45.0156 0.3438 40.9922 -0.5391 Q36.9688 -1.4219 32.4219 -1.4219 Q20.0625 -1.4219 12.7891 6.3438 Q5.5156 14.1094 5.5156 27.2969 Q5.5156 40.6719 12.8672 48.3359 Q20.2188 56 33.0156 56 Q37.1562 56 41.1094 55.1484 Q45.0625 54.2969 48.7812 52.5938 Z"
        /><glyph unicode="a" horiz-adv-x="61.279297" d="M34.2812 27.4844 Q23.3906 27.4844 19.1875 25 Q14.9844 22.5156 14.9844 16.5 Q14.9844 11.7188 18.1406 8.9141 Q21.2969 6.1094 26.7031 6.1094 Q34.1875 6.1094 38.7031 11.4062 Q43.2188 16.7031 43.2188 25.4844 L43.2188 27.4844 L34.2812 27.4844 ZM52.2031 31.2031 L52.2031 0 L43.2188 0 L43.2188 8.2969 Q40.1406 3.3281 35.5469 0.9531 Q30.9531 -1.4219 24.3125 -1.4219 Q15.9219 -1.4219 10.9609 3.2969 Q6 8.0156 6 15.9219 Q6 25.1406 12.1797 29.8281 Q18.3594 34.5156 30.6094 34.5156 L43.2188 34.5156 L43.2188 35.4062 Q43.2188 41.6094 39.1406 45 Q35.0625 48.3906 27.6875 48.3906 Q23 48.3906 18.5547 47.2656 Q14.1094 46.1406 10.0156 43.8906 L10.0156 52.2031 Q14.9375 54.1094 19.5781 55.0547 Q24.2188 56 28.6094 56 Q40.4844 56 46.3438 49.8516 Q52.2031 43.7031 52.2031 31.2031 Z"
        /><glyph unicode="t" horiz-adv-x="39.208984" d="M18.3125 70.2188 L18.3125 54.6875 L36.8125 54.6875 L36.8125 47.7031 L18.3125 47.7031 L18.3125 18.0156 Q18.3125 11.3281 20.1406 9.4219 Q21.9688 7.5156 27.5938 7.5156 L36.8125 7.5156 L36.8125 0 L27.5938 0 Q17.1875 0 13.2344 3.8828 Q9.2812 7.7656 9.2812 18.0156 L9.2812 47.7031 L2.6875 47.7031 L2.6875 54.6875 L9.2812 54.6875 L9.2812 70.2188 L18.3125 70.2188 Z"
        /><glyph unicode="s" horiz-adv-x="52.09961" d="M44.2812 53.0781 L44.2812 44.5781 Q40.4844 46.5312 36.3828 47.5078 Q32.2812 48.4844 27.875 48.4844 Q21.1875 48.4844 17.8438 46.4375 Q14.5 44.3906 14.5 40.2812 Q14.5 37.1562 16.8906 35.375 Q19.2812 33.5938 26.5156 31.9844 L29.5938 31.2969 Q39.1562 29.25 43.1875 25.5156 Q47.2188 21.7812 47.2188 15.0938 Q47.2188 7.4688 41.1875 3.0234 Q35.1562 -1.4219 24.6094 -1.4219 Q20.2188 -1.4219 15.4531 -0.5625 Q10.6875 0.2969 5.4219 2 L5.4219 11.2812 Q10.4062 8.6875 15.2344 7.3984 Q20.0625 6.1094 24.8125 6.1094 Q31.1562 6.1094 34.5703 8.2812 Q37.9844 10.4531 37.9844 14.4062 Q37.9844 18.0625 35.5234 20.0156 Q33.0625 21.9688 24.7031 23.7812 L21.5781 24.5156 Q13.2344 26.2656 9.5234 29.9062 Q5.8125 33.5469 5.8125 39.8906 Q5.8125 47.6094 11.2812 51.8047 Q16.75 56 26.8125 56 Q31.7812 56 36.1797 55.2734 Q40.5781 54.5469 44.2812 53.0781 Z"
        /><glyph unicode="i" horiz-adv-x="27.783203" d="M9.4219 54.6875 L18.4062 54.6875 L18.4062 0 L9.4219 0 L9.4219 54.6875 ZM9.4219 75.9844 L18.4062 75.9844 L18.4062 64.5938 L9.4219 64.5938 L9.4219 75.9844 Z"
        /><glyph unicode="d" horiz-adv-x="63.476562" d="M45.4062 46.3906 L45.4062 75.9844 L54.3906 75.9844 L54.3906 0 L45.4062 0 L45.4062 8.2031 Q42.5781 3.3281 38.2578 0.9531 Q33.9375 -1.4219 27.875 -1.4219 Q17.9688 -1.4219 11.7422 6.4922 Q5.5156 14.4062 5.5156 27.2969 Q5.5156 40.1875 11.7422 48.0938 Q17.9688 56 27.875 56 Q33.9375 56 38.2578 53.6328 Q42.5781 51.2656 45.4062 46.3906 ZM14.7969 27.2969 Q14.7969 17.3906 18.875 11.75 Q22.9531 6.1094 30.0781 6.1094 Q37.2031 6.1094 41.3047 11.75 Q45.4062 17.3906 45.4062 27.2969 Q45.4062 37.2031 41.3047 42.8438 Q37.2031 48.4844 30.0781 48.4844 Q22.9531 48.4844 18.875 42.8438 Q14.7969 37.2031 14.7969 27.2969 Z"
        /><glyph unicode="v" horiz-adv-x="59.179688" d="M2.9844 54.6875 L12.5 54.6875 L29.5938 8.7969 L46.6875 54.6875 L56.2031 54.6875 L35.6875 0 L23.4844 0 L2.9844 54.6875 Z"
      /></font
      ><font horiz-adv-x="60.009766" id="font2"
      ><font-face ascent="92.822266" descent="23.583984" units-per-em="100" style="font-style:normal; font-family:SansSerif; font-weight:bold;"
        /><missing-glyph horiz-adv-x="60.009766" d="M4.9844 -17.6719 L4.9844 70.5156 L54.9844 70.5156 L54.9844 -17.6719 L4.9844 -17.6719 ZM10.5938 -12.1094 L49.4219 -12.1094 L49.4219 64.8906 L10.5938 64.8906 L10.5938 -12.1094 Z"
        /><glyph unicode="m" horiz-adv-x="104.19922" d="M59.0781 45.6094 Q62.4062 50.6875 66.9688 53.3438 Q71.5312 56 77 56 Q86.4219 56 91.3594 50.1953 Q96.2969 44.3906 96.2969 33.2969 L96.2969 0 L78.7188 0 L78.7188 28.5156 Q78.7656 29.1562 78.7891 29.8359 Q78.8125 30.5156 78.8125 31.7812 Q78.8125 37.5938 77.1016 40.2109 Q75.3906 42.8281 71.5781 42.8281 Q66.6094 42.8281 63.8984 38.7266 Q61.1875 34.625 61.0781 26.8594 L61.0781 0 L43.5 0 L43.5 28.5156 Q43.5 37.5938 41.9375 40.2109 Q40.375 42.8281 36.375 42.8281 Q31.3438 42.8281 28.6094 38.7031 Q25.875 34.5781 25.875 26.9062 L25.875 0 L8.2969 0 L8.2969 54.6875 L25.875 54.6875 L25.875 46.6875 Q29.1094 51.3125 33.2812 53.6562 Q37.4531 56 42.4844 56 Q48.1406 56 52.4922 53.2656 Q56.8438 50.5312 59.0781 45.6094 Z"
        /><glyph unicode="l" horiz-adv-x="34.277344" d="M8.4062 75.9844 L25.875 75.9844 L25.875 0 L8.4062 0 L8.4062 75.9844 Z"
        /><glyph unicode="w" horiz-adv-x="92.38281" d="M3.5156 54.6875 L20.5156 54.6875 L29.6875 17 L38.9219 54.6875 L53.5156 54.6875 L62.7031 17.3906 L71.9219 54.6875 L88.9219 54.6875 L74.5156 0 L55.4219 0 L46.1875 37.5938 L37.0156 0 L17.9219 0 L3.5156 54.6875 Z"
        /><glyph unicode="b" horiz-adv-x="71.58203" d="M37.5 11.2812 Q43.1094 11.2812 46.0703 15.3828 Q49.0312 19.4844 49.0312 27.2969 Q49.0312 35.1094 46.0703 39.2109 Q43.1094 43.3125 37.5 43.3125 Q31.8906 43.3125 28.8828 39.1875 Q25.875 35.0625 25.875 27.2969 Q25.875 19.5312 28.8828 15.4062 Q31.8906 11.2812 37.5 11.2812 ZM25.875 46.6875 Q29.5 51.4688 33.8906 53.7344 Q38.2812 56 44 56 Q54.1094 56 60.6016 47.9688 Q67.0938 39.9375 67.0938 27.2969 Q67.0938 14.6562 60.6016 6.6172 Q54.1094 -1.4219 44 -1.4219 Q38.2812 -1.4219 33.8906 0.8516 Q29.5 3.125 25.875 7.9062 L25.875 0 L8.4062 0 L8.4062 75.9844 L25.875 75.9844 L25.875 46.6875 Z"
        /><glyph unicode=" " horiz-adv-x="34.814453" d=""
        /><glyph unicode="e" horiz-adv-x="67.822266" d="M62.9844 27.4844 L62.9844 22.5156 L22.125 22.5156 Q22.75 16.3594 26.5625 13.2812 Q30.375 10.2031 37.2031 10.2031 Q42.7188 10.2031 48.5078 11.8438 Q54.2969 13.4844 60.4062 16.7969 L60.4062 3.3281 Q54.2031 0.9844 48 -0.2188 Q41.7969 -1.4219 35.5938 -1.4219 Q20.75 -1.4219 12.5234 6.125 Q4.2969 13.6719 4.2969 27.2969 Q4.2969 40.6719 12.375 48.3359 Q20.4531 56 34.625 56 Q47.5156 56 55.25 48.2422 Q62.9844 40.4844 62.9844 27.4844 ZM45.0156 33.2969 Q45.0156 38.2812 42.1094 41.3359 Q39.2031 44.3906 34.5156 44.3906 Q29.4375 44.3906 26.2656 41.5312 Q23.0938 38.6719 22.3125 33.2969 L45.0156 33.2969 Z"
        /><glyph unicode="c" horiz-adv-x="59.277344" d="M52.5938 52.9844 L52.5938 38.7188 Q49.0312 41.1562 45.4375 42.3281 Q41.8438 43.5 37.9844 43.5 Q30.6719 43.5 26.5938 39.2344 Q22.5156 34.9688 22.5156 27.2969 Q22.5156 19.625 26.5938 15.3516 Q30.6719 11.0781 37.9844 11.0781 Q42.0938 11.0781 45.7812 12.3047 Q49.4688 13.5312 52.5938 15.9219 L52.5938 1.6094 Q48.4844 0.0938 44.2656 -0.6641 Q40.0469 -1.4219 35.7969 -1.4219 Q21 -1.4219 12.6484 6.1719 Q4.2969 13.7656 4.2969 27.2969 Q4.2969 40.8281 12.6484 48.4141 Q21 56 35.7969 56 Q40.0938 56 44.2656 55.25 Q48.4375 54.5 52.5938 52.9844 Z"
        /><glyph unicode="n" horiz-adv-x="71.19141" d="M63.375 33.2969 L63.375 0 L45.7969 0 L45.7969 5.4219 L45.7969 25.4844 Q45.7969 32.5625 45.4844 35.25 Q45.1719 37.9375 44.3906 39.2031 Q43.3594 40.9219 41.6016 41.875 Q39.8438 42.8281 37.5938 42.8281 Q32.125 42.8281 29 38.6016 Q25.875 34.375 25.875 26.9062 L25.875 0 L8.4062 0 L8.4062 54.6875 L25.875 54.6875 L25.875 46.6875 Q29.8281 51.4688 34.2734 53.7344 Q38.7188 56 44.0938 56 Q53.5625 56 58.4688 50.1953 Q63.375 44.3906 63.375 33.2969 Z"
        /><glyph unicode="a" horiz-adv-x="67.48047" d="M32.9062 24.6094 Q27.4375 24.6094 24.6797 22.7578 Q21.9219 20.9062 21.9219 17.2812 Q21.9219 13.9688 24.1484 12.0859 Q26.375 10.2031 30.3281 10.2031 Q35.25 10.2031 38.625 13.7422 Q42 17.2812 42 22.6094 L42 24.6094 L32.9062 24.6094 ZM59.625 31.2031 L59.625 0 L42 0 L42 8.1094 Q38.4844 3.125 34.0859 0.8516 Q29.6875 -1.4219 23.3906 -1.4219 Q14.8906 -1.4219 9.5938 3.5391 Q4.2969 8.5 4.2969 16.4062 Q4.2969 26.0312 10.9141 30.5234 Q17.5312 35.0156 31.6875 35.0156 L42 35.0156 L42 36.375 Q42 40.5312 38.7266 42.4609 Q35.4531 44.3906 28.5156 44.3906 Q22.9062 44.3906 18.0703 43.2656 Q13.2344 42.1406 9.0781 39.8906 L9.0781 53.2188 Q14.7031 54.5938 20.3672 55.2969 Q26.0312 56 31.6875 56 Q46.4844 56 53.0547 50.1719 Q59.625 44.3438 59.625 31.2031 Z"
        /><glyph unicode="t" horiz-adv-x="47.802734" d="M27.4844 70.2188 L27.4844 54.6875 L45.5156 54.6875 L45.5156 42.1875 L27.4844 42.1875 L27.4844 19 Q27.4844 15.1875 29 13.8438 Q30.5156 12.5 35.0156 12.5 L44 12.5 L44 0 L29 0 Q18.6562 0 14.3359 4.3203 Q10.0156 8.6406 10.0156 19 L10.0156 42.1875 L1.3125 42.1875 L1.3125 54.6875 L10.0156 54.6875 L10.0156 70.2188 L27.4844 70.2188 Z"
        /><glyph unicode="s" horiz-adv-x="59.521484" d="M51.125 52.9844 L51.125 39.7031 Q45.5156 42.0469 40.2891 43.2188 Q35.0625 44.3906 30.4219 44.3906 Q25.4375 44.3906 23.0234 43.1406 Q20.6094 41.8906 20.6094 39.3125 Q20.6094 37.2031 22.4375 36.0859 Q24.2656 34.9688 29 34.4219 L32.0781 33.9844 Q45.5156 32.2812 50.1484 28.375 Q54.7812 24.4688 54.7812 16.1094 Q54.7812 7.375 48.3359 2.9766 Q41.8906 -1.4219 29.1094 -1.4219 Q23.6875 -1.4219 17.8984 -0.5625 Q12.1094 0.2969 6 2 L6 15.2812 Q11.2344 12.75 16.7266 11.4766 Q22.2188 10.2031 27.875 10.2031 Q33.0156 10.2031 35.6016 11.6172 Q38.1875 13.0312 38.1875 15.8281 Q38.1875 18.1719 36.4062 19.3125 Q34.625 20.4531 29.2969 21.0938 L26.2188 21.4844 Q14.5469 22.9531 9.8594 26.9062 Q5.1719 30.8594 5.1719 38.9219 Q5.1719 47.6094 11.1328 51.8047 Q17.0938 56 29.3906 56 Q34.2344 56 39.5547 55.2734 Q44.875 54.5469 51.125 52.9844 Z"
        /><glyph unicode="i" horiz-adv-x="34.277344" d="M8.4062 54.6875 L25.875 54.6875 L25.875 0 L8.4062 0 L8.4062 54.6875 ZM8.4062 75.9844 L25.875 75.9844 L25.875 61.7188 L8.4062 61.7188 L8.4062 75.9844 Z"
        /><glyph unicode="d" horiz-adv-x="71.58203" d="M45.6094 46.6875 L45.6094 75.9844 L63.1875 75.9844 L63.1875 0 L45.6094 0 L45.6094 7.9062 Q42 3.0781 37.6484 0.8281 Q33.2969 -1.4219 27.5938 -1.4219 Q17.4844 -1.4219 10.9922 6.6172 Q4.5 14.6562 4.5 27.2969 Q4.5 39.9375 10.9922 47.9688 Q17.4844 56 27.5938 56 Q33.25 56 37.625 53.7344 Q42 51.4688 45.6094 46.6875 ZM34.0781 11.2812 Q39.7031 11.2812 42.6562 15.3828 Q45.6094 19.4844 45.6094 27.2969 Q45.6094 35.1094 42.6562 39.2109 Q39.7031 43.3125 34.0781 43.3125 Q28.5156 43.3125 25.5625 39.2109 Q22.6094 35.1094 22.6094 27.2969 Q22.6094 19.4844 25.5625 15.3828 Q28.5156 11.2812 34.0781 11.2812 Z"
        /><glyph unicode="u" horiz-adv-x="71.19141" d="M7.8125 21.2969 L7.8125 54.6875 L25.3906 54.6875 L25.3906 49.2188 Q25.3906 44.7812 25.3438 38.0625 Q25.2969 31.3438 25.2969 29.1094 Q25.2969 22.5156 25.6406 19.6094 Q25.9844 16.7031 26.8125 15.375 Q27.875 13.6719 29.6094 12.7422 Q31.3438 11.8125 33.5938 11.8125 Q39.0625 11.8125 42.1875 16.0156 Q45.3125 20.2188 45.3125 27.6875 L45.3125 54.6875 L62.7969 54.6875 L62.7969 0 L45.3125 0 L45.3125 7.9062 Q41.3594 3.125 36.9375 0.8516 Q32.5156 -1.4219 27.2031 -1.4219 Q17.7188 -1.4219 12.7656 4.3906 Q7.8125 10.2031 7.8125 21.2969 Z"
        /><glyph unicode="h" horiz-adv-x="71.19141" d="M63.375 33.2969 L63.375 0 L45.7969 0 L45.7969 5.4219 L45.7969 25.3906 Q45.7969 32.5625 45.4844 35.25 Q45.1719 37.9375 44.3906 39.2031 Q43.3594 40.9219 41.6016 41.875 Q39.8438 42.8281 37.5938 42.8281 Q32.125 42.8281 29 38.6016 Q25.875 34.375 25.875 26.9062 L25.875 0 L8.4062 0 L8.4062 75.9844 L25.875 75.9844 L25.875 46.6875 Q29.8281 51.4688 34.2734 53.7344 Q38.7188 56 44.0938 56 Q53.5625 56 58.4688 50.1953 Q63.375 44.3906 63.375 33.2969 Z"
        /><glyph unicode="T" horiz-adv-x="68.21289" d="M0.4844 72.9062 L67.6719 72.9062 L67.6719 58.6875 L43.5 58.6875 L43.5 0 L24.7031 0 L24.7031 58.6875 L0.4844 58.6875 L0.4844 72.9062 Z"
        /><glyph unicode="F" horiz-adv-x="68.31055" d="M9.1875 72.9062 L59.9062 72.9062 L59.9062 58.6875 L27.9844 58.6875 L27.9844 45.125 L58.0156 45.125 L58.0156 30.9062 L27.9844 30.9062 L27.9844 0 L9.1875 0 L9.1875 72.9062 Z"
        /><glyph unicode="I" horiz-adv-x="37.20703" d="M9.1875 72.9062 L27.9844 72.9062 L27.9844 0 L9.1875 0 L9.1875 72.9062 Z"
        /><glyph unicode="S" horiz-adv-x="72.021484" d="M59.9062 70.6094 L59.9062 55.1719 Q53.9062 57.8594 48.1953 59.2266 Q42.4844 60.5938 37.4062 60.5938 Q30.6719 60.5938 27.4453 58.7422 Q24.2188 56.8906 24.2188 52.9844 Q24.2188 50.0469 26.3906 48.4141 Q28.5625 46.7812 34.2812 45.6094 L42.2812 44 Q54.4375 41.5469 59.5703 36.5703 Q64.7031 31.5938 64.7031 22.4062 Q64.7031 10.3594 57.5469 4.4688 Q50.3906 -1.4219 35.6875 -1.4219 Q28.7656 -1.4219 21.7812 -0.1016 Q14.7969 1.2188 7.8125 3.8125 L7.8125 19.6719 Q14.7969 15.9688 21.3125 14.0859 Q27.8281 12.2031 33.8906 12.2031 Q40.0469 12.2031 43.3125 14.2578 Q46.5781 16.3125 46.5781 20.125 Q46.5781 23.5312 44.3594 25.3906 Q42.1406 27.25 35.5 28.7188 L28.2188 30.3281 Q17.2812 32.6719 12.2266 37.7969 Q7.1719 42.9219 7.1719 51.6094 Q7.1719 62.5 14.2031 68.3594 Q21.2344 74.2188 34.4219 74.2188 Q40.4375 74.2188 46.7812 73.3125 Q53.125 72.4062 59.9062 70.6094 Z"
        /><glyph unicode="o" horiz-adv-x="68.70117" d="M34.4219 43.5 Q28.6094 43.5 25.5625 39.3281 Q22.5156 35.1562 22.5156 27.2969 Q22.5156 19.4375 25.5625 15.2578 Q28.6094 11.0781 34.4219 11.0781 Q40.1406 11.0781 43.1641 15.2578 Q46.1875 19.4375 46.1875 27.2969 Q46.1875 35.1562 43.1641 39.3281 Q40.1406 43.5 34.4219 43.5 ZM34.4219 56 Q48.5312 56 56.4688 48.3828 Q64.4062 40.7656 64.4062 27.2969 Q64.4062 13.8125 56.4688 6.1953 Q48.5312 -1.4219 34.4219 -1.4219 Q20.2656 -1.4219 12.2812 6.1953 Q4.2969 13.8125 4.2969 27.2969 Q4.2969 40.7656 12.2812 48.3828 Q20.2656 56 34.4219 56 Z"
        /><glyph unicode="r" horiz-adv-x="49.316406" d="M49.0312 39.7969 Q46.7344 40.875 44.4609 41.3828 Q42.1875 41.8906 39.8906 41.8906 Q33.1562 41.8906 29.5156 37.5703 Q25.875 33.25 25.875 25.2031 L25.875 0 L8.4062 0 L8.4062 54.6875 L25.875 54.6875 L25.875 45.7031 Q29.25 51.0781 33.6172 53.5391 Q37.9844 56 44.0938 56 Q44.9688 56 45.9922 55.9297 Q47.0156 55.8594 48.9688 55.6094 L49.0312 39.7969 Z"
        /><glyph unicode="," horiz-adv-x="37.98828" d="M10.2031 18.8906 L27.7812 18.8906 L27.7812 4 L15.7188 -14.2031 L5.3281 -14.2031 L10.2031 4 L10.2031 18.8906 Z"
        /><glyph unicode="p" horiz-adv-x="71.58203" d="M25.875 7.9062 L25.875 -20.7969 L8.4062 -20.7969 L8.4062 54.6875 L25.875 54.6875 L25.875 46.6875 Q29.5 51.4688 33.8906 53.7344 Q38.2812 56 44 56 Q54.1094 56 60.6016 47.9688 Q67.0938 39.9375 67.0938 27.2969 Q67.0938 14.6562 60.6016 6.6172 Q54.1094 -1.4219 44 -1.4219 Q38.2812 -1.4219 33.8906 0.8516 Q29.5 3.125 25.875 7.9062 ZM37.5 43.3125 Q31.8906 43.3125 28.8828 39.1875 Q25.875 35.0625 25.875 27.2969 Q25.875 19.5312 28.8828 15.4062 Q31.8906 11.2812 37.5 11.2812 Q43.1094 11.2812 46.0703 15.3828 Q49.0312 19.4844 49.0312 27.2969 Q49.0312 35.1094 46.0703 39.2109 Q43.1094 43.3125 37.5 43.3125 Z"
        /><glyph unicode="x" horiz-adv-x="64.50195" d="M22.2188 27.9844 L2.4844 54.6875 L21 54.6875 L32.1719 38.4844 L43.5 54.6875 L62.0156 54.6875 L42.2812 28.0781 L62.9844 0 L44.4844 0 L32.1719 17.2812 L20.0156 0 L1.5156 0 L22.2188 27.9844 Z"
        /><glyph unicode="8" horiz-adv-x="69.58008" d="M34.8125 32.625 Q29.5469 32.625 26.7109 29.7422 Q23.875 26.8594 23.875 21.4844 Q23.875 16.1094 26.7109 13.2578 Q29.5469 10.4062 34.8125 10.4062 Q40.0469 10.4062 42.8281 13.2578 Q45.6094 16.1094 45.6094 21.4844 Q45.6094 26.9062 42.8281 29.7656 Q40.0469 32.625 34.8125 32.625 ZM21.0938 38.8125 Q14.4531 40.8281 11.0859 44.9766 Q7.7188 49.125 7.7188 55.3281 Q7.7188 64.5469 14.6016 69.3828 Q21.4844 74.2188 34.8125 74.2188 Q48.0469 74.2188 54.9297 69.4062 Q61.8125 64.5938 61.8125 55.3281 Q61.8125 49.125 58.4219 44.9766 Q55.0312 40.8281 48.3906 38.8125 Q55.8125 36.7656 59.5938 32.1562 Q63.375 27.5469 63.375 20.5156 Q63.375 9.6719 56.1719 4.125 Q48.9688 -1.4219 34.8125 -1.4219 Q20.6094 -1.4219 13.3594 4.125 Q6.1094 9.6719 6.1094 20.5156 Q6.1094 27.5469 9.8906 32.1562 Q13.6719 36.7656 21.0938 38.8125 ZM25.4844 53.4219 Q25.4844 49.0781 27.9062 46.7344 Q30.3281 44.3906 34.8125 44.3906 Q39.2031 44.3906 41.6016 46.7344 Q44 49.0781 44 53.4219 Q44 57.7656 41.6016 60.0859 Q39.2031 62.4062 34.8125 62.4062 Q30.3281 62.4062 27.9062 60.0625 Q25.4844 57.7188 25.4844 53.4219 Z"
        /><glyph unicode="2" horiz-adv-x="69.58008" d="M28.8125 13.8125 L60.8906 13.8125 L60.8906 0 L7.9062 0 L7.9062 13.8125 L34.5156 37.3125 Q38.0938 40.5312 39.7969 43.6094 Q41.5 46.6875 41.5 50 Q41.5 55.125 38.0625 58.25 Q34.625 61.375 28.9062 61.375 Q24.5156 61.375 19.2891 59.5 Q14.0625 57.625 8.1094 53.9062 L8.1094 69.9219 Q14.4531 72.0156 20.6562 73.1172 Q26.8594 74.2188 32.8125 74.2188 Q45.9062 74.2188 53.1562 68.4609 Q60.4062 62.7031 60.4062 52.3906 Q60.4062 46.4375 57.3281 41.2891 Q54.25 36.1406 44.3906 27.4844 L28.8125 13.8125 Z"
        /><glyph unicode="1" horiz-adv-x="69.58008" d="M11.7188 12.9844 L28.3281 12.9844 L28.3281 60.1094 L11.2812 56.5938 L11.2812 69.3906 L28.2188 72.9062 L46.0938 72.9062 L46.0938 12.9844 L62.7031 12.9844 L62.7031 0 L11.7188 0 L11.7188 12.9844 Z"
        /><glyph unicode=":" horiz-adv-x="39.990234" d="M11.1875 54.6875 L28.8125 54.6875 L28.8125 35.7969 L11.1875 35.7969 L11.1875 54.6875 ZM11.1875 18.8906 L28.8125 18.8906 L28.8125 0 L11.1875 0 L11.1875 18.8906 Z"
        /><glyph unicode="z" horiz-adv-x="58.203125" d="M5.7188 54.6875 L53.4219 54.6875 L53.4219 42.4844 L24.6094 12.5 L53.4219 12.5 L53.4219 0 L4.5 0 L4.5 12.2031 L33.2969 42.1875 L5.7188 42.1875 L5.7188 54.6875 Z"
      /></font
    ></defs
    ><g style="fill:white; stroke:white;"
    ><rect x="0" y="0" width="560" style="clip-path:url(#clipPath1); stroke:none;" height="420"
    /></g
    ><g style="fill:white; text-rendering:optimizeSpeed; color-rendering:optimizeSpeed; image-rendering:optimizeSpeed; shape-rendering:crispEdges; color-interpolation:sRGB; stroke:white;"
    ><rect x="0" width="560" height="420" y="0" style="stroke:none;"
      /><path style="stroke:none;" d="M73 374 L507 374 L507 35 L73 35 Z"
    /></g
    ><g style="fill:rgb(38,38,38); text-rendering:geometricPrecision; color-rendering:optimizeQuality; image-rendering:optimizeQuality; stroke-linejoin:round; color-interpolation:linearRGB; stroke:rgb(38,38,38); stroke-width:0.5;"
    ><line y2="374" style="fill:none;" x1="73" x2="507" y1="374"
      /><line y2="35" style="fill:none;" x1="73" x2="507" y1="35"
      /><line y2="369.66" style="fill:none;" x1="73" x2="73" y1="374"
      /><line y2="369.66" style="fill:none;" x1="121.2222" x2="121.2222" y1="374"
      /><line y2="369.66" style="fill:none;" x1="169.4444" x2="169.4444" y1="374"
      /><line y2="369.66" style="fill:none;" x1="217.6667" x2="217.6667" y1="374"
      /><line y2="369.66" style="fill:none;" x1="265.8889" x2="265.8889" y1="374"
      /><line y2="369.66" style="fill:none;" x1="314.1111" x2="314.1111" y1="374"
      /><line y2="369.66" style="fill:none;" x1="362.3333" x2="362.3333" y1="374"
      /><line y2="369.66" style="fill:none;" x1="410.5555" x2="410.5555" y1="374"
      /><line y2="369.66" style="fill:none;" x1="458.7778" x2="458.7778" y1="374"
      /><line y2="369.66" style="fill:none;" x1="507" x2="507" y1="374"
      /><line y2="39.34" style="fill:none;" x1="73" x2="73" y1="35"
      /><line y2="39.34" style="fill:none;" x1="121.2222" x2="121.2222" y1="35"
      /><line y2="39.34" style="fill:none;" x1="169.4444" x2="169.4444" y1="35"
      /><line y2="39.34" style="fill:none;" x1="217.6667" x2="217.6667" y1="35"
      /><line y2="39.34" style="fill:none;" x1="265.8889" x2="265.8889" y1="35"
      /><line y2="39.34" style="fill:none;" x1="314.1111" x2="314.1111" y1="35"
      /><line y2="39.34" style="fill:none;" x1="362.3333" x2="362.3333" y1="35"
      /><line y2="39.34" style="fill:none;" x1="410.5555" x2="410.5555" y1="35"
      /><line y2="39.34" style="fill:none;" x1="458.7778" x2="458.7778" y1="35"
      /><line y2="39.34" style="fill:none;" x1="507" x2="507" y1="35"
    /></g
    ><g transform="translate(73,378)" style="font-size:10px; fill:rgb(38,38,38); text-rendering:geometricPrecision; color-rendering:optimizeQuality; image-rendering:optimizeQuality; font-family:'SansSerif'; color-interpolation:linearRGB; stroke:rgb(38,38,38);"
    ><text x="-3.5" xml:space="preserve" y="10" style="stroke:none;"
      >0</text
    ></g
    ><g transform="translate(121.2222,378)" style="font-size:10px; fill:rgb(38,38,38); text-rendering:geometricPrecision; color-rendering:optimizeQuality; image-rendering:optimizeQuality; font-family:'SansSerif'; color-interpolation:linearRGB; stroke:rgb(38,38,38);"
    ><text x="-3.5" xml:space="preserve" y="10" style="stroke:none;"
      >5</text
    ></g
    ><g transform="translate(169.4444,378)" style="font-size:10px; fill:rgb(38,38,38); text-rendering:geometricPrecision; color-rendering:optimizeQuality; image-rendering:optimizeQuality; font-family:'SansSerif'; color-interpolation:linearRGB; stroke:rgb(38,38,38);"
    ><text x="-6.5" xml:space="preserve" y="10" style="stroke:none;"
      >10</text
    ></g
    ><g transform="translate(217.6667,378)" style="font-size:10px; fill:rgb(38,38,38); text-rendering:geometricPrecision; color-rendering:optimizeQuality; image-rendering:optimizeQuality; font-family:'SansSerif'; color-interpolation:linearRGB; stroke:rgb(38,38,38);"
    ><text x="-6.5" xml:space="preserve" y="10" style="stroke:none;"
      >15</text
    ></g
    ><g transform="translate(265.8889,378)" style="font-size:10px; fill:rgb(38,38,38); text-rendering:geometricPrecision; color-rendering:optimizeQuality; image-rendering:optimizeQuality; font-family:'SansSerif'; color-interpolation:linearRGB; stroke:rgb(38,38,38);"
    ><text x="-6.5" xml:space="preserve" y="10" style="stroke:none;"
      >20</text
    ></g
    ><g transform="translate(314.1111,378)" style="font-size:10px; fill:rgb(38,38,38); text-rendering:geometricPrecision; color-rendering:optimizeQuality; image-rendering:optimizeQuality; font-family:'SansSerif'; color-interpolation:linearRGB; stroke:rgb(38,38,38);"
    ><text x="-6.5" xml:space="preserve" y="10" style="stroke:none;"
      >25</text
    ></g
    ><g transform="translate(362.3333,378)" style="font-size:10px; fill:rgb(38,38,38); text-rendering:geometricPrecision; color-rendering:optimizeQuality; image-rendering:optimizeQuality; font-family:'SansSerif'; color-interpolation:linearRGB; stroke:rgb(38,38,38);"
    ><text x="-6.5" xml:space="preserve" y="10" style="stroke:none;"
      >30</text
    ></g
    ><g transform="translate(410.5555,378)" style="font-size:10px; fill:rgb(38,38,38); text-rendering:geometricPrecision; color-rendering:optimizeQuality; image-rendering:optimizeQuality; font-family:'SansSerif'; color-interpolation:linearRGB; stroke:rgb(38,38,38);"
    ><text x="-6.5" xml:space="preserve" y="10" style="stroke:none;"
      >35</text
    ></g
    ><g transform="translate(458.7778,378)" style="font-size:10px; fill:rgb(38,38,38); text-rendering:geometricPrecision; color-rendering:optimizeQuality; image-rendering:optimizeQuality; font-family:'SansSerif'; color-interpolation:linearRGB; stroke:rgb(38,38,38);"
    ><text x="-6.5" xml:space="preserve" y="10" style="stroke:none;"
      >40</text
    ></g
    ><g transform="translate(507,378)" style="font-size:10px; fill:rgb(38,38,38); text-rendering:geometricPrecision; color-rendering:optimizeQuality; image-rendering:optimizeQuality; font-family:'SansSerif'; color-interpolation:linearRGB; stroke:rgb(38,38,38);"
    ><text x="-6.5" xml:space="preserve" y="10" style="stroke:none;"
      >45</text
    ></g
    ><g transform="translate(290.0002,392)" style="font-size:11px; fill:rgb(38,38,38); text-rendering:geometricPrecision; color-rendering:optimizeQuality; image-rendering:optimizeQuality; font-family:'SansSerif'; color-interpolation:linearRGB; stroke:rgb(38,38,38);"
    ><text x="-25" xml:space="preserve" y="11" style="stroke:none;"
      >group no</text
    ></g
    ><g style="fill:rgb(38,38,38); text-rendering:geometricPrecision; color-rendering:optimizeQuality; image-rendering:optimizeQuality; stroke-linejoin:round; color-interpolation:linearRGB; stroke:rgb(38,38,38); stroke-width:0.5;"
    ><line y2="35" style="fill:none;" x1="73" x2="73" y1="374"
      /><line y2="35" style="fill:none;" x1="507" x2="507" y1="374"
      /><line y2="374" style="fill:none;" x1="73" x2="77.34" y1="374"
      /><line y2="317.5" style="fill:none;" x1="73" x2="77.34" y1="317.5"
      /><line y2="261" style="fill:none;" x1="73" x2="77.34" y1="261"
      /><line y2="204.5" style="fill:none;" x1="73" x2="77.34" y1="204.5"
      /><line y2="148" style="fill:none;" x1="73" x2="77.34" y1="148"
      /><line y2="91.5" style="fill:none;" x1="73" x2="77.34" y1="91.5"
      /><line y2="35" style="fill:none;" x1="73" x2="77.34" y1="35"
      /><line y2="374" style="fill:none;" x1="507" x2="502.66" y1="374"
      /><line y2="317.5" style="fill:none;" x1="507" x2="502.66" y1="317.5"
      /><line y2="261" style="fill:none;" x1="507" x2="502.66" y1="261"
      /><line y2="204.5" style="fill:none;" x1="507" x2="502.66" y1="204.5"
      /><line y2="148" style="fill:none;" x1="507" x2="502.66" y1="148"
      /><line y2="91.5" style="fill:none;" x1="507" x2="502.66" y1="91.5"
      /><line y2="35" style="fill:none;" x1="507" x2="502.66" y1="35"
    /></g
    ><g transform="translate(69,374)" style="font-size:10px; fill:rgb(38,38,38); text-rendering:geometricPrecision; color-rendering:optimizeQuality; image-rendering:optimizeQuality; font-family:'SansSerif'; color-interpolation:linearRGB; stroke:rgb(38,38,38);"
    ><text x="-23" xml:space="preserve" y="3.5" style="stroke:none;"
      >-100</text
    ></g
    ><g transform="translate(69,317.5)" style="font-size:10px; fill:rgb(38,38,38); text-rendering:geometricPrecision; color-rendering:optimizeQuality; image-rendering:optimizeQuality; font-family:'SansSerif'; color-interpolation:linearRGB; stroke:rgb(38,38,38);"
    ><text x="-17" xml:space="preserve" y="3.5" style="stroke:none;"
      >-80</text
    ></g
    ><g transform="translate(69,261)" style="font-size:10px; fill:rgb(38,38,38); text-rendering:geometricPrecision; color-rendering:optimizeQuality; image-rendering:optimizeQuality; font-family:'SansSerif'; color-interpolation:linearRGB; stroke:rgb(38,38,38);"
    ><text x="-17" xml:space="preserve" y="3.5" style="stroke:none;"
      >-60</text
    ></g
    ><g transform="translate(69,204.5)" style="font-size:10px; fill:rgb(38,38,38); text-rendering:geometricPrecision; color-rendering:optimizeQuality; image-rendering:optimizeQuality; font-family:'SansSerif'; color-interpolation:linearRGB; stroke:rgb(38,38,38);"
    ><text x="-17" xml:space="preserve" y="3.5" style="stroke:none;"
      >-40</text
    ></g
    ><g transform="translate(69,148)" style="font-size:10px; fill:rgb(38,38,38); text-rendering:geometricPrecision; color-rendering:optimizeQuality; image-rendering:optimizeQuality; font-family:'SansSerif'; color-interpolation:linearRGB; stroke:rgb(38,38,38);"
    ><text x="-17" xml:space="preserve" y="3.5" style="stroke:none;"
      >-20</text
    ></g
    ><g transform="translate(69,91.5)" style="font-size:10px; fill:rgb(38,38,38); text-rendering:geometricPrecision; color-rendering:optimizeQuality; image-rendering:optimizeQuality; font-family:'SansSerif'; color-interpolation:linearRGB; stroke:rgb(38,38,38);"
    ><text x="-7" xml:space="preserve" y="3.5" style="stroke:none;"
      >0</text
    ></g
    ><g transform="translate(69,35)" style="font-size:10px; fill:rgb(38,38,38); text-rendering:geometricPrecision; color-rendering:optimizeQuality; image-rendering:optimizeQuality; font-family:'SansSerif'; color-interpolation:linearRGB; stroke:rgb(38,38,38);"
    ><text x="-13" xml:space="preserve" y="3.5" style="stroke:none;"
      >20</text
    ></g
    ><g transform="translate(43,204.4998) rotate(-90)" style="font-size:11px; fill:rgb(38,38,38); text-rendering:geometricPrecision; color-rendering:optimizeQuality; image-rendering:optimizeQuality; font-family:'SansSerif'; color-interpolation:linearRGB; stroke:rgb(38,38,38);"
    ><text x="-23.5" xml:space="preserve" y="-3" style="stroke:none;"
      >distance</text
    ></g
    ><g transform="translate(201,11)" style="font-size:11px; text-rendering:geometricPrecision; color-rendering:optimizeQuality; image-rendering:optimizeQuality; font-family:'SansSerif'; color-interpolation:linearRGB; font-weight:bold;"
    ><text x="0" xml:space="preserve" y="0" style="stroke:none;"
      >distances between elements</text
    ></g
    ><g transform="translate(170,25)" style="font-size:11px; text-rendering:geometricPrecision; color-rendering:optimizeQuality; image-rendering:optimizeQuality; font-family:'SansSerif'; color-interpolation:linearRGB; font-weight:bold;"
    ><text x="0" xml:space="preserve" y="0" style="stroke:none;"
      >thumb</text
    ></g
    ><g transform="translate(211,30)" style="font-size:8px; text-rendering:geometricPrecision; color-rendering:optimizeQuality; image-rendering:optimizeQuality; font-family:'SansSerif'; color-interpolation:linearRGB; font-weight:bold;"
    ><text x="0" xml:space="preserve" y="0" style="stroke:none;"
      >s</text
    ></g
    ><g transform="translate(216,25)" style="font-size:11px; text-rendering:geometricPrecision; color-rendering:optimizeQuality; image-rendering:optimizeQuality; font-family:'SansSerif'; color-interpolation:linearRGB; font-weight:bold;"
    ><text x="0" xml:space="preserve" y="0" style="stroke:none;"
      >ize: 128x128px, descritor: SIFT</text
    ></g
    ><g style="stroke-linecap:butt; fill:rgb(0,114,189); text-rendering:geometricPrecision; color-rendering:optimizeQuality; image-rendering:optimizeQuality; stroke-linejoin:round; color-interpolation:linearRGB; stroke:rgb(0,114,189); stroke-width:0.5;"
    ><line y2="88.0852" style="fill:none;" x1="82.6444" x2="82.6444" y1="109.4165"
      /><line y2="100.3904" style="fill:none;" x1="92.2889" x2="92.2889" y1="245.7063"
      /><line y2="80.3316" style="fill:none;" x1="101.9333" x2="101.9333" y1="166.325"
      /><line y2="71.6746" style="fill:none;" x1="111.5778" x2="111.5778" y1="160.8571"
      /><line y2="68.3727" style="fill:none;" x1="121.2222" x2="121.2222" y1="159.639"
      /><line y2="96.7968" style="fill:none;" x1="130.8667" x2="130.8667" y1="207.3016"
      /><line y2="167.4551" style="fill:none;" x1="140.5111" x2="140.5111" y1="303.6949"
      /><line y2="94.6342" style="fill:none;" x1="150.1555" x2="150.1555" y1="177.2591"
      /><line y2="115.3596" style="fill:none;" x1="159.8" x2="159.8" y1="206.8187"
      /><line y2="91.6396" style="fill:none;" x1="169.4444" x2="169.4444" y1="145.6004"
      /><line y2="111.1615" style="fill:none;" x1="179.0889" x2="179.0889" y1="253.5802"
      /><line y2="93.8015" style="fill:none;" x1="188.7333" x2="188.7333" y1="176.2085"
      /><line y2="76.2807" style="fill:none;" x1="198.3778" x2="198.3778" y1="148.1526"
      /><line y2="117.499" style="fill:none;" x1="208.0222" x2="208.0222" y1="283.2143"
      /><line y2="73.3669" style="fill:none;" x1="217.6667" x2="217.6667" y1="228.4714"
      /><line y2="50.5829" style="fill:none;" x1="227.3111" x2="227.3111" y1="210.5755"
      /><line y2="81.9837" style="fill:none;" x1="236.9556" x2="236.9556" y1="174.4663"
      /><line y2="94.0107" style="fill:none;" x1="246.6" x2="246.6" y1="185.981"
      /><line y2="99.2102" style="fill:none;" x1="256.2444" x2="256.2444" y1="211.6681"
      /><line y2="73.5726" style="fill:none;" x1="265.8889" x2="265.8889" y1="185.1374"
      /><line y2="103.503" style="fill:none;" x1="275.5333" x2="275.5333" y1="203.797"
      /><line y2="124.7095" style="fill:none;" x1="285.1778" x2="285.1778" y1="188.0522"
      /><line y2="93.6928" style="fill:none;" x1="294.8222" x2="294.8222" y1="122.4538"
      /><line y2="101.3856" style="fill:none;" x1="304.4667" x2="304.4667" y1="175.4044"
      /><line y2="86.9731" style="fill:none;" x1="314.1111" x2="314.1111" y1="170.0419"
      /><line y2="94.5826" style="fill:none;" x1="323.7556" x2="323.7556" y1="147.9307"
      /><line y2="174.7099" style="fill:none;" x1="333.4" x2="333.4" y1="236.3617"
      /><line y2="64.6393" style="fill:none;" x1="343.0444" x2="343.0444" y1="244.5441"
      /><line y2="101.1714" style="fill:none;" x1="352.6889" x2="352.6889" y1="211.2136"
      /><line y2="112.625" style="fill:none;" x1="362.3333" x2="362.3333" y1="176.2183"
      /><line y2="79.6079" style="fill:none;" x1="371.9778" x2="371.9778" y1="164.9771"
      /><line y2="91.5654" style="fill:none;" x1="381.6222" x2="381.6222" y1="191.6279"
      /><line y2="88.2593" style="fill:none;" x1="391.2667" x2="391.2667" y1="174.029"
      /><line y2="135.8893" style="fill:none;" x1="400.9111" x2="400.9111" y1="322.454"
      /><line y2="70.9574" style="fill:none;" x1="410.5555" x2="410.5555" y1="185.8693"
      /><line y2="80.4324" style="fill:none;" x1="420.2" x2="420.2" y1="207.2809"
      /><line y2="71.7626" style="fill:none;" x1="429.8445" x2="429.8445" y1="221.7891"
      /><line y2="108.6586" style="fill:none;" x1="439.4889" x2="439.4889" y1="209.5647"
      /><line y2="88.8477" style="fill:none;" x1="449.1333" x2="449.1333" y1="128.9939"
      /><line y2="77.6931" style="fill:none;" x1="458.7778" x2="458.7778" y1="171.7885"
      /><line y2="109.4165" style="fill:none;" x1="78.8831" x2="86.4058" y1="109.4165"
      /><line y2="245.7063" style="fill:none;" x1="88.5276" x2="96.0502" y1="245.7063"
      /><line y2="166.325" style="fill:none;" x1="98.172" x2="105.6947" y1="166.325"
      /><line y2="160.8571" style="fill:none;" x1="107.8164" x2="115.3391" y1="160.8571"
      /><line y2="159.639" style="fill:none;" x1="117.4609" x2="124.9836" y1="159.639"
      /><line y2="207.3016" style="fill:none;" x1="127.1053" x2="134.628" y1="207.3016"
      /><line y2="303.6949" style="fill:none;" x1="136.7498" x2="144.2724" y1="303.6949"
      /><line y2="177.2591" style="fill:none;" x1="146.3942" x2="153.9169" y1="177.2591"
      /><line y2="206.8187" style="fill:none;" x1="156.0387" x2="163.5613" y1="206.8187"
      /><line y2="145.6004" style="fill:none;" x1="165.6831" x2="173.2058" y1="145.6004"
      /><line y2="253.5802" style="fill:none;" x1="175.3275" x2="182.8502" y1="253.5802"
      /><line y2="176.2085" style="fill:none;" x1="184.972" x2="192.4947" y1="176.2085"
      /><line y2="148.1526" style="fill:none;" x1="194.6164" x2="202.1391" y1="148.1526"
      /><line y2="283.2143" style="fill:none;" x1="204.2609" x2="211.7836" y1="283.2143"
      /><line y2="228.4714" style="fill:none;" x1="213.9053" x2="221.428" y1="228.4714"
      /><line y2="210.5755" style="fill:none;" x1="223.5498" x2="231.0724" y1="210.5755"
      /><line y2="174.4663" style="fill:none;" x1="233.1942" x2="240.7169" y1="174.4663"
      /><line y2="185.981" style="fill:none;" x1="242.8387" x2="250.3613" y1="185.981"
      /><line y2="211.6681" style="fill:none;" x1="252.4831" x2="260.0058" y1="211.6681"
      /><line y2="185.1374" style="fill:none;" x1="262.1276" x2="269.6502" y1="185.1374"
      /><line y2="203.797" style="fill:none;" x1="271.772" x2="279.2946" y1="203.797"
      /><line y2="188.0522" style="fill:none;" x1="281.4164" x2="288.9391" y1="188.0522"
      /><line y2="122.4538" style="fill:none;" x1="291.0609" x2="298.5836" y1="122.4538"
      /><line y2="175.4044" style="fill:none;" x1="300.7054" x2="308.228" y1="175.4044"
      /><line y2="170.0419" style="fill:none;" x1="310.3498" x2="317.8724" y1="170.0419"
      /><line y2="147.9307" style="fill:none;" x1="319.9942" x2="327.5169" y1="147.9307"
      /><line y2="236.3617" style="fill:none;" x1="329.6387" x2="337.1613" y1="236.3617"
      /><line y2="244.5441" style="fill:none;" x1="339.2831" x2="346.8058" y1="244.5441"
      /><line y2="211.2136" style="fill:none;" x1="348.9276" x2="356.4502" y1="211.2136"
      /><line y2="176.2183" style="fill:none;" x1="358.572" x2="366.0947" y1="176.2183"
      /><line y2="164.9771" style="fill:none;" x1="368.2165" x2="375.7391" y1="164.9771"
      /><line y2="191.6279" style="fill:none;" x1="377.8609" x2="385.3835" y1="191.6279"
      /><line y2="174.029" style="fill:none;" x1="387.5053" x2="395.028" y1="174.029"
      /><line y2="322.454" style="fill:none;" x1="397.1498" x2="404.6724" y1="322.454"
      /><line y2="185.8693" style="fill:none;" x1="406.7942" x2="414.3169" y1="185.8693"
      /><line y2="207.2809" style="fill:none;" x1="416.4387" x2="423.9613" y1="207.2809"
      /><line y2="221.7891" style="fill:none;" x1="426.0831" x2="433.6058" y1="221.7891"
      /><line y2="209.5647" style="fill:none;" x1="435.7276" x2="443.2502" y1="209.5647"
      /><line y2="128.9939" style="fill:none;" x1="445.372" x2="452.8947" y1="128.9939"
      /><line y2="171.7885" style="fill:none;" x1="455.0164" x2="462.5391" y1="171.7885"
      /><line y2="88.0852" style="fill:none;" x1="78.8831" x2="86.4058" y1="88.0852"
      /><line y2="100.3904" style="fill:none;" x1="88.5276" x2="96.0502" y1="100.3904"
      /><line y2="80.3316" style="fill:none;" x1="98.172" x2="105.6947" y1="80.3316"
      /><line y2="71.6746" style="fill:none;" x1="107.8164" x2="115.3391" y1="71.6746"
      /><line y2="68.3727" style="fill:none;" x1="117.4609" x2="124.9836" y1="68.3727"
      /><line y2="96.7968" style="fill:none;" x1="127.1053" x2="134.628" y1="96.7968"
      /><line y2="167.4551" style="fill:none;" x1="136.7498" x2="144.2724" y1="167.4551"
      /><line y2="94.6342" style="fill:none;" x1="146.3942" x2="153.9169" y1="94.6342"
      /><line y2="115.3596" style="fill:none;" x1="156.0387" x2="163.5613" y1="115.3596"
      /><line y2="91.6396" style="fill:none;" x1="165.6831" x2="173.2058" y1="91.6396"
      /><line y2="111.1615" style="fill:none;" x1="175.3275" x2="182.8502" y1="111.1615"
      /><line y2="93.8015" style="fill:none;" x1="184.972" x2="192.4947" y1="93.8015"
      /><line y2="76.2807" style="fill:none;" x1="194.6164" x2="202.1391" y1="76.2807"
      /><line y2="117.499" style="fill:none;" x1="204.2609" x2="211.7836" y1="117.499"
      /><line y2="73.3669" style="fill:none;" x1="213.9053" x2="221.428" y1="73.3669"
      /><line y2="50.5829" style="fill:none;" x1="223.5498" x2="231.0724" y1="50.5829"
      /><line y2="81.9837" style="fill:none;" x1="233.1942" x2="240.7169" y1="81.9837"
      /><line y2="94.0107" style="fill:none;" x1="242.8387" x2="250.3613" y1="94.0107"
      /><line y2="99.2102" style="fill:none;" x1="252.4831" x2="260.0058" y1="99.2102"
      /><line y2="73.5726" style="fill:none;" x1="262.1276" x2="269.6502" y1="73.5726"
      /><line y2="103.503" style="fill:none;" x1="271.772" x2="279.2946" y1="103.503"
      /><line y2="124.7095" style="fill:none;" x1="281.4164" x2="288.9391" y1="124.7095"
      /><line y2="93.6928" style="fill:none;" x1="291.0609" x2="298.5836" y1="93.6928"
      /><line y2="101.3856" style="fill:none;" x1="300.7054" x2="308.228" y1="101.3856"
      /><line y2="86.9731" style="fill:none;" x1="310.3498" x2="317.8724" y1="86.9731"
      /><line y2="94.5826" style="fill:none;" x1="319.9942" x2="327.5169" y1="94.5826"
      /><line y2="174.7099" style="fill:none;" x1="329.6387" x2="337.1613" y1="174.7099"
      /><line y2="64.6393" style="fill:none;" x1="339.2831" x2="346.8058" y1="64.6393"
      /><line y2="101.1714" style="fill:none;" x1="348.9276" x2="356.4502" y1="101.1714"
      /><line y2="112.625" style="fill:none;" x1="358.572" x2="366.0947" y1="112.625"
      /><line y2="79.6079" style="fill:none;" x1="368.2165" x2="375.7391" y1="79.6079"
      /><line y2="91.5654" style="fill:none;" x1="377.8609" x2="385.3835" y1="91.5654"
      /><line y2="88.2593" style="fill:none;" x1="387.5053" x2="395.028" y1="88.2593"
      /><line y2="135.8893" style="fill:none;" x1="397.1498" x2="404.6724" y1="135.8893"
      /><line y2="70.9574" style="fill:none;" x1="406.7942" x2="414.3169" y1="70.9574"
      /><line y2="80.4324" style="fill:none;" x1="416.4387" x2="423.9613" y1="80.4324"
      /><line y2="71.7626" style="fill:none;" x1="426.0831" x2="433.6058" y1="71.7626"
      /><line y2="108.6586" style="fill:none;" x1="435.7276" x2="443.2502" y1="108.6586"
      /><line y2="88.8477" style="fill:none;" x1="445.372" x2="452.8947" y1="88.8477"
      /><line y2="77.6931" style="fill:none;" x1="455.0164" x2="462.5391" y1="77.6931"
      /><path d="M82.6444 98.7508 L92.2889 173.0483 L101.9333 123.3283 L111.5778 116.2658 L121.2222 114.0058 L130.8667 152.0492 L140.5111 235.575 L150.1555 135.9467 L159.8 161.0892 L169.4444 118.62 L179.0889 182.3708 L188.7333 135.005 L198.3778 112.2167 L208.0222 200.3567 L217.6667 150.9192 L227.3111 130.5792 L236.9556 128.225 L246.6 139.9958 L256.2444 155.4392 L265.8889 129.355 L275.5333 153.65 L285.1778 156.3808 L294.8222 108.0733 L304.4667 138.395 L314.1111 128.5075 L323.7556 121.2567 L333.4 205.5358 L343.0444 154.5917 L352.6889 156.1925 L362.3333 144.4217 L371.9778 122.2925 L381.6222 141.5967 L391.2667 131.1442 L400.9111 229.1717 L410.5555 128.4133 L420.2 143.8567 L429.8445 146.7758 L439.4889 159.1117 L449.1333 108.9208 L458.7778 124.7408" style="fill:none; fill-rule:evenodd;"
      /><line x1="82.6444" x2="82.6444" y1="93.8149" style="fill:none; stroke:rgb(217,83,25);" y2="90.5599"
      /><line x1="92.2889" x2="92.2889" y1="96.5932" style="fill:none; stroke:rgb(217,83,25);" y2="90.2865"
      /><line x1="101.9333" x2="101.9333" y1="96.4089" style="fill:none; stroke:rgb(217,83,25);" y2="90.6026"
      /><line x1="111.5778" x2="111.5778" y1="95.9557" style="fill:none; stroke:rgb(217,83,25);" y2="90.9052"
      /><line x1="121.2222" x2="121.2222" y1="94.4486" style="fill:none; stroke:rgb(217,83,25);" y2="90.4159"
      /><line x1="130.8667" x2="130.8667" y1="96.3034" style="fill:none; stroke:rgb(217,83,25);" y2="90.5386"
      /><line x1="140.5111" x2="140.5111" y1="95.3513" style="fill:none; stroke:rgb(217,83,25);" y2="90.7751"
      /><line x1="150.1555" x2="150.1555" y1="96.0601" style="fill:none; stroke:rgb(217,83,25);" y2="90.5182"
      /><line x1="159.8" x2="159.8" y1="96.261" style="fill:none; stroke:rgb(217,83,25);" y2="90.3927"
      /><line x1="169.4444" x2="169.4444" y1="98.8239" style="fill:none; stroke:rgb(217,83,25);" y2="90.8996"
      /><line x1="179.0889" x2="179.0889" y1="96.0956" style="fill:none; stroke:rgb(217,83,25);" y2="90.9912"
      /><line x1="188.7333" x2="188.7333" y1="96.4394" style="fill:none; stroke:rgb(217,83,25);" y2="90.5344"
      /><line x1="198.3778" x2="198.3778" y1="94.9741" style="fill:none; stroke:rgb(217,83,25);" y2="90.4742"
      /><line x1="208.0222" x2="208.0222" y1="94.4853" style="fill:none; stroke:rgb(217,83,25);" y2="90.7371"
      /><line x1="217.6667" x2="217.6667" y1="94.8396" style="fill:none; stroke:rgb(217,83,25);" y2="90.6087"
      /><line x1="227.3111" x2="227.3111" y1="94.6752" style="fill:none; stroke:rgb(217,83,25);" y2="90.7354"
      /><line x1="236.9556" x2="236.9556" y1="95.5109" style="fill:none; stroke:rgb(217,83,25);" y2="90.4836"
      /><line x1="246.6" x2="246.6" y1="96.3799" style="fill:none; stroke:rgb(217,83,25);" y2="90.1231"
      /><line x1="256.2444" x2="256.2444" y1="96.1218" style="fill:none; stroke:rgb(217,83,25);" y2="90.7202"
      /><line x1="265.8889" x2="265.8889" y1="95.0314" style="fill:none; stroke:rgb(217,83,25);" y2="90.6618"
      /><line x1="275.5333" x2="275.5333" y1="96.8035" style="fill:none; stroke:rgb(217,83,25);" y2="90.4529"
      /><line x1="285.1778" x2="285.1778" y1="94.1733" style="fill:none; stroke:rgb(217,83,25);" y2="90.6347"
      /><line x1="294.8222" x2="294.8222" y1="95.1939" style="fill:none; stroke:rgb(217,83,25);" y2="90.6311"
      /><line x1="304.4667" x2="304.4667" y1="95.4836" style="fill:none; stroke:rgb(217,83,25);" y2="90.8311"
      /><line x1="314.1111" x2="314.1111" y1="93.7856" style="fill:none; stroke:rgb(217,83,25);" y2="90.6646"
      /><line x1="323.7556" x2="323.7556" y1="95.215" style="fill:none; stroke:rgb(217,83,25);" y2="90.6289"
      /><line x1="333.4" x2="333.4" y1="96.2989" style="fill:none; stroke:rgb(217,83,25);" y2="90.8444"
      /><line x1="343.0444" x2="343.0444" y1="95.9092" style="fill:none; stroke:rgb(217,83,25);" y2="90.4808"
      /><line x1="352.6889" x2="352.6889" y1="96.0996" style="fill:none; stroke:rgb(217,83,25);" y2="90.7613"
      /><line x1="362.3333" x2="362.3333" y1="95.5112" style="fill:none; stroke:rgb(217,83,25);" y2="90.6905"
      /><line x1="371.9778" x2="371.9778" y1="94.4119" style="fill:none; stroke:rgb(217,83,25);" y2="90.4149"
      /><line x1="381.6222" x2="381.6222" y1="94.0625" style="fill:none; stroke:rgb(217,83,25);" y2="90.6702"
      /><line x1="391.2667" x2="391.2667" y1="94.625" style="fill:none; stroke:rgb(217,83,25);" y2="90.5785"
      /><line x1="400.9111" x2="400.9111" y1="93.3384" style="fill:none; stroke:rgb(217,83,25);" y2="90.9046"
      /><line x1="410.5555" x2="410.5555" y1="93.9674" style="fill:none; stroke:rgb(217,83,25);" y2="90.6711"
      /><line x1="420.2" x2="420.2" y1="94.5478" style="fill:none; stroke:rgb(217,83,25);" y2="90.5238"
      /><line x1="429.8445" x2="429.8445" y1="94.2149" style="fill:none; stroke:rgb(217,83,25);" y2="90.7061"
      /><line x1="439.4889" x2="439.4889" y1="96.603" style="fill:none; stroke:rgb(217,83,25);" y2="91.0677"
      /><line x1="449.1333" x2="449.1333" y1="93.9156" style="fill:none; stroke:rgb(217,83,25);" y2="90.6475"
      /><line x1="458.7778" x2="458.7778" y1="95.1699" style="fill:none; stroke:rgb(217,83,25);" y2="90.4291"
      /><line x1="78.8831" x2="86.4058" y1="93.8149" style="fill:none; stroke:rgb(217,83,25);" y2="93.8149"
      /><line x1="88.5276" x2="96.0502" y1="96.5932" style="fill:none; stroke:rgb(217,83,25);" y2="96.5932"
      /><line x1="98.172" x2="105.6947" y1="96.4089" style="fill:none; stroke:rgb(217,83,25);" y2="96.4089"
      /><line x1="107.8164" x2="115.3391" y1="95.9557" style="fill:none; stroke:rgb(217,83,25);" y2="95.9557"
      /><line x1="117.4609" x2="124.9836" y1="94.4486" style="fill:none; stroke:rgb(217,83,25);" y2="94.4486"
      /><line x1="127.1053" x2="134.628" y1="96.3034" style="fill:none; stroke:rgb(217,83,25);" y2="96.3034"
      /><line x1="136.7498" x2="144.2724" y1="95.3513" style="fill:none; stroke:rgb(217,83,25);" y2="95.3513"
      /><line x1="146.3942" x2="153.9169" y1="96.0601" style="fill:none; stroke:rgb(217,83,25);" y2="96.0601"
      /><line x1="156.0387" x2="163.5613" y1="96.261" style="fill:none; stroke:rgb(217,83,25);" y2="96.261"
      /><line x1="165.6831" x2="173.2058" y1="98.8239" style="fill:none; stroke:rgb(217,83,25);" y2="98.8239"
      /><line x1="175.3275" x2="182.8502" y1="96.0956" style="fill:none; stroke:rgb(217,83,25);" y2="96.0956"
      /><line x1="184.972" x2="192.4947" y1="96.4394" style="fill:none; stroke:rgb(217,83,25);" y2="96.4394"
      /><line x1="194.6164" x2="202.1391" y1="94.9741" style="fill:none; stroke:rgb(217,83,25);" y2="94.9741"
      /><line x1="204.2609" x2="211.7836" y1="94.4853" style="fill:none; stroke:rgb(217,83,25);" y2="94.4853"
      /><line x1="213.9053" x2="221.428" y1="94.8396" style="fill:none; stroke:rgb(217,83,25);" y2="94.8396"
      /><line x1="223.5498" x2="231.0724" y1="94.6752" style="fill:none; stroke:rgb(217,83,25);" y2="94.6752"
      /><line x1="233.1942" x2="240.7169" y1="95.5109" style="fill:none; stroke:rgb(217,83,25);" y2="95.5109"
      /><line x1="242.8387" x2="250.3613" y1="96.3799" style="fill:none; stroke:rgb(217,83,25);" y2="96.3799"
      /><line x1="252.4831" x2="260.0058" y1="96.1218" style="fill:none; stroke:rgb(217,83,25);" y2="96.1218"
      /><line x1="262.1276" x2="269.6502" y1="95.0314" style="fill:none; stroke:rgb(217,83,25);" y2="95.0314"
      /><line x1="271.772" x2="279.2946" y1="96.8035" style="fill:none; stroke:rgb(217,83,25);" y2="96.8035"
      /><line x1="281.4164" x2="288.9391" y1="94.1733" style="fill:none; stroke:rgb(217,83,25);" y2="94.1733"
      /><line x1="291.0609" x2="298.5836" y1="95.1939" style="fill:none; stroke:rgb(217,83,25);" y2="95.1939"
      /><line x1="300.7054" x2="308.228" y1="95.4836" style="fill:none; stroke:rgb(217,83,25);" y2="95.4836"
      /><line x1="310.3498" x2="317.8724" y1="93.7856" style="fill:none; stroke:rgb(217,83,25);" y2="93.7856"
      /><line x1="319.9942" x2="327.5169" y1="95.215" style="fill:none; stroke:rgb(217,83,25);" y2="95.215"
      /><line x1="329.6387" x2="337.1613" y1="96.2989" style="fill:none; stroke:rgb(217,83,25);" y2="96.2989"
      /><line x1="339.2831" x2="346.8058" y1="95.9092" style="fill:none; stroke:rgb(217,83,25);" y2="95.9092"
      /><line x1="348.9276" x2="356.4502" y1="96.0996" style="fill:none; stroke:rgb(217,83,25);" y2="96.0996"
      /><line x1="358.572" x2="366.0947" y1="95.5112" style="fill:none; stroke:rgb(217,83,25);" y2="95.5112"
      /><line x1="368.2165" x2="375.7391" y1="94.4119" style="fill:none; stroke:rgb(217,83,25);" y2="94.4119"
      /><line x1="377.8609" x2="385.3835" y1="94.0625" style="fill:none; stroke:rgb(217,83,25);" y2="94.0625"
      /><line x1="387.5053" x2="395.028" y1="94.625" style="fill:none; stroke:rgb(217,83,25);" y2="94.625"
      /><line x1="397.1498" x2="404.6724" y1="93.3384" style="fill:none; stroke:rgb(217,83,25);" y2="93.3384"
      /><line x1="406.7942" x2="414.3169" y1="93.9674" style="fill:none; stroke:rgb(217,83,25);" y2="93.9674"
      /><line x1="416.4387" x2="423.9613" y1="94.5478" style="fill:none; stroke:rgb(217,83,25);" y2="94.5478"
      /><line x1="426.0831" x2="433.6058" y1="94.2149" style="fill:none; stroke:rgb(217,83,25);" y2="94.2149"
      /><line x1="435.7276" x2="443.2502" y1="96.603" style="fill:none; stroke:rgb(217,83,25);" y2="96.603"
      /><line x1="445.372" x2="452.8947" y1="93.9156" style="fill:none; stroke:rgb(217,83,25);" y2="93.9156"
      /><line x1="455.0164" x2="462.5391" y1="95.1699" style="fill:none; stroke:rgb(217,83,25);" y2="95.1699"
      /><line x1="78.8831" x2="86.4058" y1="90.5599" style="fill:none; stroke:rgb(217,83,25);" y2="90.5599"
      /><line x1="88.5276" x2="96.0502" y1="90.2865" style="fill:none; stroke:rgb(217,83,25);" y2="90.2865"
      /><line x1="98.172" x2="105.6947" y1="90.6026" style="fill:none; stroke:rgb(217,83,25);" y2="90.6026"
      /><line x1="107.8164" x2="115.3391" y1="90.9052" style="fill:none; stroke:rgb(217,83,25);" y2="90.9052"
      /><line x1="117.4609" x2="124.9836" y1="90.4159" style="fill:none; stroke:rgb(217,83,25);" y2="90.4159"
      /><line x1="127.1053" x2="134.628" y1="90.5386" style="fill:none; stroke:rgb(217,83,25);" y2="90.5386"
      /><line x1="136.7498" x2="144.2724" y1="90.7751" style="fill:none; stroke:rgb(217,83,25);" y2="90.7751"
      /><line x1="146.3942" x2="153.9169" y1="90.5182" style="fill:none; stroke:rgb(217,83,25);" y2="90.5182"
      /><line x1="156.0387" x2="163.5613" y1="90.3927" style="fill:none; stroke:rgb(217,83,25);" y2="90.3927"
      /><line x1="165.6831" x2="173.2058" y1="90.8996" style="fill:none; stroke:rgb(217,83,25);" y2="90.8996"
      /><line x1="175.3275" x2="182.8502" y1="90.9912" style="fill:none; stroke:rgb(217,83,25);" y2="90.9912"
      /><line x1="184.972" x2="192.4947" y1="90.5344" style="fill:none; stroke:rgb(217,83,25);" y2="90.5344"
      /><line x1="194.6164" x2="202.1391" y1="90.4742" style="fill:none; stroke:rgb(217,83,25);" y2="90.4742"
      /><line x1="204.2609" x2="211.7836" y1="90.7371" style="fill:none; stroke:rgb(217,83,25);" y2="90.7371"
      /><line x1="213.9053" x2="221.428" y1="90.6087" style="fill:none; stroke:rgb(217,83,25);" y2="90.6087"
      /><line x1="223.5498" x2="231.0724" y1="90.7354" style="fill:none; stroke:rgb(217,83,25);" y2="90.7354"
      /><line x1="233.1942" x2="240.7169" y1="90.4836" style="fill:none; stroke:rgb(217,83,25);" y2="90.4836"
      /><line x1="242.8387" x2="250.3613" y1="90.1231" style="fill:none; stroke:rgb(217,83,25);" y2="90.1231"
      /><line x1="252.4831" x2="260.0058" y1="90.7202" style="fill:none; stroke:rgb(217,83,25);" y2="90.7202"
      /><line x1="262.1276" x2="269.6502" y1="90.6618" style="fill:none; stroke:rgb(217,83,25);" y2="90.6618"
      /><line x1="271.772" x2="279.2946" y1="90.4529" style="fill:none; stroke:rgb(217,83,25);" y2="90.4529"
      /><line x1="281.4164" x2="288.9391" y1="90.6347" style="fill:none; stroke:rgb(217,83,25);" y2="90.6347"
      /><line x1="291.0609" x2="298.5836" y1="90.6311" style="fill:none; stroke:rgb(217,83,25);" y2="90.6311"
      /><line x1="300.7054" x2="308.228" y1="90.8311" style="fill:none; stroke:rgb(217,83,25);" y2="90.8311"
      /><line x1="310.3498" x2="317.8724" y1="90.6646" style="fill:none; stroke:rgb(217,83,25);" y2="90.6646"
      /><line x1="319.9942" x2="327.5169" y1="90.6289" style="fill:none; stroke:rgb(217,83,25);" y2="90.6289"
      /><line x1="329.6387" x2="337.1613" y1="90.8444" style="fill:none; stroke:rgb(217,83,25);" y2="90.8444"
      /><line x1="339.2831" x2="346.8058" y1="90.4808" style="fill:none; stroke:rgb(217,83,25);" y2="90.4808"
      /><line x1="348.9276" x2="356.4502" y1="90.7613" style="fill:none; stroke:rgb(217,83,25);" y2="90.7613"
      /><line x1="358.572" x2="366.0947" y1="90.6905" style="fill:none; stroke:rgb(217,83,25);" y2="90.6905"
      /><line x1="368.2165" x2="375.7391" y1="90.4149" style="fill:none; stroke:rgb(217,83,25);" y2="90.4149"
      /><line x1="377.8609" x2="385.3835" y1="90.6702" style="fill:none; stroke:rgb(217,83,25);" y2="90.6702"
      /><line x1="387.5053" x2="395.028" y1="90.5785" style="fill:none; stroke:rgb(217,83,25);" y2="90.5785"
      /><line x1="397.1498" x2="404.6724" y1="90.9046" style="fill:none; stroke:rgb(217,83,25);" y2="90.9046"
      /><line x1="406.7942" x2="414.3169" y1="90.6711" style="fill:none; stroke:rgb(217,83,25);" y2="90.6711"
      /><line x1="416.4387" x2="423.9613" y1="90.5238" style="fill:none; stroke:rgb(217,83,25);" y2="90.5238"
      /><line x1="426.0831" x2="433.6058" y1="90.7061" style="fill:none; stroke:rgb(217,83,25);" y2="90.7061"
      /><line x1="435.7276" x2="443.2502" y1="91.0677" style="fill:none; stroke:rgb(217,83,25);" y2="91.0677"
      /><line x1="445.372" x2="452.8947" y1="90.6475" style="fill:none; stroke:rgb(217,83,25);" y2="90.6475"
      /><line x1="455.0164" x2="462.5391" y1="90.4291" style="fill:none; stroke:rgb(217,83,25);" y2="90.4291"
      /><path d="M82.6444 92.1874 L92.2889 93.4398 L101.9333 93.5058 L111.5778 93.4304 L121.2222 92.4323 L130.8667 93.421 L140.5111 93.0632 L150.1555 93.2892 L159.8 93.3268 L169.4444 94.8617 L179.0889 93.5434 L188.7333 93.4869 L198.3778 92.7242 L208.0222 92.6112 L217.6667 92.7242 L227.3111 92.7053 L236.9556 92.9973 L246.6 93.2515 L256.2444 93.421 L265.8889 92.8466 L275.5333 93.6282 L285.1778 92.404 L294.8222 92.9125 L304.4667 93.1573 L314.1111 92.2251 L323.7556 92.9219 L333.4 93.5717 L343.0444 93.195 L352.6889 93.4304 L362.3333 93.1008 L371.9778 92.4134 L381.6222 92.3663 L391.2667 92.6018 L400.9111 92.1215 L410.5555 92.3193 L420.2 92.5358 L429.8445 92.4605 L439.4889 93.8353 L449.1333 92.2816 L458.7778 92.7995" style="fill:none; fill-rule:evenodd; stroke:rgb(217,83,25);"
    /></g
    ><g style="fill:white; text-rendering:optimizeSpeed; color-rendering:optimizeSpeed; image-rendering:optimizeSpeed; shape-rendering:crispEdges; color-interpolation:sRGB; stroke:white;"
    ><path style="stroke:none;" d="M380 73 L380 45 L497 45 L497 73 Z"
    /></g
    ><g transform="translate(417,52.8596)" style="font-size:9px; text-rendering:geometricPrecision; color-rendering:optimizeQuality; image-rendering:optimizeQuality; font-family:'SansSerif'; color-interpolation:linearRGB;"
    ><text x="0" xml:space="preserve" y="3" style="stroke:none;"
      >inside group</text
    ></g
    ><g style="stroke-linecap:butt; fill:rgb(0,114,189); text-rendering:geometricPrecision; color-rendering:optimizeQuality; image-rendering:optimizeQuality; stroke-linejoin:round; color-interpolation:linearRGB; stroke:rgb(0,114,189); stroke-width:0.5;"
    ><line y2="52.8596" style="fill:none;" x1="384" x2="414" y1="52.8596"
    /></g
    ><g transform="translate(417,65.1404)" style="font-size:9px; text-rendering:geometricPrecision; color-rendering:optimizeQuality; image-rendering:optimizeQuality; font-family:'SansSerif'; color-interpolation:linearRGB;"
    ><text x="0" xml:space="preserve" y="3" style="stroke:none;"
      >inside vs outside</text
    ></g
    ><g style="stroke-linecap:butt; fill:rgb(217,83,25); text-rendering:geometricPrecision; color-rendering:optimizeQuality; image-rendering:optimizeQuality; stroke-linejoin:round; color-interpolation:linearRGB; stroke:rgb(217,83,25); stroke-width:0.5;"
    ><line y2="65.1404" style="fill:none;" x1="384" x2="414" y1="65.1404"
      /><path d="M380 73 L380 45 L497 45 L497 73 Z" style="fill:none; fill-rule:evenodd; stroke-linejoin:miter; stroke:rgb(38,38,38);"
    /></g
  ></g
></svg
>
